{
  "Id": "bn-inscript2",
  "Name": "ইন্‌স্ক্ৰিপ্ত ২",
  "Author": "Parag Nemade",
  "Description": "Enhanced InScript keyboard for Bengali language",
  "Version": "1.0",
  "MaxKeyLength": 1,
  "ContextLength": 0,
  "Patterns": [
    {
      "Input": "\\!",
      "Context": null,
      "Replacement": "৴",
      "AltGr": true
    },
    {
      "Input": "1",
      "Context": null,
      "Replacement": "‍",
      "AltGr": true
    },
    {
      "Input": "\\@",
      "Context": null,
      "Replacement": "৵",
      "AltGr": true
    },
    {
      "Input": "2",
      "Context": null,
      "Replacement": "‌",
      "AltGr": true
    },
    {
      "Input": "\\#",
      "Context": null,
      "Replacement": "৶",
      "AltGr": true
    },
    {
      "Input": "\\$",
      "Context": null,
      "Replacement": "৷",
      "AltGr": true
    },
    {
      "Input": "4",
      "Context": null,
      "Replacement": "₹",
      "AltGr": true
    },
    {
      "Input": "\\%",
      "Context": null,
      "Replacement": "৸",
      "AltGr": true
    },
    {
      "Input": "\\^",
      "Context": null,
      "Replacement": "৹",
      "AltGr": true
    },
    {
      "Input": ",",
      "Context": null,
      "Replacement": "৳",
      "AltGr": true
    },
    {
      "Input": "\\.",
      "Context": null,
      "Replacement": "॥",
      "AltGr": true
    },
    {
      "Input": "/",
      "Context": null,
      "Replacement": "্য",
      "AltGr": true
    },
    {
      "Input": "\\<",
      "Context": null,
      "Replacement": "৲",
      "AltGr": true
    },
    {
      "Input": "\\=",
      "Context": null,
      "Replacement": "ৄ",
      "AltGr": true
    },
    {
      "Input": "\\+",
      "Context": null,
      "Replacement": "ৠ",
      "AltGr": true
    },
    {
      "Input": "\\>",
      "Context": null,
      "Replacement": "ঽ",
      "AltGr": true
    },
    {
      "Input": "\\?",
      "Context": null,
      "Replacement": "৻",
      "AltGr": true
    },
    {
      "Input": "F",
      "Context": null,
      "Replacement": "ঌ",
      "AltGr": true
    },
    {
      "Input": "R",
      "Context": null,
      "Replacement": "ৡ",
      "AltGr": true
    },
    {
      "Input": "\\{",
      "Context": null,
      "Replacement": "ঢ়",
      "AltGr": true
    },
    {
      "Input": "\\[",
      "Context": null,
      "Replacement": "ড়",
      "AltGr": true
    },
    {
      "Input": "f",
      "Context": null,
      "Replacement": "ৢ",
      "AltGr": true
    },
    {
      "Input": "l",
      "Context": null,
      "Replacement": "ৎ",
      "AltGr": true
    },
    {
      "Input": "r",
      "Context": null,
      "Replacement": "ৣ",
      "AltGr": true
    },
    {
      "Input": "x",
      "Context": null,
      "Replacement": "৺",
      "AltGr": true
    },
    {
      "Input": "\\!",
      "Context": null,
      "Replacement": "অ্যা",
      "AltGr": false
    },
    {
      "Input": "1",
      "Context": null,
      "Replacement": "১",
      "AltGr": false
    },
    {
      "Input": "2",
      "Context": null,
      "Replacement": "২",
      "AltGr": false
    },
    {
      "Input": "\\#",
      "Context": null,
      "Replacement": "্র",
      "AltGr": false
    },
    {
      "Input": "3",
      "Context": null,
      "Replacement": "৩",
      "AltGr": false
    },
    {
      "Input": "\\$",
      "Context": null,
      "Replacement": "র্",
      "AltGr": false
    },
    {
      "Input": "4",
      "Context": null,
      "Replacement": "৪",
      "AltGr": false
    },
    {
      "Input": "\\%",
      "Context": null,
      "Replacement": "জ্ঞ",
      "AltGr": false
    },
    {
      "Input": "5",
      "Context": null,
      "Replacement": "৫",
      "AltGr": false
    },
    {
      "Input": "\\^",
      "Context": null,
      "Replacement": "ত্র",
      "AltGr": false
    },
    {
      "Input": "6",
      "Context": null,
      "Replacement": "৬",
      "AltGr": false
    },
    {
      "Input": "\\&",
      "Context": null,
      "Replacement": "ক্ষ",
      "AltGr": false
    },
    {
      "Input": "7",
      "Context": null,
      "Replacement": "৭",
      "AltGr": false
    },
    {
      "Input": "\\*",
      "Context": null,
      "Replacement": "শ্র",
      "AltGr": false
    },
    {
      "Input": "8",
      "Context": null,
      "Replacement": "৮",
      "AltGr": false
    },
    {
      "Input": "9",
      "Context": null,
      "Replacement": "৯",
      "AltGr": false
    },
    {
      "Input": "\\(",
      "Context": null,
      "Replacement": "(",
      "AltGr": false
    },
    {
      "Input": "\\)",
      "Context": null,
      "Replacement": ")",
      "AltGr": false
    },
    {
      "Input": "0",
      "Context": null,
      "Replacement": "০",
      "AltGr": false
    },
    {
      "Input": "\"",
      "Context": null,
      "Replacement": "ঠ",
      "AltGr": false
    },
    {
      "Input": "'",
      "Context": null,
      "Replacement": "ট",
      "AltGr": false
    },
    {
      "Input": ",",
      "Context": null,
      "Replacement": ",",
      "AltGr": false
    },
    {
      "Input": "-",
      "Context": null,
      "Replacement": "-",
      "AltGr": false
    },
    {
      "Input": "\\.",
      "Context": null,
      "Replacement": ".",
      "AltGr": false
    },
    {
      "Input": "/",
      "Context": null,
      "Replacement": "য়",
      "AltGr": false
    },
    {
      "Input": ":",
      "Context": null,
      "Replacement": "ছ",
      "AltGr": false
    },
    {
      "Input": ";",
      "Context": null,
      "Replacement": "চ",
      "AltGr": false
    },
    {
      "Input": "\\<",
      "Context": null,
      "Replacement": "ষ",
      "AltGr": false
    },
    {
      "Input": "\\=",
      "Context": null,
      "Replacement": "ৃ",
      "AltGr": false
    },
    {
      "Input": "\\+",
      "Context": null,
      "Replacement": "ঋ",
      "AltGr": false
    },
    {
      "Input": "\\>",
      "Context": null,
      "Replacement": "।",
      "AltGr": false
    },
    {
      "Input": "\\?",
      "Context": null,
      "Replacement": "য",
      "AltGr": false
    },
    {
      "Input": "A",
      "Context": null,
      "Replacement": "ও",
      "AltGr": false
    },
    {
      "Input": "C",
      "Context": null,
      "Replacement": "ণ",
      "AltGr": false
    },
    {
      "Input": "D",
      "Context": null,
      "Replacement": "অ",
      "AltGr": false
    },
    {
      "Input": "E",
      "Context": null,
      "Replacement": "আ",
      "AltGr": false
    },
    {
      "Input": "F",
      "Context": null,
      "Replacement": "ই",
      "AltGr": false
    },
    {
      "Input": "G",
      "Context": null,
      "Replacement": "উ",
      "AltGr": false
    },
    {
      "Input": "H",
      "Context": null,
      "Replacement": "ফ",
      "AltGr": false
    },
    {
      "Input": "I",
      "Context": null,
      "Replacement": "ঘ",
      "AltGr": false
    },
    {
      "Input": "K",
      "Context": null,
      "Replacement": "খ",
      "AltGr": false
    },
    {
      "Input": "L",
      "Context": null,
      "Replacement": "থ",
      "AltGr": false
    },
    {
      "Input": "M",
      "Context": null,
      "Replacement": "শ",
      "AltGr": false
    },
    {
      "Input": "O",
      "Context": null,
      "Replacement": "ধ",
      "AltGr": false
    },
    {
      "Input": "P",
      "Context": null,
      "Replacement": "ঝ",
      "AltGr": false
    },
    {
      "Input": "Q",
      "Context": null,
      "Replacement": "ঔ",
      "AltGr": false
    },
    {
      "Input": "R",
      "Context": null,
      "Replacement": "ঈ",
      "AltGr": false
    },
    {
      "Input": "S",
      "Context": null,
      "Replacement": "এ",
      "AltGr": false
    },
    {
      "Input": "T",
      "Context": null,
      "Replacement": "ঊ",
      "AltGr": false
    },
    {
      "Input": "U",
      "Context": null,
      "Replacement": "ঙ",
      "AltGr": false
    },
    {
      "Input": "W",
      "Context": null,
      "Replacement": "ঐ",
      "AltGr": false
    },
    {
      "Input": "X",
      "Context": null,
      "Replacement": "ঁ",
      "AltGr": false
    },
    {
      "Input": "Y",
      "Context": null,
      "Replacement": "ভ",
      "AltGr": false
    },
    {
      "Input": "\\{",
      "Context": null,
      "Replacement": "ঢ",
      "AltGr": false
    },
    {
      "Input": "\\[",
      "Context": null,
      "Replacement": "ড",
      "AltGr": false
    },
    {
      "Input": "\\}",
      "Context": null,
      "Replacement": "ঞ",
      "AltGr": false
    },
    {
      "Input": "\\]",
      "Context": null,
      "Replacement": "়",
      "AltGr": false
    },
    {
      "Input": "\\_",
      "Context": null,
      "Replacement": "ঃ",
      "AltGr": false
    },
    {
      "Input": "a",
      "Context": null,
      "Replacement": "ো",
      "AltGr": false
    },
    {
      "Input": "c",
      "Context": null,
      "Replacement": "ম",
      "AltGr": false
    },
    {
      "Input": "d",
      "Context": null,
      "Replacement": "্",
      "AltGr": false
    },
    {
      "Input": "e",
      "Context": null,
      "Replacement": "া",
      "AltGr": false
    },
    {
      "Input": "f",
      "Context": null,
      "Replacement": "ি",
      "AltGr": false
    },
    {
      "Input": "g",
      "Context": null,
      "Replacement": "ু",
      "AltGr": false
    },
    {
      "Input": "h",
      "Context": null,
      "Replacement": "প",
      "AltGr": false
    },
    {
      "Input": "i",
      "Context": null,
      "Replacement": "গ",
      "AltGr": false
    },
    {
      "Input": "j",
      "Context": null,
      "Replacement": "র",
      "AltGr": false
    },
    {
      "Input": "k",
      "Context": null,
      "Replacement": "ক",
      "AltGr": false
    },
    {
      "Input": "l",
      "Context": null,
      "Replacement": "ত",
      "AltGr": false
    },
    {
      "Input": "m",
      "Context": null,
      "Replacement": "স",
      "AltGr": false
    },
    {
      "Input": "n",
      "Context": null,
      "Replacement": "ল",
      "AltGr": false
    },
    {
      "Input": "o",
      "Context": null,
      "Replacement": "দ",
      "AltGr": false
    },
    {
      "Input": "p",
      "Context": null,
      "Replacement": "জ",
      "AltGr": false
    },
    {
      "Input": "q",
      "Context": null,
      "Replacement": "ৌ",
      "AltGr": false
    },
    {
      "Input": "r",
      "Context": null,
      "Replacement": "ী",
      "AltGr": false
    },
    {
      "Input": "s",
      "Context": null,
      "Replacement": "ে",
      "AltGr": false
    },
    {
      "Input": "t",
      "Context": null,
      "Replacement": "ূ",
      "AltGr": false
    },
    {
      "Input": "u",
      "Context": null,
      "Replacement": "হ",
      "AltGr": false
    },
    {
      "Input": "v",
      "Context": null,
      "Replacement": "ন",
      "AltGr": false
    },
    {
      "Input": "w",
      "Context": null,
      "Replacement": "ৈ",
      "AltGr": false
    },
    {
      "Input": "x",
      "Context": null,
      "Replacement": "ং",
      "AltGr": false
    },
    {
      "Input": "y",
      "Context": null,
      "Replacement": "ব",
      "AltGr": false
    },
    {
      "Input": "z",
      "Context": null,
      "Replacement": "ʼ",
      "AltGr": false
    }
  ]
}