{
  "Id": "eo-transliteration",
  "Name": "Esperanto Transliteration",
  "Author": "Brion Vibber",
  "Description": "Esperanto x-code transliteration",
  "Version": "1.0",
  "MaxKeyLength": 1,
  "ContextLength": 1,
  "Patterns": [
    {
      "Input": "C[Xx]",
      "Context": "C",
      "Replacement": "Ĉ",
      "AltGr": false
    },
    {
      "Input": "Ĉ([Xx])",
      "Context": "[Xx]",
      "Replacement": "C$1",
      "AltGr": false
    },
    {
      "Input": "G[Xx]",
      "Context": "G",
      "Replacement": "Ĝ",
      "AltGr": false
    },
    {
      "Input": "Ĝ([Xx])",
      "Context": "[Xx]",
      "Replacement": "G$1",
      "AltGr": false
    },
    {
      "Input": "H[Xx]",
      "Context": "H",
      "Replacement": "Ĥ",
      "AltGr": false
    },
    {
      "Input": "Ĥ([Xx])",
      "Context": "[Xx]",
      "Replacement": "H$1",
      "AltGr": false
    },
    {
      "Input": "J[Xx]",
      "Context": "J",
      "Replacement": "Ĵ",
      "AltGr": false
    },
    {
      "Input": "Ĵ([Xx])",
      "Context": "[Xx]",
      "Replacement": "J$1",
      "AltGr": false
    },
    {
      "Input": "S[Xx]",
      "Context": "S",
      "Replacement": "Ŝ",
      "AltGr": false
    },
    {
      "Input": "Ŝ([Xx])",
      "Context": "[Xx]",
      "Replacement": "S$1",
      "AltGr": false
    },
    {
      "Input": "U[Xx]",
      "Context": "U",
      "Replacement": "Ŭ",
      "AltGr": false
    },
    {
      "Input": "Ŭ([Xx])",
      "Context": "[Xx]",
      "Replacement": "U$1",
      "AltGr": false
    },
    {
      "Input": "c[Xx]",
      "Context": "c",
      "Replacement": "ĉ",
      "AltGr": false
    },
    {
      "Input": "ĉ([Xx])",
      "Context": "[Xx]",
      "Replacement": "c$1",
      "AltGr": false
    },
    {
      "Input": "g[Xx]",
      "Context": "g",
      "Replacement": "ĝ",
      "AltGr": false
    },
    {
      "Input": "ĝ([Xx])",
      "Context": "[Xx]",
      "Replacement": "g$1",
      "AltGr": false
    },
    {
      "Input": "h[Xx]",
      "Context": "h",
      "Replacement": "ĥ",
      "AltGr": false
    },
    {
      "Input": "ĥ([Xx])",
      "Context": "[Xx]",
      "Replacement": "h$1",
      "AltGr": false
    },
    {
      "Input": "j[Xx]",
      "Context": "j",
      "Replacement": "ĵ",
      "AltGr": false
    },
    {
      "Input": "ĵ([Xx])",
      "Context": "[Xx]",
      "Replacement": "j$1",
      "AltGr": false
    },
    {
      "Input": "s[Xx]",
      "Context": "s",
      "Replacement": "ŝ",
      "AltGr": false
    },
    {
      "Input": "ŝ([Xx])",
      "Context": "[Xx]",
      "Replacement": "s$1",
      "AltGr": false
    },
    {
      "Input": "u[Xx]",
      "Context": "u",
      "Replacement": "ŭ",
      "AltGr": false
    },
    {
      "Input": "ŭ([Xx])",
      "Context": "[Xx]",
      "Replacement": "u$1",
      "AltGr": false
    }
  ]
}