{
  "Id": "hi-transliteration",
  "Name": "लिप्यंतरण",
  "Author": "Junaid P V",
  "Description": "Transliteration keyboard for Devanagari script",
  "Version": "1.0",
  "MaxKeyLength": 3,
  "ContextLength": 1,
  "Patterns": [
    {
      "Input": "\\\\([A-Za-z\\>_~\\.0-9])",
      "Context": "\\\\",
      "Replacement": "$1",
      "AltGr": false
    },
    {
      "Input": "([क-ह]़?)्a",
      "Context": null,
      "Replacement": "$1",
      "AltGr": false
    },
    {
      "Input": "([क-ह]़?)्\\~",
      "Context": null,
      "Replacement": "$1्",
      "AltGr": false
    },
    {
      "Input": "([क-ह]़?)्\\.",
      "Context": "\\~",
      "Replacement": "$1्।",
      "AltGr": false
    },
    {
      "Input": "([क-ह]़?)्\\.",
      "Context": null,
      "Replacement": "$1।",
      "AltGr": false
    },
    {
      "Input": "([क-ह]़?)्0",
      "Context": "\\~",
      "Replacement": "$1्०",
      "AltGr": false
    },
    {
      "Input": "([क-ह]़?)्1",
      "Context": "\\~",
      "Replacement": "$1्१",
      "AltGr": false
    },
    {
      "Input": "([क-ह]़?)्2",
      "Context": "\\~",
      "Replacement": "$1्२",
      "AltGr": false
    },
    {
      "Input": "([क-ह]़?)्3",
      "Context": "\\~",
      "Replacement": "$1्३",
      "AltGr": false
    },
    {
      "Input": "([क-ह]़?)्4",
      "Context": "\\~",
      "Replacement": "$1्४",
      "AltGr": false
    },
    {
      "Input": "([क-ह]़?)्5",
      "Context": "\\~",
      "Replacement": "$1्५",
      "AltGr": false
    },
    {
      "Input": "([क-ह]़?)्6",
      "Context": "\\~",
      "Replacement": "$1्६",
      "AltGr": false
    },
    {
      "Input": "([क-ह]़?)्7",
      "Context": "\\~",
      "Replacement": "$1्७",
      "AltGr": false
    },
    {
      "Input": "([क-ह]़?)्8",
      "Context": "\\~",
      "Replacement": "$1्८",
      "AltGr": false
    },
    {
      "Input": "([क-ह]़?)्9",
      "Context": "\\~",
      "Replacement": "$1्९",
      "AltGr": false
    },
    {
      "Input": "([क-ह]़?)्\\r",
      "Context": "\\~",
      "Replacement": "$1्\r",
      "AltGr": false
    },
    {
      "Input": "([क-ह]़?)्0",
      "Context": null,
      "Replacement": "$1०",
      "AltGr": false
    },
    {
      "Input": "([क-ह]़?)्1",
      "Context": null,
      "Replacement": "$1१",
      "AltGr": false
    },
    {
      "Input": "([क-ह]़?)्2",
      "Context": null,
      "Replacement": "$1२",
      "AltGr": false
    },
    {
      "Input": "([क-ह]़?)्3",
      "Context": null,
      "Replacement": "$1३",
      "AltGr": false
    },
    {
      "Input": "([क-ह]़?)्4",
      "Context": null,
      "Replacement": "$1४",
      "AltGr": false
    },
    {
      "Input": "([क-ह]़?)्5",
      "Context": null,
      "Replacement": "$1५",
      "AltGr": false
    },
    {
      "Input": "([क-ह]़?)्6",
      "Context": null,
      "Replacement": "$1६",
      "AltGr": false
    },
    {
      "Input": "([क-ह]़?)्7",
      "Context": null,
      "Replacement": "$1७",
      "AltGr": false
    },
    {
      "Input": "([क-ह]़?)्8",
      "Context": null,
      "Replacement": "$1८",
      "AltGr": false
    },
    {
      "Input": "([क-ह]़?)्9",
      "Context": null,
      "Replacement": "$1९",
      "AltGr": false
    },
    {
      "Input": "([क-ह]़?)्\\r",
      "Context": null,
      "Replacement": "$1\r",
      "AltGr": false
    },
    {
      "Input": "([क-ह]़?)्A",
      "Context": null,
      "Replacement": "$1ा",
      "AltGr": false
    },
    {
      "Input": "([क-ह]़?)a",
      "Context": null,
      "Replacement": "$1ा",
      "AltGr": false
    },
    {
      "Input": "([क-ह]़?)्i",
      "Context": null,
      "Replacement": "$1ि",
      "AltGr": false
    },
    {
      "Input": "([क-ह]़?)(्I|िi|ेe)",
      "Context": null,
      "Replacement": "$1ी",
      "AltGr": false
    },
    {
      "Input": "([क-ह]़?)्u",
      "Context": null,
      "Replacement": "$1ु",
      "AltGr": false
    },
    {
      "Input": "([क-ह]़?)(ुu|्U|ोo)",
      "Context": null,
      "Replacement": "$1ू",
      "AltGr": false
    },
    {
      "Input": "([क-ह]़?)्R",
      "Context": null,
      "Replacement": "$1ृ",
      "AltGr": false
    },
    {
      "Input": "([क-ह]़?)ृR",
      "Context": null,
      "Replacement": "$1ॄ",
      "AltGr": false
    },
    {
      "Input": "([क-ह]़?)्ळ्l",
      "Context": null,
      "Replacement": "$1ॢ",
      "AltGr": false
    },
    {
      "Input": "([क-ह]़?)ॢl",
      "Context": null,
      "Replacement": "$1ॣ",
      "AltGr": false
    },
    {
      "Input": "([क-ह]़?)्e",
      "Context": null,
      "Replacement": "$1े",
      "AltGr": false
    },
    {
      "Input": "([क-ह]़?)्E",
      "Context": null,
      "Replacement": "$1ॅ",
      "AltGr": false
    },
    {
      "Input": "([क-ह]़?)i",
      "Context": null,
      "Replacement": "$1ै",
      "AltGr": false
    },
    {
      "Input": "([क-ह]़?)्o",
      "Context": null,
      "Replacement": "$1ो",
      "AltGr": false
    },
    {
      "Input": "([क-ह]़?)्O",
      "Context": null,
      "Replacement": "$1ॉ",
      "AltGr": false
    },
    {
      "Input": "([क-ह]़?)u",
      "Context": null,
      "Replacement": "$1ौ",
      "AltGr": false
    },
    {
      "Input": "([क-ह]़?)ृa",
      "Context": null,
      "Replacement": "$1्ऱ",
      "AltGr": false
    },
    {
      "Input": "([क-ह]़?)ृA",
      "Context": null,
      "Replacement": "$1्ऱा",
      "AltGr": false
    },
    {
      "Input": "([क-ह]़?)ृi",
      "Context": null,
      "Replacement": "$1्ऱि",
      "AltGr": false
    },
    {
      "Input": "([क-ह]़?)ृI",
      "Context": null,
      "Replacement": "$1्ऱी",
      "AltGr": false
    },
    {
      "Input": "([क-ह]़?)ृu",
      "Context": null,
      "Replacement": "$1्ऱु",
      "AltGr": false
    },
    {
      "Input": "([क-ह]़?)ृU",
      "Context": null,
      "Replacement": "$1्ऱू",
      "AltGr": false
    },
    {
      "Input": "([क-ह]़?)ृ\\^",
      "Context": null,
      "Replacement": "$1्ऱॅ",
      "AltGr": false
    },
    {
      "Input": "([क-ह]़?)ृe",
      "Context": null,
      "Replacement": "$1्ऱॆ",
      "AltGr": false
    },
    {
      "Input": "([क-ह]़?)ृE",
      "Context": null,
      "Replacement": "$1्ऱे",
      "AltGr": false
    },
    {
      "Input": "([क-ह]़?)ृo",
      "Context": null,
      "Replacement": "$1्ऱॊ",
      "AltGr": false
    },
    {
      "Input": "([क-ह]़?)ृO",
      "Context": null,
      "Replacement": "$1्ऱो",
      "AltGr": false
    },
    {
      "Input": "([क-ह]़?)ृ\\~",
      "Context": null,
      "Replacement": "$1्ऱ्",
      "AltGr": false
    },
    {
      "Input": "([अ-ह]़)(्?)\\`",
      "Context": null,
      "Replacement": "$1$2",
      "AltGr": false
    },
    {
      "Input": "([क-ह])(ा|ि|ी|ु|ू|े|ै|ॅ|ो|ौ|ॉ|ृ|्)\\`",
      "Context": null,
      "Replacement": "$1़$2",
      "AltGr": false
    },
    {
      "Input": "अa",
      "Context": null,
      "Replacement": "आ",
      "AltGr": false
    },
    {
      "Input": "उu",
      "Context": null,
      "Replacement": "ऊ",
      "AltGr": false
    },
    {
      "Input": "अi",
      "Context": null,
      "Replacement": "ऐ",
      "AltGr": false
    },
    {
      "Input": "अ\\^",
      "Context": null,
      "Replacement": "ॲ",
      "AltGr": false
    },
    {
      "Input": "इi",
      "Context": null,
      "Replacement": "ई",
      "AltGr": false
    },
    {
      "Input": "अu",
      "Context": null,
      "Replacement": "औ",
      "AltGr": false
    },
    {
      "Input": "ऋR",
      "Context": null,
      "Replacement": "ॠ",
      "AltGr": false
    },
    {
      "Input": "ळ्l",
      "Context": null,
      "Replacement": "ऌ",
      "AltGr": false
    },
    {
      "Input": "ऌl",
      "Context": null,
      "Replacement": "ॡ",
      "AltGr": false
    },
    {
      "Input": "ं(m|M|\\^)",
      "Context": null,
      "Replacement": "ँ",
      "AltGr": false
    },
    {
      "Input": "आऊM",
      "Context": null,
      "Replacement": "ॐ",
      "AltGr": false
    },
    {
      "Input": "क्h",
      "Context": null,
      "Replacement": "ख्",
      "AltGr": false
    },
    {
      "Input": "ग्h",
      "Context": null,
      "Replacement": "घ्",
      "AltGr": false
    },
    {
      "Input": "न्g",
      "Context": null,
      "Replacement": "ङ्",
      "AltGr": false
    },
    {
      "Input": "च्h",
      "Context": null,
      "Replacement": "छ्",
      "AltGr": false
    },
    {
      "Input": "ज्h",
      "Context": null,
      "Replacement": "झ्",
      "AltGr": false
    },
    {
      "Input": "न्j",
      "Context": null,
      "Replacement": "ञ्",
      "AltGr": false
    },
    {
      "Input": "ट्h",
      "Context": null,
      "Replacement": "ठ्",
      "AltGr": false
    },
    {
      "Input": "ड्h",
      "Context": null,
      "Replacement": "ढ्",
      "AltGr": false
    },
    {
      "Input": "त्h",
      "Context": null,
      "Replacement": "थ्",
      "AltGr": false
    },
    {
      "Input": "द्h",
      "Context": null,
      "Replacement": "ध्",
      "AltGr": false
    },
    {
      "Input": "प्h",
      "Context": null,
      "Replacement": "फ्",
      "AltGr": false
    },
    {
      "Input": "ब्h",
      "Context": null,
      "Replacement": "भ्",
      "AltGr": false
    },
    {
      "Input": "ऋa",
      "Context": null,
      "Replacement": "ऱ",
      "AltGr": false
    },
    {
      "Input": "ऋA",
      "Context": null,
      "Replacement": "ऱा",
      "AltGr": false
    },
    {
      "Input": "ऋi",
      "Context": null,
      "Replacement": "ऱि",
      "AltGr": false
    },
    {
      "Input": "ऋI",
      "Context": null,
      "Replacement": "ऱी",
      "AltGr": false
    },
    {
      "Input": "ऋu",
      "Context": null,
      "Replacement": "ऱु",
      "AltGr": false
    },
    {
      "Input": "ऋU",
      "Context": null,
      "Replacement": "ऱू",
      "AltGr": false
    },
    {
      "Input": "ऋ\\^",
      "Context": null,
      "Replacement": "ऱॅ",
      "AltGr": false
    },
    {
      "Input": "ऋe",
      "Context": null,
      "Replacement": "ऱे",
      "AltGr": false
    },
    {
      "Input": "ऋE",
      "Context": null,
      "Replacement": "ऱे",
      "AltGr": false
    },
    {
      "Input": "ऋo",
      "Context": null,
      "Replacement": "ऱो",
      "AltGr": false
    },
    {
      "Input": "ऋO",
      "Context": null,
      "Replacement": "ऱो",
      "AltGr": false
    },
    {
      "Input": "ऋ\\~",
      "Context": null,
      "Replacement": "ऱ्",
      "AltGr": false
    },
    {
      "Input": "स्h",
      "Context": null,
      "Replacement": "श्",
      "AltGr": false
    },
    {
      "Input": "श्h",
      "Context": null,
      "Replacement": "ष्",
      "AltGr": false
    },
    {
      "Input": "क़्h",
      "Context": null,
      "Replacement": "ख़्",
      "AltGr": false
    },
    {
      "Input": "ज़्h",
      "Context": null,
      "Replacement": "ऴ्",
      "AltGr": false
    },
    {
      "Input": "।\\.",
      "Context": null,
      "Replacement": "॥",
      "AltGr": false
    },
    {
      "Input": "([ग्|ज्]़?)्Y",
      "Context": null,
      "Replacement": "ज्ञ्",
      "AltGr": false
    },
    {
      "Input": "a",
      "Context": null,
      "Replacement": "अ",
      "AltGr": false
    },
    {
      "Input": "b",
      "Context": null,
      "Replacement": "ब्",
      "AltGr": false
    },
    {
      "Input": "c",
      "Context": null,
      "Replacement": "च्",
      "AltGr": false
    },
    {
      "Input": "d",
      "Context": null,
      "Replacement": "द्",
      "AltGr": false
    },
    {
      "Input": "e",
      "Context": null,
      "Replacement": "ए",
      "AltGr": false
    },
    {
      "Input": "f",
      "Context": null,
      "Replacement": "फ्",
      "AltGr": false
    },
    {
      "Input": "g",
      "Context": null,
      "Replacement": "ग्",
      "AltGr": false
    },
    {
      "Input": "h",
      "Context": null,
      "Replacement": "ह्",
      "AltGr": false
    },
    {
      "Input": "i",
      "Context": null,
      "Replacement": "इ",
      "AltGr": false
    },
    {
      "Input": "j",
      "Context": null,
      "Replacement": "ज्",
      "AltGr": false
    },
    {
      "Input": "k",
      "Context": null,
      "Replacement": "क्",
      "AltGr": false
    },
    {
      "Input": "l",
      "Context": null,
      "Replacement": "ल्",
      "AltGr": false
    },
    {
      "Input": "m",
      "Context": null,
      "Replacement": "म्",
      "AltGr": false
    },
    {
      "Input": "n",
      "Context": null,
      "Replacement": "न्",
      "AltGr": false
    },
    {
      "Input": "o",
      "Context": null,
      "Replacement": "ओ",
      "AltGr": false
    },
    {
      "Input": "p",
      "Context": null,
      "Replacement": "प्",
      "AltGr": false
    },
    {
      "Input": "q",
      "Context": null,
      "Replacement": "क़्",
      "AltGr": false
    },
    {
      "Input": "r",
      "Context": null,
      "Replacement": "र्",
      "AltGr": false
    },
    {
      "Input": "s",
      "Context": null,
      "Replacement": "स्",
      "AltGr": false
    },
    {
      "Input": "t",
      "Context": null,
      "Replacement": "त्",
      "AltGr": false
    },
    {
      "Input": "u",
      "Context": null,
      "Replacement": "उ",
      "AltGr": false
    },
    {
      "Input": "(v|w)",
      "Context": null,
      "Replacement": "व्",
      "AltGr": false
    },
    {
      "Input": "x",
      "Context": null,
      "Replacement": "क्ष्",
      "AltGr": false
    },
    {
      "Input": "y",
      "Context": null,
      "Replacement": "य्",
      "AltGr": false
    },
    {
      "Input": "z",
      "Context": null,
      "Replacement": "ज़्",
      "AltGr": false
    },
    {
      "Input": "A",
      "Context": null,
      "Replacement": "आ",
      "AltGr": false
    },
    {
      "Input": "B",
      "Context": null,
      "Replacement": "ब्ब्",
      "AltGr": false
    },
    {
      "Input": "C",
      "Context": null,
      "Replacement": "क्क्",
      "AltGr": false
    },
    {
      "Input": "D",
      "Context": null,
      "Replacement": "ड्",
      "AltGr": false
    },
    {
      "Input": "E",
      "Context": null,
      "Replacement": "ऍ",
      "AltGr": false
    },
    {
      "Input": "F",
      "Context": null,
      "Replacement": "फ़्",
      "AltGr": false
    },
    {
      "Input": "G",
      "Context": null,
      "Replacement": "ग्ग्",
      "AltGr": false
    },
    {
      "Input": "H",
      "Context": null,
      "Replacement": "ः",
      "AltGr": false
    },
    {
      "Input": "I",
      "Context": null,
      "Replacement": "ई",
      "AltGr": false
    },
    {
      "Input": "J",
      "Context": null,
      "Replacement": "ज्ज्",
      "AltGr": false
    },
    {
      "Input": "K",
      "Context": null,
      "Replacement": "क्क्",
      "AltGr": false
    },
    {
      "Input": "L",
      "Context": null,
      "Replacement": "ळ्",
      "AltGr": false
    },
    {
      "Input": "M",
      "Context": null,
      "Replacement": "ं",
      "AltGr": false
    },
    {
      "Input": "N",
      "Context": null,
      "Replacement": "ण्",
      "AltGr": false
    },
    {
      "Input": "O",
      "Context": null,
      "Replacement": "ऑ",
      "AltGr": false
    },
    {
      "Input": "P",
      "Context": null,
      "Replacement": "प्प्",
      "AltGr": false
    },
    {
      "Input": "R",
      "Context": null,
      "Replacement": "ऋ",
      "AltGr": false
    },
    {
      "Input": "S",
      "Context": null,
      "Replacement": "श्",
      "AltGr": false
    },
    {
      "Input": "T",
      "Context": null,
      "Replacement": "ट्",
      "AltGr": false
    },
    {
      "Input": "U",
      "Context": null,
      "Replacement": "ऊ",
      "AltGr": false
    },
    {
      "Input": "(V|W)",
      "Context": null,
      "Replacement": "व्व्",
      "AltGr": false
    },
    {
      "Input": "X",
      "Context": null,
      "Replacement": "क्ष्",
      "AltGr": false
    },
    {
      "Input": "Y",
      "Context": null,
      "Replacement": "ञ्",
      "AltGr": false
    },
    {
      "Input": "Z",
      "Context": null,
      "Replacement": ".",
      "AltGr": false
    },
    {
      "Input": "0",
      "Context": null,
      "Replacement": "०",
      "AltGr": false
    },
    {
      "Input": "1",
      "Context": null,
      "Replacement": "१",
      "AltGr": false
    },
    {
      "Input": "2",
      "Context": null,
      "Replacement": "२",
      "AltGr": false
    },
    {
      "Input": "3",
      "Context": null,
      "Replacement": "३",
      "AltGr": false
    },
    {
      "Input": "4",
      "Context": null,
      "Replacement": "४",
      "AltGr": false
    },
    {
      "Input": "5",
      "Context": null,
      "Replacement": "५",
      "AltGr": false
    },
    {
      "Input": "6",
      "Context": null,
      "Replacement": "६",
      "AltGr": false
    },
    {
      "Input": "7",
      "Context": null,
      "Replacement": "७",
      "AltGr": false
    },
    {
      "Input": "8",
      "Context": null,
      "Replacement": "८",
      "AltGr": false
    },
    {
      "Input": "9",
      "Context": null,
      "Replacement": "९",
      "AltGr": false
    },
    {
      "Input": "~",
      "Context": null,
      "Replacement": "्",
      "AltGr": false
    },
    {
      "Input": "\\.",
      "Context": null,
      "Replacement": "।",
      "AltGr": false
    },
    {
      "Input": "//",
      "Context": null,
      "Replacement": "ऽ",
      "AltGr": false
    },
    {
      "Input": "\\`",
      "Context": null,
      "Replacement": "़",
      "AltGr": false
    },
    {
      "Input": "([क-ह]़?)्(.)",
      "Context": "\\~",
      "Replacement": "$1्$2",
      "AltGr": false
    },
    {
      "Input": "([क-ह]़?)्(.)",
      "Context": null,
      "Replacement": "$1$2",
      "AltGr": false
    }
  ]
}