{
  "Id": "hr-kbd",
  "Name": "Croatian kbd",
  "Author": "Parag Nemade",
  "Description": "Croatian keyboard layout",
  "Version": "1.0",
  "MaxKeyLength": 1,
  "ContextLength": 0,
  "Patterns": [
    {
      "Input": "¸c",
      "Context": null,
      "Replacement": "ç",
      "AltGr": false
    },
    {
      "Input": "¸C",
      "Context": null,
      "Replacement": "Ç",
      "AltGr": false
    },
    {
      "Input": "¸s",
      "Context": null,
      "Replacement": "ş",
      "AltGr": false
    },
    {
      "Input": "¸S",
      "Context": null,
      "Replacement": "Ş",
      "AltGr": false
    },
    {
      "Input": "¨a",
      "Context": null,
      "Replacement": "ä",
      "AltGr": false
    },
    {
      "Input": "¨A",
      "Context": null,
      "Replacement": "Ä",
      "AltGr": false
    },
    {
      "Input": "¨e",
      "Context": null,
      "Replacement": "ë",
      "AltGr": false
    },
    {
      "Input": "¨E",
      "Context": null,
      "Replacement": "Ë",
      "AltGr": false
    },
    {
      "Input": "¨o",
      "Context": null,
      "Replacement": "ö",
      "AltGr": false
    },
    {
      "Input": "¨O",
      "Context": null,
      "Replacement": "Ö",
      "AltGr": false
    },
    {
      "Input": "¨u",
      "Context": null,
      "Replacement": "ü",
      "AltGr": false
    },
    {
      "Input": "¨U",
      "Context": null,
      "Replacement": "Ü",
      "AltGr": false
    },
    {
      "Input": "\\@",
      "Context": null,
      "Replacement": "\"",
      "AltGr": false
    },
    {
      "Input": "\\^",
      "Context": null,
      "Replacement": "&",
      "AltGr": false
    },
    {
      "Input": "\\&",
      "Context": null,
      "Replacement": "/",
      "AltGr": false
    },
    {
      "Input": "*",
      "Context": null,
      "Replacement": "(",
      "AltGr": false
    },
    {
      "Input": "\\(",
      "Context": null,
      "Replacement": ")",
      "AltGr": false
    },
    {
      "Input": "\\)",
      "Context": null,
      "Replacement": "=",
      "AltGr": false
    },
    {
      "Input": "\\-",
      "Context": null,
      "Replacement": "'",
      "AltGr": false
    },
    {
      "Input": "\\_",
      "Context": null,
      "Replacement": "?",
      "AltGr": false
    },
    {
      "Input": "\\=",
      "Context": null,
      "Replacement": "+",
      "AltGr": false
    },
    {
      "Input": "\\+",
      "Context": null,
      "Replacement": "*",
      "AltGr": false
    },
    {
      "Input": "\\`",
      "Context": null,
      "Replacement": "¸",
      "AltGr": false
    },
    {
      "Input": "\\~",
      "Context": null,
      "Replacement": "¨",
      "AltGr": false
    },
    {
      "Input": "y",
      "Context": null,
      "Replacement": "z",
      "AltGr": false
    },
    {
      "Input": "Y",
      "Context": null,
      "Replacement": "Z",
      "AltGr": false
    },
    {
      "Input": "\\[",
      "Context": null,
      "Replacement": "š",
      "AltGr": false
    },
    {
      "Input": "\\{",
      "Context": null,
      "Replacement": "Š",
      "AltGr": false
    },
    {
      "Input": "\\]",
      "Context": null,
      "Replacement": "đ",
      "AltGr": false
    },
    {
      "Input": "\\}",
      "Context": null,
      "Replacement": "Đ",
      "AltGr": false
    },
    {
      "Input": ";",
      "Context": null,
      "Replacement": "č",
      "AltGr": false
    },
    {
      "Input": ":",
      "Context": null,
      "Replacement": "Č",
      "AltGr": false
    },
    {
      "Input": "'",
      "Context": null,
      "Replacement": "ć",
      "AltGr": false
    },
    {
      "Input": "\"",
      "Context": null,
      "Replacement": "Ć",
      "AltGr": false
    },
    {
      "Input": "\\\\",
      "Context": null,
      "Replacement": "ž",
      "AltGr": false
    },
    {
      "Input": "\\|",
      "Context": null,
      "Replacement": "Ž",
      "AltGr": false
    },
    {
      "Input": "z",
      "Context": null,
      "Replacement": "y",
      "AltGr": false
    },
    {
      "Input": "Z",
      "Context": null,
      "Replacement": "Y",
      "AltGr": false
    },
    {
      "Input": "\\<",
      "Context": null,
      "Replacement": ";",
      "AltGr": false
    },
    {
      "Input": "\\>",
      "Context": null,
      "Replacement": ":",
      "AltGr": false
    },
    {
      "Input": "/",
      "Context": null,
      "Replacement": "-",
      "AltGr": false
    },
    {
      "Input": "\\?",
      "Context": null,
      "Replacement": "_",
      "AltGr": false
    }
  ]
}