{
  "Id": "kk-kbd",
  "Name": "Kazak kbd",
  "Author": "Parag Nemade",
  "Description": "Kazak kbd in Cyrillic script keyboard layout",
  "Version": "1.0",
  "MaxKeyLength": 1,
  "ContextLength": 0,
  "Patterns": [
    {
      "Input": "`",
      "Context": null,
      "Replacement": "(",
      "AltGr": false
    },
    {
      "Input": "\\~",
      "Context": null,
      "Replacement": ")",
      "AltGr": false
    },
    {
      "Input": "1",
      "Context": null,
      "Replacement": "\"",
      "AltGr": false
    },
    {
      "Input": "2",
      "Context": null,
      "Replacement": "ә",
      "AltGr": false
    },
    {
      "Input": "\\@",
      "Context": null,
      "Replacement": "Ә",
      "AltGr": false
    },
    {
      "Input": "3",
      "Context": null,
      "Replacement": "і",
      "AltGr": false
    },
    {
      "Input": "\\#",
      "Context": null,
      "Replacement": "І",
      "AltGr": false
    },
    {
      "Input": "4",
      "Context": null,
      "Replacement": "ӊ",
      "AltGr": false
    },
    {
      "Input": "\\$",
      "Context": null,
      "Replacement": "Ӊ",
      "AltGr": false
    },
    {
      "Input": "5",
      "Context": null,
      "Replacement": "ғ",
      "AltGr": false
    },
    {
      "Input": "\\%",
      "Context": null,
      "Replacement": "Ғ",
      "AltGr": false
    },
    {
      "Input": "6",
      "Context": null,
      "Replacement": ",",
      "AltGr": false
    },
    {
      "Input": "\\^",
      "Context": null,
      "Replacement": ";",
      "AltGr": false
    },
    {
      "Input": "7",
      "Context": null,
      "Replacement": ".",
      "AltGr": false
    },
    {
      "Input": "\\&",
      "Context": null,
      "Replacement": ":",
      "AltGr": false
    },
    {
      "Input": "8",
      "Context": null,
      "Replacement": "ү",
      "AltGr": false
    },
    {
      "Input": "\\*",
      "Context": null,
      "Replacement": "Ү",
      "AltGr": false
    },
    {
      "Input": "9",
      "Context": null,
      "Replacement": "ұ",
      "AltGr": false
    },
    {
      "Input": "\\(",
      "Context": null,
      "Replacement": "Ұ",
      "AltGr": false
    },
    {
      "Input": "0",
      "Context": null,
      "Replacement": "қ",
      "AltGr": false
    },
    {
      "Input": "\\)",
      "Context": null,
      "Replacement": "Қ",
      "AltGr": false
    },
    {
      "Input": "\\-",
      "Context": null,
      "Replacement": "ө",
      "AltGr": false
    },
    {
      "Input": "\\_",
      "Context": null,
      "Replacement": "Ө",
      "AltGr": false
    },
    {
      "Input": "\\=",
      "Context": null,
      "Replacement": "һ",
      "AltGr": false
    },
    {
      "Input": "\\+",
      "Context": null,
      "Replacement": "Һ",
      "AltGr": false
    },
    {
      "Input": "q",
      "Context": null,
      "Replacement": "й",
      "AltGr": false
    },
    {
      "Input": "Q",
      "Context": null,
      "Replacement": "Й",
      "AltGr": false
    },
    {
      "Input": "w",
      "Context": null,
      "Replacement": "ц",
      "AltGr": false
    },
    {
      "Input": "W",
      "Context": null,
      "Replacement": "Ц",
      "AltGr": false
    },
    {
      "Input": "e",
      "Context": null,
      "Replacement": "у",
      "AltGr": false
    },
    {
      "Input": "E",
      "Context": null,
      "Replacement": "У",
      "AltGr": false
    },
    {
      "Input": "r",
      "Context": null,
      "Replacement": "к",
      "AltGr": false
    },
    {
      "Input": "R",
      "Context": null,
      "Replacement": "К",
      "AltGr": false
    },
    {
      "Input": "t",
      "Context": null,
      "Replacement": "е",
      "AltGr": false
    },
    {
      "Input": "T",
      "Context": null,
      "Replacement": "Е",
      "AltGr": false
    },
    {
      "Input": "y",
      "Context": null,
      "Replacement": "н",
      "AltGr": false
    },
    {
      "Input": "Y",
      "Context": null,
      "Replacement": "Н",
      "AltGr": false
    },
    {
      "Input": "u",
      "Context": null,
      "Replacement": "г",
      "AltGr": false
    },
    {
      "Input": "U",
      "Context": null,
      "Replacement": "Г",
      "AltGr": false
    },
    {
      "Input": "i",
      "Context": null,
      "Replacement": "ш",
      "AltGr": false
    },
    {
      "Input": "I",
      "Context": null,
      "Replacement": "Ш",
      "AltGr": false
    },
    {
      "Input": "o",
      "Context": null,
      "Replacement": "щ",
      "AltGr": false
    },
    {
      "Input": "O",
      "Context": null,
      "Replacement": "Щ",
      "AltGr": false
    },
    {
      "Input": "p",
      "Context": null,
      "Replacement": "з",
      "AltGr": false
    },
    {
      "Input": "P",
      "Context": null,
      "Replacement": "З",
      "AltGr": false
    },
    {
      "Input": "\\[",
      "Context": null,
      "Replacement": "х",
      "AltGr": false
    },
    {
      "Input": "\\{",
      "Context": null,
      "Replacement": "Х",
      "AltGr": false
    },
    {
      "Input": "\\]",
      "Context": null,
      "Replacement": "ъ",
      "AltGr": false
    },
    {
      "Input": "\\}",
      "Context": null,
      "Replacement": "Ъ",
      "AltGr": false
    },
    {
      "Input": "a",
      "Context": null,
      "Replacement": "ф",
      "AltGr": false
    },
    {
      "Input": "A",
      "Context": null,
      "Replacement": "Ф",
      "AltGr": false
    },
    {
      "Input": "s",
      "Context": null,
      "Replacement": "ы",
      "AltGr": false
    },
    {
      "Input": "S",
      "Context": null,
      "Replacement": "Ы",
      "AltGr": false
    },
    {
      "Input": "d",
      "Context": null,
      "Replacement": "в",
      "AltGr": false
    },
    {
      "Input": "D",
      "Context": null,
      "Replacement": "В",
      "AltGr": false
    },
    {
      "Input": "f",
      "Context": null,
      "Replacement": "а",
      "AltGr": false
    },
    {
      "Input": "F",
      "Context": null,
      "Replacement": "А",
      "AltGr": false
    },
    {
      "Input": "g",
      "Context": null,
      "Replacement": "п",
      "AltGr": false
    },
    {
      "Input": "G",
      "Context": null,
      "Replacement": "П",
      "AltGr": false
    },
    {
      "Input": "h",
      "Context": null,
      "Replacement": "р",
      "AltGr": false
    },
    {
      "Input": "H",
      "Context": null,
      "Replacement": "Р",
      "AltGr": false
    },
    {
      "Input": "j",
      "Context": null,
      "Replacement": "о",
      "AltGr": false
    },
    {
      "Input": "J",
      "Context": null,
      "Replacement": "О",
      "AltGr": false
    },
    {
      "Input": "k",
      "Context": null,
      "Replacement": "л",
      "AltGr": false
    },
    {
      "Input": "K",
      "Context": null,
      "Replacement": "Л",
      "AltGr": false
    },
    {
      "Input": "l",
      "Context": null,
      "Replacement": "д",
      "AltGr": false
    },
    {
      "Input": "L",
      "Context": null,
      "Replacement": "Д",
      "AltGr": false
    },
    {
      "Input": ";",
      "Context": null,
      "Replacement": "ж",
      "AltGr": false
    },
    {
      "Input": ":",
      "Context": null,
      "Replacement": "Ж",
      "AltGr": false
    },
    {
      "Input": "'",
      "Context": null,
      "Replacement": "э",
      "AltGr": false
    },
    {
      "Input": "\"",
      "Context": null,
      "Replacement": "Э",
      "AltGr": false
    },
    {
      "Input": "z",
      "Context": null,
      "Replacement": "я",
      "AltGr": false
    },
    {
      "Input": "Z",
      "Context": null,
      "Replacement": "Я",
      "AltGr": false
    },
    {
      "Input": "x",
      "Context": null,
      "Replacement": "ч",
      "AltGr": false
    },
    {
      "Input": "X",
      "Context": null,
      "Replacement": "Ч",
      "AltGr": false
    },
    {
      "Input": "c",
      "Context": null,
      "Replacement": "с",
      "AltGr": false
    },
    {
      "Input": "C",
      "Context": null,
      "Replacement": "С",
      "AltGr": false
    },
    {
      "Input": "v",
      "Context": null,
      "Replacement": "м",
      "AltGr": false
    },
    {
      "Input": "V",
      "Context": null,
      "Replacement": "М",
      "AltGr": false
    },
    {
      "Input": "b",
      "Context": null,
      "Replacement": "и",
      "AltGr": false
    },
    {
      "Input": "B",
      "Context": null,
      "Replacement": "И",
      "AltGr": false
    },
    {
      "Input": "n",
      "Context": null,
      "Replacement": "т",
      "AltGr": false
    },
    {
      "Input": "N",
      "Context": null,
      "Replacement": "Т",
      "AltGr": false
    },
    {
      "Input": "m",
      "Context": null,
      "Replacement": "ь",
      "AltGr": false
    },
    {
      "Input": "M",
      "Context": null,
      "Replacement": "Ь",
      "AltGr": false
    },
    {
      "Input": ",",
      "Context": null,
      "Replacement": "б",
      "AltGr": false
    },
    {
      "Input": "\\<",
      "Context": null,
      "Replacement": "Б",
      "AltGr": false
    },
    {
      "Input": "\\.",
      "Context": null,
      "Replacement": "ю",
      "AltGr": false
    },
    {
      "Input": "\\>",
      "Context": null,
      "Replacement": "Ю",
      "AltGr": false
    },
    {
      "Input": "/",
      "Context": null,
      "Replacement": "№",
      "AltGr": false
    }
  ]
}