{
  "Id": "ml-transliteration",
  "Name": "ലിപ്യന്തരണം",
  "Author": "Junaid P V",
  "Description": "Malayalam Transliteration based input method",
  "Version": "1.0",
  "MaxKeyLength": 4,
  "ContextLength": 2,
  "Patterns": [
    {
      "Input": "(‌)+a",
      "Context": null,
      "Replacement": "അ",
      "AltGr": false
    },
    {
      "Input": "(‌)+A",
      "Context": null,
      "Replacement": "ആ",
      "AltGr": false
    },
    {
      "Input": "(‌)+i",
      "Context": null,
      "Replacement": "ഇ",
      "AltGr": false
    },
    {
      "Input": "(‌)+u",
      "Context": null,
      "Replacement": "ഉ",
      "AltGr": false
    },
    {
      "Input": "(‌)+U",
      "Context": null,
      "Replacement": "ഊ",
      "AltGr": false
    },
    {
      "Input": "(‌)+R",
      "Context": null,
      "Replacement": "ഋ",
      "AltGr": false
    },
    {
      "Input": "(‌)+e",
      "Context": null,
      "Replacement": "എ",
      "AltGr": false
    },
    {
      "Input": "(‌)+E",
      "Context": null,
      "Replacement": "ഏ",
      "AltGr": false
    },
    {
      "Input": "(‌)+I",
      "Context": null,
      "Replacement": "ഐ",
      "AltGr": false
    },
    {
      "Input": "(‌)+o",
      "Context": null,
      "Replacement": "ഒ",
      "AltGr": false
    },
    {
      "Input": "(‌)+O",
      "Context": null,
      "Replacement": "ഓ",
      "AltGr": false
    },
    {
      "Input": "(‌)+H",
      "Context": null,
      "Replacement": "ഃ",
      "AltGr": false
    },
    {
      "Input": "ൻൿh",
      "Context": "nc",
      "Replacement": "ഞ്ച്",
      "AltGr": false
    },
    {
      "Input": "ൿh",
      "Context": "c",
      "Replacement": "ച്",
      "AltGr": false
    },
    {
      "Input": "ക്ക്h",
      "Context": "cc",
      "Replacement": "ച്ച്",
      "AltGr": false
    },
    {
      "Input": "ല്പ്p",
      "Context": "lp",
      "Replacement": "ൽപ്പ്",
      "AltGr": false
    },
    {
      "Input": "\\\\([A-Za-z\\>_~])",
      "Context": "\\\\",
      "Replacement": "$1",
      "AltGr": false
    },
    {
      "Input": "([ക-ഹ])്R",
      "Context": null,
      "Replacement": "$1ൃ",
      "AltGr": false
    },
    {
      "Input": "ന്ന്j",
      "Context": null,
      "Replacement": "ഞ്ഞ്",
      "AltGr": false
    },
    {
      "Input": "ന്ന്g",
      "Context": null,
      "Replacement": "ങ്ങ്",
      "AltGr": false
    },
    {
      "Input": "ട്ട്h",
      "Context": null,
      "Replacement": "ത്ത്",
      "AltGr": false
    },
    {
      "Input": "റ്റ്h",
      "Context": null,
      "Replacement": "ത്",
      "AltGr": false
    },
    {
      "Input": "റ്റ്t",
      "Context": null,
      "Replacement": "ട്ട്",
      "AltGr": false
    },
    {
      "Input": "ന്റ്h",
      "Context": null,
      "Replacement": "ന്ത്",
      "AltGr": false
    },
    {
      "Input": "([ക-ഹ])്ല്l",
      "Context": "L",
      "Replacement": "$1ൢ",
      "AltGr": false
    },
    {
      "Input": "([ക-ഹ])ൢl",
      "Context": null,
      "Replacement": "$1ൣ",
      "AltGr": false
    },
    {
      "Input": "([അ-ഊഌഎ-ഐഒ-ഹ])([ഽ-ൂെ-ൌൗ])+R",
      "Context": null,
      "Replacement": "$1$2റ്",
      "AltGr": false
    },
    {
      "Input": "([ക-ഹ])ൃa",
      "Context": null,
      "Replacement": "$1്ര",
      "AltGr": false
    },
    {
      "Input": "([ക-ഹ])ൃA",
      "Context": null,
      "Replacement": "$1്രാ",
      "AltGr": false
    },
    {
      "Input": "([ക-ഹ])ൃi",
      "Context": null,
      "Replacement": "$1്രി",
      "AltGr": false
    },
    {
      "Input": "([ക-ഹ])ൃI",
      "Context": null,
      "Replacement": "$1്രീ",
      "AltGr": false
    },
    {
      "Input": "([ക-ഹ])ൃu",
      "Context": null,
      "Replacement": "$1്രു",
      "AltGr": false
    },
    {
      "Input": "([ക-ഹ])ൃU",
      "Context": null,
      "Replacement": "$1്രൂ",
      "AltGr": false
    },
    {
      "Input": "([ക-ഹ])ൃe",
      "Context": null,
      "Replacement": "$1്രെ",
      "AltGr": false
    },
    {
      "Input": "([ക-ഹ])ൃE",
      "Context": null,
      "Replacement": "$1്രേ",
      "AltGr": false
    },
    {
      "Input": "([ക-ഹ])ൃo",
      "Context": null,
      "Replacement": "$1്രൊ",
      "AltGr": false
    },
    {
      "Input": "([ക-ഹ])ൃO",
      "Context": null,
      "Replacement": "$1്രോ",
      "AltGr": false
    },
    {
      "Input": "([ക-ഹ])്(l|L)",
      "Context": null,
      "Replacement": "$1്ല്",
      "AltGr": false
    },
    {
      "Input": "അa",
      "Context": null,
      "Replacement": "ആ",
      "AltGr": false
    },
    {
      "Input": "അi",
      "Context": null,
      "Replacement": "ഐ",
      "AltGr": false
    },
    {
      "Input": "അu",
      "Context": null,
      "Replacement": "ഔ",
      "AltGr": false
    },
    {
      "Input": "ഇi",
      "Context": null,
      "Replacement": "ഈ",
      "AltGr": false
    },
    {
      "Input": "ഉu",
      "Context": null,
      "Replacement": "ഊ",
      "AltGr": false
    },
    {
      "Input": "ഊo",
      "Context": null,
      "Replacement": "ഊഊ",
      "AltGr": false
    },
    {
      "Input": "ഋR",
      "Context": null,
      "Replacement": "ൠ",
      "AltGr": false
    },
    {
      "Input": "ഋa",
      "Context": null,
      "Replacement": "റ",
      "AltGr": false
    },
    {
      "Input": "ഋA",
      "Context": null,
      "Replacement": "റാ",
      "AltGr": false
    },
    {
      "Input": "ഋi",
      "Context": null,
      "Replacement": "റി",
      "AltGr": false
    },
    {
      "Input": "ഋI",
      "Context": null,
      "Replacement": "റീ",
      "AltGr": false
    },
    {
      "Input": "ഋu",
      "Context": null,
      "Replacement": "റു",
      "AltGr": false
    },
    {
      "Input": "ഋU",
      "Context": null,
      "Replacement": "റൂ",
      "AltGr": false
    },
    {
      "Input": "ഋe",
      "Context": null,
      "Replacement": "റെ",
      "AltGr": false
    },
    {
      "Input": "ഋE",
      "Context": null,
      "Replacement": "റേ",
      "AltGr": false
    },
    {
      "Input": "ഋo",
      "Context": null,
      "Replacement": "റൊ",
      "AltGr": false
    },
    {
      "Input": "ഋO",
      "Context": null,
      "Replacement": "റോ",
      "AltGr": false
    },
    {
      "Input": "ഋ~",
      "Context": null,
      "Replacement": "റ്",
      "AltGr": false
    },
    {
      "Input": "ഌl",
      "Context": null,
      "Replacement": "ൡ",
      "AltGr": false
    },
    {
      "Input": "എe",
      "Context": null,
      "Replacement": "ഈ",
      "AltGr": false
    },
    {
      "Input": "ഒo",
      "Context": null,
      "Replacement": "ഊ",
      "AltGr": false
    },
    {
      "Input": "ാa",
      "Context": null,
      "Replacement": "ാാ",
      "AltGr": false
    },
    {
      "Input": "ീi",
      "Context": null,
      "Replacement": "ീീ",
      "AltGr": false
    },
    {
      "Input": "ൂu",
      "Context": null,
      "Replacement": "ൂൂ",
      "AltGr": false
    },
    {
      "Input": "ൂo",
      "Context": null,
      "Replacement": "ൂൂ",
      "AltGr": false
    },
    {
      "Input": "ൄR",
      "Context": null,
      "Replacement": "ൄൄ",
      "AltGr": false
    },
    {
      "Input": "േE",
      "Context": null,
      "Replacement": "േേ",
      "AltGr": false
    },
    {
      "Input": "ോO",
      "Context": null,
      "Replacement": "ോോ",
      "AltGr": false
    },
    {
      "Input": "ൗu",
      "Context": null,
      "Replacement": "ൗൗ",
      "AltGr": false
    },
    {
      "Input": "ൢ\\^",
      "Context": null,
      "Replacement": "ൣ",
      "AltGr": false
    },
    {
      "Input": "ൣ\\^",
      "Context": null,
      "Replacement": "ൣൣ",
      "AltGr": false
    },
    {
      "Input": "ക്h",
      "Context": null,
      "Replacement": "ഖ്",
      "AltGr": false
    },
    {
      "Input": "ഗ്h",
      "Context": null,
      "Replacement": "ഘ്",
      "AltGr": false
    },
    {
      "Input": "ൻg",
      "Context": null,
      "Replacement": "ങ്",
      "AltGr": false
    },
    {
      "Input": "ച്h",
      "Context": null,
      "Replacement": "ഛ്",
      "AltGr": false
    },
    {
      "Input": "ജ്h",
      "Context": null,
      "Replacement": "ഝ്",
      "AltGr": false
    },
    {
      "Input": "ട്h",
      "Context": null,
      "Replacement": "ഠ്",
      "AltGr": false
    },
    {
      "Input": "ഡ്h",
      "Context": null,
      "Replacement": "ഢ്",
      "AltGr": false
    },
    {
      "Input": "ത്h",
      "Context": null,
      "Replacement": "ഥ്",
      "AltGr": false
    },
    {
      "Input": "ദ്h",
      "Context": null,
      "Replacement": "ധ്",
      "AltGr": false
    },
    {
      "Input": "പ്h",
      "Context": null,
      "Replacement": "ഫ്",
      "AltGr": false
    },
    {
      "Input": "ബ്h",
      "Context": null,
      "Replacement": "ഭ്",
      "AltGr": false
    },
    {
      "Input": "ംa",
      "Context": null,
      "Replacement": "മ",
      "AltGr": false
    },
    {
      "Input": "ംA",
      "Context": null,
      "Replacement": "മാ",
      "AltGr": false
    },
    {
      "Input": "ംi",
      "Context": null,
      "Replacement": "മി",
      "AltGr": false
    },
    {
      "Input": "ംI",
      "Context": null,
      "Replacement": "മീ",
      "AltGr": false
    },
    {
      "Input": "ംu",
      "Context": null,
      "Replacement": "മു",
      "AltGr": false
    },
    {
      "Input": "ംU",
      "Context": null,
      "Replacement": "മൂ",
      "AltGr": false
    },
    {
      "Input": "ംR",
      "Context": null,
      "Replacement": "മൃ",
      "AltGr": false
    },
    {
      "Input": "ംe",
      "Context": null,
      "Replacement": "മെ",
      "AltGr": false
    },
    {
      "Input": "ംE",
      "Context": null,
      "Replacement": "മേ",
      "AltGr": false
    },
    {
      "Input": "ംo",
      "Context": null,
      "Replacement": "മൊ",
      "AltGr": false
    },
    {
      "Input": "ംO",
      "Context": null,
      "Replacement": "മോ",
      "AltGr": false
    },
    {
      "Input": "ംm",
      "Context": null,
      "Replacement": "മ്മ്",
      "AltGr": false
    },
    {
      "Input": "([^സ])ംr",
      "Context": null,
      "Replacement": "$1മ്ര്",
      "AltGr": false
    },
    {
      "Input": "ംp",
      "Context": null,
      "Replacement": "മ്പ്",
      "AltGr": false
    },
    {
      "Input": "([^സ])ം(l|L)",
      "Context": null,
      "Replacement": "$1മ്ല്",
      "AltGr": false
    },
    {
      "Input": "ം~",
      "Context": null,
      "Replacement": "മ്",
      "AltGr": false
    },
    {
      "Input": "([^സ])ംn",
      "Context": null,
      "Replacement": "$1മ്ന്",
      "AltGr": false
    },
    {
      "Input": "([^സ])ംy",
      "Context": null,
      "Replacement": "$1മ്യ്",
      "AltGr": false
    },
    {
      "Input": "സ്h",
      "Context": null,
      "Replacement": "ഷ്",
      "AltGr": false
    },
    {
      "Input": "ശ്h",
      "Context": null,
      "Replacement": "ഴ്",
      "AltGr": false
    },
    {
      "Input": "ൺ\\\\\\\\",
      "Context": null,
      "Replacement": "ണ്‍",
      "AltGr": false
    },
    {
      "Input": "ൺ~",
      "Context": null,
      "Replacement": "ണ്",
      "AltGr": false
    },
    {
      "Input": "ൺR",
      "Context": null,
      "Replacement": "ണൃ",
      "AltGr": false
    },
    {
      "Input": "ൺN",
      "Context": null,
      "Replacement": "ണ്ണ്",
      "AltGr": false
    },
    {
      "Input": "ൺT",
      "Context": null,
      "Replacement": "ണ്ട്",
      "AltGr": false
    },
    {
      "Input": "ൺD",
      "Context": null,
      "Replacement": "ണ്ഡ്",
      "AltGr": false
    },
    {
      "Input": "ൺy",
      "Context": null,
      "Replacement": "ണ്യ്",
      "AltGr": false
    },
    {
      "Input": "ൺv",
      "Context": null,
      "Replacement": "ണ്വ്",
      "AltGr": false
    },
    {
      "Input": "ൺm",
      "Context": null,
      "Replacement": "ണ്മ്",
      "AltGr": false
    },
    {
      "Input": "ൻ\\\\\\\\",
      "Context": null,
      "Replacement": "ന്‍",
      "AltGr": false
    },
    {
      "Input": "ൻ~",
      "Context": null,
      "Replacement": "ന്",
      "AltGr": false
    },
    {
      "Input": "ൻr",
      "Context": null,
      "Replacement": "ന്ര്",
      "AltGr": false
    },
    {
      "Input": "ൻR",
      "Context": null,
      "Replacement": "നൃ",
      "AltGr": false
    },
    {
      "Input": "ൻk",
      "Context": null,
      "Replacement": "ങ്ക്",
      "AltGr": false
    },
    {
      "Input": "ൻj",
      "Context": null,
      "Replacement": "ഞ്",
      "AltGr": false
    },
    {
      "Input": "ൻn",
      "Context": null,
      "Replacement": "ന്ന്",
      "AltGr": false
    },
    {
      "Input": "ൻd",
      "Context": null,
      "Replacement": "ന്ദ്",
      "AltGr": false
    },
    {
      "Input": "ൻt",
      "Context": null,
      "Replacement": "ന്റ്",
      "AltGr": false
    },
    {
      "Input": "ൻm",
      "Context": null,
      "Replacement": "ന്മ്",
      "AltGr": false
    },
    {
      "Input": "ൻL",
      "Context": null,
      "Replacement": "ന്ല്",
      "AltGr": false
    },
    {
      "Input": "ൻv",
      "Context": null,
      "Replacement": "ന്വ്",
      "AltGr": false
    },
    {
      "Input": "ൻy",
      "Context": null,
      "Replacement": "ന്യ്",
      "AltGr": false
    },
    {
      "Input": "ർ\\\\\\\\",
      "Context": null,
      "Replacement": "ര്‍",
      "AltGr": false
    },
    {
      "Input": "ർ~",
      "Context": null,
      "Replacement": "ര്",
      "AltGr": false
    },
    {
      "Input": "ർ#",
      "Context": null,
      "Replacement": "ൎ",
      "AltGr": false
    },
    {
      "Input": "ർr",
      "Context": null,
      "Replacement": "റ്",
      "AltGr": false
    },
    {
      "Input": "ർR",
      "Context": null,
      "Replacement": "രൃ",
      "AltGr": false
    },
    {
      "Input": "ർy",
      "Context": null,
      "Replacement": "ര്യ്",
      "AltGr": false
    },
    {
      "Input": "ൽ\\\\\\\\",
      "Context": null,
      "Replacement": "ല്‍",
      "AltGr": false
    },
    {
      "Input": "ൽ~",
      "Context": null,
      "Replacement": "ല്",
      "AltGr": false
    },
    {
      "Input": "ൽR",
      "Context": null,
      "Replacement": "ലൃ",
      "AltGr": false
    },
    {
      "Input": "ൽ(l|L)",
      "Context": null,
      "Replacement": "ല്ല്",
      "AltGr": false
    },
    {
      "Input": "ൽp",
      "Context": null,
      "Replacement": "ല്പ്",
      "AltGr": false
    },
    {
      "Input": "ൽy",
      "Context": null,
      "Replacement": "ല്യ്",
      "AltGr": false
    },
    {
      "Input": "ൽv",
      "Context": null,
      "Replacement": "ല്വ്",
      "AltGr": false
    },
    {
      "Input": "ൾ\\\\\\\\",
      "Context": null,
      "Replacement": "ള്‍",
      "AltGr": false
    },
    {
      "Input": "ൾ~",
      "Context": null,
      "Replacement": "ള്",
      "AltGr": false
    },
    {
      "Input": "ൾR",
      "Context": null,
      "Replacement": "ളൃ",
      "AltGr": false
    },
    {
      "Input": "ൾL",
      "Context": null,
      "Replacement": "ള്ള്",
      "AltGr": false
    },
    {
      "Input": "ൾy",
      "Context": null,
      "Replacement": "ള്യ്",
      "AltGr": false
    },
    {
      "Input": "ൾl",
      "Context": null,
      "Replacement": "ഌ",
      "AltGr": false
    },
    {
      "Input": "ൿ\\\\\\\\",
      "Context": null,
      "Replacement": "ക്‍",
      "AltGr": false
    },
    {
      "Input": "ൿR",
      "Context": null,
      "Replacement": "കൃ",
      "AltGr": false
    },
    {
      "Input": "ൿy",
      "Context": null,
      "Replacement": "ക്യ്",
      "AltGr": false
    },
    {
      "Input": "ൿ(l|L)",
      "Context": null,
      "Replacement": "ക്ല്",
      "AltGr": false
    },
    {
      "Input": "ൿv",
      "Context": null,
      "Replacement": "ക്വ്",
      "AltGr": false
    },
    {
      "Input": "ൿ(k|c)",
      "Context": null,
      "Replacement": "ക്ക്",
      "AltGr": false
    },
    {
      "Input": "([ക-ഹ])a",
      "Context": null,
      "Replacement": "$1ാ",
      "AltGr": false
    },
    {
      "Input": "([ക-ഹ])്a",
      "Context": null,
      "Replacement": "$1",
      "AltGr": false
    },
    {
      "Input": "ൺa",
      "Context": null,
      "Replacement": "ണ",
      "AltGr": false
    },
    {
      "Input": "ൻa",
      "Context": null,
      "Replacement": "ന",
      "AltGr": false
    },
    {
      "Input": "ർa",
      "Context": null,
      "Replacement": "ര",
      "AltGr": false
    },
    {
      "Input": "ൽa",
      "Context": null,
      "Replacement": "ല",
      "AltGr": false
    },
    {
      "Input": "ൾa",
      "Context": null,
      "Replacement": "ള",
      "AltGr": false
    },
    {
      "Input": "ൿa",
      "Context": null,
      "Replacement": "ക",
      "AltGr": false
    },
    {
      "Input": "([ക-ഹ])്A",
      "Context": null,
      "Replacement": "$1ാ",
      "AltGr": false
    },
    {
      "Input": "ൺA",
      "Context": null,
      "Replacement": "ണാ",
      "AltGr": false
    },
    {
      "Input": "ൻA",
      "Context": null,
      "Replacement": "നാ",
      "AltGr": false
    },
    {
      "Input": "ർA",
      "Context": null,
      "Replacement": "രാ",
      "AltGr": false
    },
    {
      "Input": "ൽA",
      "Context": null,
      "Replacement": "ലാ",
      "AltGr": false
    },
    {
      "Input": "ൾA",
      "Context": null,
      "Replacement": "ളാ",
      "AltGr": false
    },
    {
      "Input": "ൿA",
      "Context": null,
      "Replacement": "കാ",
      "AltGr": false
    },
    {
      "Input": "([ക-ഹ])്i",
      "Context": null,
      "Replacement": "$1ി",
      "AltGr": false
    },
    {
      "Input": "ൺi",
      "Context": null,
      "Replacement": "ണി",
      "AltGr": false
    },
    {
      "Input": "ൻi",
      "Context": null,
      "Replacement": "നി",
      "AltGr": false
    },
    {
      "Input": "ർi",
      "Context": null,
      "Replacement": "രി",
      "AltGr": false
    },
    {
      "Input": "ൽi",
      "Context": null,
      "Replacement": "ലി",
      "AltGr": false
    },
    {
      "Input": "ൾi",
      "Context": null,
      "Replacement": "ളി",
      "AltGr": false
    },
    {
      "Input": "ൿi",
      "Context": null,
      "Replacement": "കി",
      "AltGr": false
    },
    {
      "Input": "([ക-ഹ])്I",
      "Context": null,
      "Replacement": "$1ീ",
      "AltGr": false
    },
    {
      "Input": "ൺI",
      "Context": null,
      "Replacement": "ണീ",
      "AltGr": false
    },
    {
      "Input": "ൻI",
      "Context": null,
      "Replacement": "നീ",
      "AltGr": false
    },
    {
      "Input": "ർI",
      "Context": null,
      "Replacement": "രീ",
      "AltGr": false
    },
    {
      "Input": "ൽI",
      "Context": null,
      "Replacement": "ലീ",
      "AltGr": false
    },
    {
      "Input": "ൾI",
      "Context": null,
      "Replacement": "ളീ",
      "AltGr": false
    },
    {
      "Input": "ൿI",
      "Context": null,
      "Replacement": "കീ",
      "AltGr": false
    },
    {
      "Input": "([ക-ഹ])ിi",
      "Context": null,
      "Replacement": "$1ീ",
      "AltGr": false
    },
    {
      "Input": "([ക-ഹ])െe",
      "Context": null,
      "Replacement": "$1ീ",
      "AltGr": false
    },
    {
      "Input": "([ക-ഹ])്u",
      "Context": null,
      "Replacement": "$1ു",
      "AltGr": false
    },
    {
      "Input": "ൺu",
      "Context": null,
      "Replacement": "ണു",
      "AltGr": false
    },
    {
      "Input": "ൻu",
      "Context": null,
      "Replacement": "നു",
      "AltGr": false
    },
    {
      "Input": "ർu",
      "Context": null,
      "Replacement": "രു",
      "AltGr": false
    },
    {
      "Input": "ൽu",
      "Context": null,
      "Replacement": "ലു",
      "AltGr": false
    },
    {
      "Input": "ൾu",
      "Context": null,
      "Replacement": "ളു",
      "AltGr": false
    },
    {
      "Input": "ൿu",
      "Context": null,
      "Replacement": "കു",
      "AltGr": false
    },
    {
      "Input": "([ക-ഹ])്U",
      "Context": null,
      "Replacement": "$1ൂ",
      "AltGr": false
    },
    {
      "Input": "([ക-ഹ])ുu",
      "Context": null,
      "Replacement": "$1ൂ",
      "AltGr": false
    },
    {
      "Input": "ൺU",
      "Context": null,
      "Replacement": "ണൂ",
      "AltGr": false
    },
    {
      "Input": "ൻU",
      "Context": null,
      "Replacement": "നൂ",
      "AltGr": false
    },
    {
      "Input": "ർU",
      "Context": null,
      "Replacement": "രൂ",
      "AltGr": false
    },
    {
      "Input": "ൽU",
      "Context": null,
      "Replacement": "ലൂ",
      "AltGr": false
    },
    {
      "Input": "ൾU",
      "Context": null,
      "Replacement": "ളൂ",
      "AltGr": false
    },
    {
      "Input": "ൿU",
      "Context": null,
      "Replacement": "കൂ",
      "AltGr": false
    },
    {
      "Input": "([ക-ഹ])ൊo",
      "Context": null,
      "Replacement": "$1ൂ",
      "AltGr": false
    },
    {
      "Input": "([ക-ഹ])ൃR",
      "Context": null,
      "Replacement": "$1ൄ",
      "AltGr": false
    },
    {
      "Input": "([ക-ഹ])്e",
      "Context": null,
      "Replacement": "$1െ",
      "AltGr": false
    },
    {
      "Input": "ൺe",
      "Context": null,
      "Replacement": "ണെ",
      "AltGr": false
    },
    {
      "Input": "ൻe",
      "Context": null,
      "Replacement": "നെ",
      "AltGr": false
    },
    {
      "Input": "ർe",
      "Context": null,
      "Replacement": "രെ",
      "AltGr": false
    },
    {
      "Input": "ൽe",
      "Context": null,
      "Replacement": "ലെ",
      "AltGr": false
    },
    {
      "Input": "ൾe",
      "Context": null,
      "Replacement": "ളെ",
      "AltGr": false
    },
    {
      "Input": "ൿe",
      "Context": null,
      "Replacement": "കെ",
      "AltGr": false
    },
    {
      "Input": "([ക-ഹ])്E",
      "Context": null,
      "Replacement": "$1േ",
      "AltGr": false
    },
    {
      "Input": "ൺE",
      "Context": null,
      "Replacement": "ണേ",
      "AltGr": false
    },
    {
      "Input": "ൻE",
      "Context": null,
      "Replacement": "നേ",
      "AltGr": false
    },
    {
      "Input": "ർE",
      "Context": null,
      "Replacement": "രേ",
      "AltGr": false
    },
    {
      "Input": "ൽE",
      "Context": null,
      "Replacement": "ലേ",
      "AltGr": false
    },
    {
      "Input": "ൾE",
      "Context": null,
      "Replacement": "ളേ",
      "AltGr": false
    },
    {
      "Input": "ൿE",
      "Context": null,
      "Replacement": "കേ",
      "AltGr": false
    },
    {
      "Input": "([ക-ഹ])i",
      "Context": null,
      "Replacement": "$1ൈ",
      "AltGr": false
    },
    {
      "Input": "([ക-ഹ])്o",
      "Context": null,
      "Replacement": "$1ൊ",
      "AltGr": false
    },
    {
      "Input": "ൺo",
      "Context": null,
      "Replacement": "ണൊ",
      "AltGr": false
    },
    {
      "Input": "ൻo",
      "Context": null,
      "Replacement": "നൊ",
      "AltGr": false
    },
    {
      "Input": "ർo",
      "Context": null,
      "Replacement": "രൊ",
      "AltGr": false
    },
    {
      "Input": "ൽo",
      "Context": null,
      "Replacement": "ലൊ",
      "AltGr": false
    },
    {
      "Input": "ൾo",
      "Context": null,
      "Replacement": "ളൊ",
      "AltGr": false
    },
    {
      "Input": "ൿo",
      "Context": null,
      "Replacement": "കൊ",
      "AltGr": false
    },
    {
      "Input": "([ക-ഹ])്O",
      "Context": null,
      "Replacement": "$1ോ",
      "AltGr": false
    },
    {
      "Input": "ൺO",
      "Context": null,
      "Replacement": "ണോ",
      "AltGr": false
    },
    {
      "Input": "ൻO",
      "Context": null,
      "Replacement": "നോ",
      "AltGr": false
    },
    {
      "Input": "ർO",
      "Context": null,
      "Replacement": "രോ",
      "AltGr": false
    },
    {
      "Input": "ൽO",
      "Context": null,
      "Replacement": "ലോ",
      "AltGr": false
    },
    {
      "Input": "ൾO",
      "Context": null,
      "Replacement": "ളോ",
      "AltGr": false
    },
    {
      "Input": "ൿO",
      "Context": null,
      "Replacement": "കോ",
      "AltGr": false
    },
    {
      "Input": "([ക-ഹ])u",
      "Context": null,
      "Replacement": "$1ൗ",
      "AltGr": false
    },
    {
      "Input": "([ക-ഹ])U",
      "Context": null,
      "Replacement": "$1ൌ",
      "AltGr": false
    },
    {
      "Input": "([അ-്])m",
      "Context": null,
      "Replacement": "$1ം",
      "AltGr": false
    },
    {
      "Input": "\\\\0",
      "Context": null,
      "Replacement": "൦",
      "AltGr": false
    },
    {
      "Input": "\\\\1",
      "Context": null,
      "Replacement": "൧",
      "AltGr": false
    },
    {
      "Input": "\\\\2",
      "Context": null,
      "Replacement": "൨",
      "AltGr": false
    },
    {
      "Input": "\\\\3",
      "Context": null,
      "Replacement": "൩",
      "AltGr": false
    },
    {
      "Input": "\\\\4",
      "Context": null,
      "Replacement": "൪",
      "AltGr": false
    },
    {
      "Input": "\\\\5",
      "Context": null,
      "Replacement": "൫",
      "AltGr": false
    },
    {
      "Input": "\\\\6",
      "Context": null,
      "Replacement": "൬",
      "AltGr": false
    },
    {
      "Input": "\\\\7",
      "Context": null,
      "Replacement": "൭",
      "AltGr": false
    },
    {
      "Input": "\\\\8",
      "Context": null,
      "Replacement": "൮",
      "AltGr": false
    },
    {
      "Input": "\\\\9",
      "Context": null,
      "Replacement": "൯",
      "AltGr": false
    },
    {
      "Input": "മ്\\\\",
      "Context": null,
      "Replacement": "ം",
      "AltGr": false
    },
    {
      "Input": "ആ\\\\",
      "Context": null,
      "Replacement": "ാ",
      "AltGr": false
    },
    {
      "Input": "ഇ\\\\",
      "Context": null,
      "Replacement": "ി",
      "AltGr": false
    },
    {
      "Input": "ഈ\\\\",
      "Context": null,
      "Replacement": "ീ",
      "AltGr": false
    },
    {
      "Input": "ഉ\\\\",
      "Context": null,
      "Replacement": "ു",
      "AltGr": false
    },
    {
      "Input": "ഊ\\\\",
      "Context": null,
      "Replacement": "ൂ",
      "AltGr": false
    },
    {
      "Input": "ഋ\\\\",
      "Context": null,
      "Replacement": "ൃ",
      "AltGr": false
    },
    {
      "Input": "ൠ\\\\",
      "Context": null,
      "Replacement": "ൄ",
      "AltGr": false
    },
    {
      "Input": "എ\\\\",
      "Context": null,
      "Replacement": "െ",
      "AltGr": false
    },
    {
      "Input": "ഏ\\\\",
      "Context": null,
      "Replacement": "േ",
      "AltGr": false
    },
    {
      "Input": "ഐ\\\\",
      "Context": null,
      "Replacement": "ൈ",
      "AltGr": false
    },
    {
      "Input": "ഒ\\\\",
      "Context": null,
      "Replacement": "ൊ",
      "AltGr": false
    },
    {
      "Input": "ഓ\\\\",
      "Context": null,
      "Replacement": "ോ",
      "AltGr": false
    },
    {
      "Input": "ഔ\\\\",
      "Context": null,
      "Replacement": "ൗ",
      "AltGr": false
    },
    {
      "Input": "ൗ\\\\",
      "Context": null,
      "Replacement": "ൌ",
      "AltGr": false
    },
    {
      "Input": "ഌ\\\\",
      "Context": null,
      "Replacement": "ൢ",
      "AltGr": false
    },
    {
      "Input": "ൡ\\\\",
      "Context": null,
      "Replacement": "ൣ",
      "AltGr": false
    },
    {
      "Input": "(([ൺ-ൿം])‌+)?A",
      "Context": null,
      "Replacement": "$2ആ",
      "AltGr": false
    },
    {
      "Input": "(([ൺ-ൿം])‌+)?B",
      "Context": null,
      "Replacement": "$2ബ്ബ്",
      "AltGr": false
    },
    {
      "Input": "(([ൺ-ൿം])‌+)?C",
      "Context": null,
      "Replacement": "$2ച്ച്",
      "AltGr": false
    },
    {
      "Input": "(([ൺ-ൿം])‌+)?D",
      "Context": null,
      "Replacement": "$2ഡ്",
      "AltGr": false
    },
    {
      "Input": "(([ൺ-ൿം])‌+)?E",
      "Context": null,
      "Replacement": "$2ഏ",
      "AltGr": false
    },
    {
      "Input": "(([ൺ-ൿം])‌+)?F",
      "Context": null,
      "Replacement": "$2ഫ്",
      "AltGr": false
    },
    {
      "Input": "(([ൺ-ൿം])‌+)?G",
      "Context": null,
      "Replacement": "$2ഗ്ഗ്",
      "AltGr": false
    },
    {
      "Input": "(([ൺ-ൿം])‌+)?H",
      "Context": null,
      "Replacement": "$2ഃ",
      "AltGr": false
    },
    {
      "Input": "(([ൺ-ൿം])‌+)?I",
      "Context": null,
      "Replacement": "$2ഐ",
      "AltGr": false
    },
    {
      "Input": "(([ൺ-ൿം])‌+)?J",
      "Context": null,
      "Replacement": "$2ജ്ജ്",
      "AltGr": false
    },
    {
      "Input": "(([ൺ-ൿം])‌+)?K",
      "Context": null,
      "Replacement": "$2ക്ക്",
      "AltGr": false
    },
    {
      "Input": "(([ൺ-ൿം])‌+)?L",
      "Context": null,
      "Replacement": "$2ൾ",
      "AltGr": false
    },
    {
      "Input": "(([ൺ-ൿം])‌+)?M",
      "Context": null,
      "Replacement": "$2മ്മ്",
      "AltGr": false
    },
    {
      "Input": "(([ൺ-ൿം])‌+)?N",
      "Context": null,
      "Replacement": "$2ൺ",
      "AltGr": false
    },
    {
      "Input": "(([ൺ-ൿം])‌+)?O",
      "Context": null,
      "Replacement": "$2ഓ",
      "AltGr": false
    },
    {
      "Input": "(([ൺ-ൿം])‌+)?P",
      "Context": null,
      "Replacement": "$2പ്പ്",
      "AltGr": false
    },
    {
      "Input": "(([ൺ-ൿം])‌+)?Q",
      "Context": null,
      "Replacement": "$2ക്യ്",
      "AltGr": false
    },
    {
      "Input": "(([ൺ-ൿം])‌+)?R",
      "Context": null,
      "Replacement": "$2ഋ",
      "AltGr": false
    },
    {
      "Input": "(([ൺ-ൿം])‌+)?(S|z)",
      "Context": null,
      "Replacement": "$2ശ്",
      "AltGr": false
    },
    {
      "Input": "(([ൺ-ൿം])‌+)?T",
      "Context": null,
      "Replacement": "$2ട്",
      "AltGr": false
    },
    {
      "Input": "(([ൺ-ൿം])‌+)?U",
      "Context": null,
      "Replacement": "$2ഊ",
      "AltGr": false
    },
    {
      "Input": "(([ൺ-ൿം])‌+)?(V|W)",
      "Context": null,
      "Replacement": "$2വ്വ്",
      "AltGr": false
    },
    {
      "Input": "(([ൺ-ൿം])‌+)?X",
      "Context": null,
      "Replacement": "$2ക്ഷ്",
      "AltGr": false
    },
    {
      "Input": "(([ൺ-ൿം])‌+)?Y",
      "Context": null,
      "Replacement": "$2യ്യ്",
      "AltGr": false
    },
    {
      "Input": "(([ൺ-ൿം])‌+)?Z",
      "Context": null,
      "Replacement": "$2ശ്ശ്",
      "AltGr": false
    },
    {
      "Input": "(([ൺ-ൿം])‌+)?a",
      "Context": null,
      "Replacement": "$2അ",
      "AltGr": false
    },
    {
      "Input": "(([ൺ-ൿം])‌+)?b",
      "Context": null,
      "Replacement": "$2ബ്",
      "AltGr": false
    },
    {
      "Input": "(([ൺ-ൿം])‌+)?c",
      "Context": null,
      "Replacement": "$2ൿ",
      "AltGr": false
    },
    {
      "Input": "(([ൺ-ൿം])‌+)?d",
      "Context": null,
      "Replacement": "$2ദ്",
      "AltGr": false
    },
    {
      "Input": "(([ൺ-ൿം])‌+)?e",
      "Context": null,
      "Replacement": "$2എ",
      "AltGr": false
    },
    {
      "Input": "(([ൺ-ൿം])‌+)?f",
      "Context": null,
      "Replacement": "$2ഫ്",
      "AltGr": false
    },
    {
      "Input": "(([ൺ-ൿം])‌+)?g",
      "Context": null,
      "Replacement": "$2ഗ്",
      "AltGr": false
    },
    {
      "Input": "(([ൺ-ൿം])‌+)?h",
      "Context": null,
      "Replacement": "$2ഹ്",
      "AltGr": false
    },
    {
      "Input": "(([ൺ-ൿം])‌+)?i",
      "Context": null,
      "Replacement": "$2ഇ",
      "AltGr": false
    },
    {
      "Input": "(([ൺ-ൿം])‌+)?j",
      "Context": null,
      "Replacement": "$2ജ്",
      "AltGr": false
    },
    {
      "Input": "(([ൺ-ൿം])‌+)?k",
      "Context": null,
      "Replacement": "$2ക്",
      "AltGr": false
    },
    {
      "Input": "(([ൺ-ൿം])‌+)?l",
      "Context": null,
      "Replacement": "$2ൽ",
      "AltGr": false
    },
    {
      "Input": "(([ൺ-ൿം])‌+)?m",
      "Context": null,
      "Replacement": "$2മ്",
      "AltGr": false
    },
    {
      "Input": "(([ൺ-ൿം])‌+)?n",
      "Context": null,
      "Replacement": "$2ൻ",
      "AltGr": false
    },
    {
      "Input": "(([ൺ-ൿം])‌+)?o",
      "Context": null,
      "Replacement": "$2ഒ",
      "AltGr": false
    },
    {
      "Input": "(([ൺ-ൿം])‌+)?p",
      "Context": null,
      "Replacement": "$2പ്",
      "AltGr": false
    },
    {
      "Input": "(([ൺ-ൿം])‌+)?q",
      "Context": null,
      "Replacement": "$2ക്ക്",
      "AltGr": false
    },
    {
      "Input": "(([ൺ-ൿം])‌+)?r",
      "Context": null,
      "Replacement": "$2ർ",
      "AltGr": false
    },
    {
      "Input": "(([ൺ-ൿം])‌+)?s",
      "Context": null,
      "Replacement": "$2സ്",
      "AltGr": false
    },
    {
      "Input": "(([ൺ-ൿം])‌+)?t",
      "Context": null,
      "Replacement": "$2റ്റ്",
      "AltGr": false
    },
    {
      "Input": "(([ൺ-ൿം])‌+)?u",
      "Context": null,
      "Replacement": "$2ഉ",
      "AltGr": false
    },
    {
      "Input": "(([ൺ-ൿം])‌+)?(v|w)",
      "Context": null,
      "Replacement": "$2വ്",
      "AltGr": false
    },
    {
      "Input": "(([ൺ-ൿം])‌+)?x",
      "Context": null,
      "Replacement": "$2ക്ഷ്",
      "AltGr": false
    },
    {
      "Input": "(([ൺ-ൿം])‌+)?y",
      "Context": null,
      "Replacement": "$2യ്",
      "AltGr": false
    },
    {
      "Input": "(([ൺ-ൿം])‌+)?~",
      "Context": null,
      "Replacement": "$2്",
      "AltGr": false
    },
    {
      "Input": "(‌)*_",
      "Context": null,
      "Replacement": "‌",
      "AltGr": false
    },
    {
      "Input": "//",
      "Context": null,
      "Replacement": "ഽ",
      "AltGr": false
    },
    {
      "Input": "1/4\\\\",
      "Context": null,
      "Replacement": "൳",
      "AltGr": false
    },
    {
      "Input": "1/2\\\\",
      "Context": null,
      "Replacement": "൴",
      "AltGr": false
    },
    {
      "Input": "3/4\\\\",
      "Context": null,
      "Replacement": "൵",
      "AltGr": false
    },
    {
      "Input": "10\\\\",
      "Context": null,
      "Replacement": "൰",
      "AltGr": false
    },
    {
      "Input": "100\\\\",
      "Context": null,
      "Replacement": "൱",
      "AltGr": false
    },
    {
      "Input": "1000\\\\",
      "Context": null,
      "Replacement": "൲",
      "AltGr": false
    },
    {
      "Input": "\\-\\-\\-\\\\",
      "Context": null,
      "Replacement": "—",
      "AltGr": false
    },
    {
      "Input": "\\-\\-\\\\",
      "Context": null,
      "Replacement": "–",
      "AltGr": false
    },
    {
      "Input": "\\\\\\-",
      "Context": null,
      "Replacement": "−",
      "AltGr": false
    },
    {
      "Input": "\\\\\\*",
      "Context": null,
      "Replacement": "×",
      "AltGr": false
    },
    {
      "Input": "\\\\/",
      "Context": null,
      "Replacement": "÷",
      "AltGr": false
    },
    {
      "Input": "1#",
      "Context": null,
      "Replacement": "൧",
      "AltGr": false
    },
    {
      "Input": "2#",
      "Context": null,
      "Replacement": "൨",
      "AltGr": false
    },
    {
      "Input": "3#",
      "Context": null,
      "Replacement": "൩",
      "AltGr": false
    },
    {
      "Input": "4#",
      "Context": null,
      "Replacement": "൪",
      "AltGr": false
    },
    {
      "Input": "5#",
      "Context": null,
      "Replacement": "൫",
      "AltGr": false
    },
    {
      "Input": "6#",
      "Context": null,
      "Replacement": "൬",
      "AltGr": false
    },
    {
      "Input": "7#",
      "Context": null,
      "Replacement": "൭",
      "AltGr": false
    },
    {
      "Input": "8#",
      "Context": null,
      "Replacement": "൮",
      "AltGr": false
    },
    {
      "Input": "9#",
      "Context": null,
      "Replacement": "൯",
      "AltGr": false
    },
    {
      "Input": "0#",
      "Context": null,
      "Replacement": "൦",
      "AltGr": false
    }
  ]
}