{
  "Id": "or-phonetic",
  "Name": "Odiya Phonetic",
  "Author": "Parag Nemade",
  "Description": "Phonetic keyboard for Odiya script",
  "Version": "1.0",
  "MaxKeyLength": 1,
  "ContextLength": 0,
  "Patterns": [
    {
      "Input": "\\~",
      "Context": null,
      "Replacement": "ଐ",
      "AltGr": false
    },
    {
      "Input": "\\`",
      "Context": null,
      "Replacement": " ୈ",
      "AltGr": false
    },
    {
      "Input": "\\!",
      "Context": null,
      "Replacement": "ଏ",
      "AltGr": false
    },
    {
      "Input": "1",
      "Context": null,
      "Replacement": "୧",
      "AltGr": false
    },
    {
      "Input": "\\@",
      "Context": null,
      "Replacement": "@",
      "AltGr": false
    },
    {
      "Input": "2",
      "Context": null,
      "Replacement": "୨",
      "AltGr": false
    },
    {
      "Input": "\\#",
      "Context": null,
      "Replacement": "ତ୍ର",
      "AltGr": false
    },
    {
      "Input": "3",
      "Context": null,
      "Replacement": "୩",
      "AltGr": false
    },
    {
      "Input": "\\$",
      "Context": null,
      "Replacement": "$",
      "AltGr": false
    },
    {
      "Input": "4",
      "Context": null,
      "Replacement": "୪",
      "AltGr": false
    },
    {
      "Input": "\\%",
      "Context": null,
      "Replacement": "ଞ",
      "AltGr": false
    },
    {
      "Input": "5",
      "Context": null,
      "Replacement": "୫",
      "AltGr": false
    },
    {
      "Input": "6",
      "Context": null,
      "Replacement": "୬",
      "AltGr": false
    },
    {
      "Input": "7",
      "Context": null,
      "Replacement": "୭",
      "AltGr": false
    },
    {
      "Input": "8",
      "Context": null,
      "Replacement": "୮",
      "AltGr": false
    },
    {
      "Input": "\\(",
      "Context": null,
      "Replacement": "(",
      "AltGr": false
    },
    {
      "Input": "9",
      "Context": null,
      "Replacement": "୯",
      "AltGr": false
    },
    {
      "Input": "\\)",
      "Context": null,
      "Replacement": ")",
      "AltGr": false
    },
    {
      "Input": "0",
      "Context": null,
      "Replacement": "୦",
      "AltGr": false
    },
    {
      "Input": "\\_",
      "Context": null,
      "Replacement": "_",
      "AltGr": false
    },
    {
      "Input": "\\-",
      "Context": null,
      "Replacement": "-",
      "AltGr": false
    },
    {
      "Input": "\\+",
      "Context": null,
      "Replacement": "+",
      "AltGr": false
    },
    {
      "Input": "\\=",
      "Context": null,
      "Replacement": "=",
      "AltGr": false
    },
    {
      "Input": "Q",
      "Context": null,
      "Replacement": "ଔ",
      "AltGr": false
    },
    {
      "Input": "q",
      "Context": null,
      "Replacement": "ଓ",
      "AltGr": false
    },
    {
      "Input": "W",
      "Context": null,
      "Replacement": "ଠ",
      "AltGr": false
    },
    {
      "Input": "w",
      "Context": null,
      "Replacement": "ଟ",
      "AltGr": false
    },
    {
      "Input": "E",
      "Context": null,
      "Replacement": "ୈ",
      "AltGr": false
    },
    {
      "Input": "e",
      "Context": null,
      "Replacement": "େ",
      "AltGr": false
    },
    {
      "Input": "R",
      "Context": null,
      "Replacement": "ୃ ",
      "AltGr": false
    },
    {
      "Input": "r",
      "Context": null,
      "Replacement": "ର",
      "AltGr": false
    },
    {
      "Input": "T",
      "Context": null,
      "Replacement": "ଥ",
      "AltGr": false
    },
    {
      "Input": "t",
      "Context": null,
      "Replacement": "ତ",
      "AltGr": false
    },
    {
      "Input": "Y",
      "Context": null,
      "Replacement": "ୟ",
      "AltGr": false
    },
    {
      "Input": "y",
      "Context": null,
      "Replacement": "ଯ",
      "AltGr": false
    },
    {
      "Input": "U",
      "Context": null,
      "Replacement": "ୂ",
      "AltGr": false
    },
    {
      "Input": "u",
      "Context": null,
      "Replacement": "ୁ",
      "AltGr": false
    },
    {
      "Input": "I",
      "Context": null,
      "Replacement": "ୀ",
      "AltGr": false
    },
    {
      "Input": "i",
      "Context": null,
      "Replacement": "ି",
      "AltGr": false
    },
    {
      "Input": "O",
      "Context": null,
      "Replacement": "ୌ",
      "AltGr": false
    },
    {
      "Input": "o",
      "Context": null,
      "Replacement": "ୋ",
      "AltGr": false
    },
    {
      "Input": "P",
      "Context": null,
      "Replacement": "ଫ",
      "AltGr": false
    },
    {
      "Input": "p",
      "Context": null,
      "Replacement": "ପ",
      "AltGr": false
    },
    {
      "Input": "\\{",
      "Context": null,
      "Replacement": "ଢ",
      "AltGr": false
    },
    {
      "Input": "\\[",
      "Context": null,
      "Replacement": "ଡ",
      "AltGr": false
    },
    {
      "Input": "\\}",
      "Context": null,
      "Replacement": "ର୍",
      "AltGr": false
    },
    {
      "Input": "\\]",
      "Context": null,
      "Replacement": "ଋ",
      "AltGr": false
    },
    {
      "Input": "A",
      "Context": null,
      "Replacement": "ଆ",
      "AltGr": false
    },
    {
      "Input": "a",
      "Context": null,
      "Replacement": "ା",
      "AltGr": false
    },
    {
      "Input": "S",
      "Context": null,
      "Replacement": "ଶ",
      "AltGr": false
    },
    {
      "Input": "s",
      "Context": null,
      "Replacement": "ସ",
      "AltGr": false
    },
    {
      "Input": "D",
      "Context": null,
      "Replacement": "ଧ",
      "AltGr": false
    },
    {
      "Input": "d",
      "Context": null,
      "Replacement": "ଦ",
      "AltGr": false
    },
    {
      "Input": "F",
      "Context": null,
      "Replacement": "ଅ",
      "AltGr": false
    },
    {
      "Input": "f",
      "Context": null,
      "Replacement": "୍",
      "AltGr": false
    },
    {
      "Input": "G",
      "Context": null,
      "Replacement": "ଘ",
      "AltGr": false
    },
    {
      "Input": "g",
      "Context": null,
      "Replacement": "ଗ",
      "AltGr": false
    },
    {
      "Input": "H",
      "Context": null,
      "Replacement": "ଃ",
      "AltGr": false
    },
    {
      "Input": "h",
      "Context": null,
      "Replacement": "ହ",
      "AltGr": false
    },
    {
      "Input": "J",
      "Context": null,
      "Replacement": "ଝ",
      "AltGr": false
    },
    {
      "Input": "j",
      "Context": null,
      "Replacement": "ଜ",
      "AltGr": false
    },
    {
      "Input": "K",
      "Context": null,
      "Replacement": "ଖ",
      "AltGr": false
    },
    {
      "Input": "k",
      "Context": null,
      "Replacement": "କ",
      "AltGr": false
    },
    {
      "Input": "L",
      "Context": null,
      "Replacement": "ଳ",
      "AltGr": false
    },
    {
      "Input": "l",
      "Context": null,
      "Replacement": "ଲ",
      "AltGr": false
    },
    {
      "Input": ":",
      "Context": null,
      "Replacement": "ଈ",
      "AltGr": false
    },
    {
      "Input": ";",
      "Context": null,
      "Replacement": "ଇ",
      "AltGr": false
    },
    {
      "Input": "\"",
      "Context": null,
      "Replacement": "ଊ",
      "AltGr": false
    },
    {
      "Input": "'",
      "Context": null,
      "Replacement": "ଉ",
      "AltGr": false
    },
    {
      "Input": "\\|",
      "Context": null,
      "Replacement": "|",
      "AltGr": false
    },
    {
      "Input": "\\\\",
      "Context": null,
      "Replacement": "\\",
      "AltGr": false
    },
    {
      "Input": "Z",
      "Context": null,
      "Replacement": "ଁ",
      "AltGr": false
    },
    {
      "Input": "z",
      "Context": null,
      "Replacement": "ଙ",
      "AltGr": false
    },
    {
      "Input": "x",
      "Context": null,
      "Replacement": "ଷ",
      "AltGr": false
    },
    {
      "Input": "C",
      "Context": null,
      "Replacement": "ଛ",
      "AltGr": false
    },
    {
      "Input": "c",
      "Context": null,
      "Replacement": "ଚ",
      "AltGr": false
    },
    {
      "Input": "V",
      "Context": null,
      "Replacement": "ଵ",
      "AltGr": false
    },
    {
      "Input": "v",
      "Context": null,
      "Replacement": "ୱ",
      "AltGr": false
    },
    {
      "Input": "B",
      "Context": null,
      "Replacement": "ଭ",
      "AltGr": false
    },
    {
      "Input": "b",
      "Context": null,
      "Replacement": "ବ",
      "AltGr": false
    },
    {
      "Input": "N",
      "Context": null,
      "Replacement": "ଣ",
      "AltGr": false
    },
    {
      "Input": "n",
      "Context": null,
      "Replacement": "ନ",
      "AltGr": false
    },
    {
      "Input": "M",
      "Context": null,
      "Replacement": "ଂ",
      "AltGr": false
    },
    {
      "Input": "m",
      "Context": null,
      "Replacement": "ମ",
      "AltGr": false
    },
    {
      "Input": "\\<",
      "Context": null,
      "Replacement": "<",
      "AltGr": false
    },
    {
      "Input": ",",
      "Context": null,
      "Replacement": ",",
      "AltGr": false
    },
    {
      "Input": "\\>",
      "Context": null,
      "Replacement": ">",
      "AltGr": false
    },
    {
      "Input": "\\.",
      "Context": null,
      "Replacement": "।",
      "AltGr": false
    },
    {
      "Input": "\\?",
      "Context": null,
      "Replacement": "ଐ",
      "AltGr": false
    },
    {
      "Input": "/",
      "Context": null,
      "Replacement": "ଏ",
      "AltGr": false
    },
    {
      "Input": "\\^",
      "Context": null,
      "Replacement": "ଜ୍ଞ",
      "AltGr": false
    },
    {
      "Input": "X",
      "Context": null,
      "Replacement": "କ୍ଷ",
      "AltGr": false
    },
    {
      "Input": "\\*",
      "Context": null,
      "Replacement": "ଶ୍ର",
      "AltGr": false
    }
  ]
}