{
  "Id": "pa-jhelum",
  "Name": "Punjabi Jhelum",
  "Author": "Parag Nemade",
  "Description": "Jhelum keyboard for Punjabi script",
  "Version": "1.0",
  "MaxKeyLength": 1,
  "ContextLength": 0,
  "Patterns": [
    {
      "Input": "1",
      "Context": null,
      "Replacement": "੧",
      "AltGr": true
    },
    {
      "Input": "2",
      "Context": null,
      "Replacement": "੨",
      "AltGr": true
    },
    {
      "Input": "3",
      "Context": null,
      "Replacement": "੩",
      "AltGr": true
    },
    {
      "Input": "4",
      "Context": null,
      "Replacement": "੪",
      "AltGr": true
    },
    {
      "Input": "5",
      "Context": null,
      "Replacement": "੫",
      "AltGr": true
    },
    {
      "Input": "6",
      "Context": null,
      "Replacement": "੬",
      "AltGr": true
    },
    {
      "Input": "7",
      "Context": null,
      "Replacement": "੭",
      "AltGr": true
    },
    {
      "Input": "8",
      "Context": null,
      "Replacement": "੮",
      "AltGr": true
    },
    {
      "Input": "9",
      "Context": null,
      "Replacement": "੯",
      "AltGr": true
    },
    {
      "Input": "0",
      "Context": null,
      "Replacement": "੦",
      "AltGr": true
    },
    {
      "Input": "y",
      "Context": null,
      "Replacement": "੍ਰ",
      "AltGr": true
    },
    {
      "Input": "i",
      "Context": null,
      "Replacement": "ਗ਼",
      "AltGr": true
    },
    {
      "Input": "P",
      "Context": null,
      "Replacement": "ਫ਼",
      "AltGr": true
    },
    {
      "Input": "h",
      "Context": null,
      "Replacement": "੍ਹ",
      "AltGr": true
    },
    {
      "Input": "j",
      "Context": null,
      "Replacement": "ਜ਼",
      "AltGr": true
    },
    {
      "Input": "K",
      "Context": null,
      "Replacement": "ਖ਼",
      "AltGr": true
    },
    {
      "Input": "l",
      "Context": null,
      "Replacement": "ਲ਼",
      "AltGr": true
    },
    {
      "Input": ";",
      "Context": null,
      "Replacement": "ਸ਼",
      "AltGr": true
    },
    {
      "Input": "\\~",
      "Context": null,
      "Replacement": "~",
      "AltGr": false
    },
    {
      "Input": "\\`",
      "Context": null,
      "Replacement": "`",
      "AltGr": false
    },
    {
      "Input": "\\!",
      "Context": null,
      "Replacement": "!",
      "AltGr": false
    },
    {
      "Input": "1",
      "Context": null,
      "Replacement": "1",
      "AltGr": false
    },
    {
      "Input": "\\@",
      "Context": null,
      "Replacement": "@",
      "AltGr": false
    },
    {
      "Input": "2",
      "Context": null,
      "Replacement": "2",
      "AltGr": false
    },
    {
      "Input": "\\#",
      "Context": null,
      "Replacement": "#",
      "AltGr": false
    },
    {
      "Input": "3",
      "Context": null,
      "Replacement": "3",
      "AltGr": false
    },
    {
      "Input": "\\$",
      "Context": null,
      "Replacement": "$",
      "AltGr": false
    },
    {
      "Input": "4",
      "Context": null,
      "Replacement": "4",
      "AltGr": false
    },
    {
      "Input": "\\%",
      "Context": null,
      "Replacement": "%",
      "AltGr": false
    },
    {
      "Input": "5",
      "Context": null,
      "Replacement": "5",
      "AltGr": false
    },
    {
      "Input": "\\^",
      "Context": null,
      "Replacement": "ੳ",
      "AltGr": false
    },
    {
      "Input": "6",
      "Context": null,
      "Replacement": "6",
      "AltGr": false
    },
    {
      "Input": "\\&",
      "Context": null,
      "Replacement": "ੲ",
      "AltGr": false
    },
    {
      "Input": "7",
      "Context": null,
      "Replacement": "7",
      "AltGr": false
    },
    {
      "Input": "8",
      "Context": null,
      "Replacement": "8",
      "AltGr": false
    },
    {
      "Input": "\\(",
      "Context": null,
      "Replacement": "(",
      "AltGr": false
    },
    {
      "Input": "9",
      "Context": null,
      "Replacement": "9",
      "AltGr": false
    },
    {
      "Input": "\\)",
      "Context": null,
      "Replacement": ")",
      "AltGr": false
    },
    {
      "Input": "0",
      "Context": null,
      "Replacement": "0",
      "AltGr": false
    },
    {
      "Input": "\\_",
      "Context": null,
      "Replacement": "_",
      "AltGr": false
    },
    {
      "Input": "\\-",
      "Context": null,
      "Replacement": "-",
      "AltGr": false
    },
    {
      "Input": "\\+",
      "Context": null,
      "Replacement": "+",
      "AltGr": false
    },
    {
      "Input": "\\=",
      "Context": null,
      "Replacement": "=",
      "AltGr": false
    },
    {
      "Input": "Q",
      "Context": null,
      "Replacement": "ਔ",
      "AltGr": false
    },
    {
      "Input": "q",
      "Context": null,
      "Replacement": "ੌ",
      "AltGr": false
    },
    {
      "Input": "W",
      "Context": null,
      "Replacement": "ਐ",
      "AltGr": false
    },
    {
      "Input": "w",
      "Context": null,
      "Replacement": "ੈ",
      "AltGr": false
    },
    {
      "Input": "E",
      "Context": null,
      "Replacement": "ਆ",
      "AltGr": false
    },
    {
      "Input": "e",
      "Context": null,
      "Replacement": "ਾ",
      "AltGr": false
    },
    {
      "Input": "R",
      "Context": null,
      "Replacement": "ਈ",
      "AltGr": false
    },
    {
      "Input": "r",
      "Context": null,
      "Replacement": "ੀ",
      "AltGr": false
    },
    {
      "Input": "T",
      "Context": null,
      "Replacement": "ਊ",
      "AltGr": false
    },
    {
      "Input": "t",
      "Context": null,
      "Replacement": "ੂ",
      "AltGr": false
    },
    {
      "Input": "Y",
      "Context": null,
      "Replacement": "ੜ",
      "AltGr": false
    },
    {
      "Input": "y",
      "Context": null,
      "Replacement": "ਰ",
      "AltGr": false
    },
    {
      "Input": "U",
      "Context": null,
      "Replacement": "ਧ",
      "AltGr": false
    },
    {
      "Input": "u",
      "Context": null,
      "Replacement": "ਦ",
      "AltGr": false
    },
    {
      "Input": "I",
      "Context": null,
      "Replacement": "ਘ",
      "AltGr": false
    },
    {
      "Input": "i",
      "Context": null,
      "Replacement": "ਗ",
      "AltGr": false
    },
    {
      "Input": "O",
      "Context": null,
      "Replacement": "ਟ",
      "AltGr": false
    },
    {
      "Input": "o",
      "Context": null,
      "Replacement": "ਤ",
      "AltGr": false
    },
    {
      "Input": "P",
      "Context": null,
      "Replacement": "ਫ",
      "AltGr": false
    },
    {
      "Input": "p",
      "Context": null,
      "Replacement": "ਪ",
      "AltGr": false
    },
    {
      "Input": "\\{",
      "Context": null,
      "Replacement": "ਢ",
      "AltGr": false
    },
    {
      "Input": "\\[",
      "Context": null,
      "Replacement": "ਡ",
      "AltGr": false
    },
    {
      "Input": "\\}",
      "Context": null,
      "Replacement": "ਞ",
      "AltGr": false
    },
    {
      "Input": "\\]",
      "Context": null,
      "Replacement": "ਙ",
      "AltGr": false
    },
    {
      "Input": "A",
      "Context": null,
      "Replacement": "ਓ",
      "AltGr": false
    },
    {
      "Input": "a",
      "Context": null,
      "Replacement": "ੋ",
      "AltGr": false
    },
    {
      "Input": "S",
      "Context": null,
      "Replacement": "ਏ",
      "AltGr": false
    },
    {
      "Input": "s",
      "Context": null,
      "Replacement": "ੇ",
      "AltGr": false
    },
    {
      "Input": "D",
      "Context": null,
      "Replacement": "ਅ",
      "AltGr": false
    },
    {
      "Input": "d",
      "Context": null,
      "Replacement": "੍",
      "AltGr": false
    },
    {
      "Input": "F",
      "Context": null,
      "Replacement": "ਇ",
      "AltGr": false
    },
    {
      "Input": "f",
      "Context": null,
      "Replacement": "ਿ",
      "AltGr": false
    },
    {
      "Input": "G",
      "Context": null,
      "Replacement": "ਉ",
      "AltGr": false
    },
    {
      "Input": "g",
      "Context": null,
      "Replacement": "ੁ",
      "AltGr": false
    },
    {
      "Input": "H",
      "Context": null,
      "Replacement": "ਠ",
      "AltGr": false
    },
    {
      "Input": "h",
      "Context": null,
      "Replacement": "ਹ",
      "AltGr": false
    },
    {
      "Input": "J",
      "Context": null,
      "Replacement": "ਝ",
      "AltGr": false
    },
    {
      "Input": "j",
      "Context": null,
      "Replacement": "ਜ",
      "AltGr": false
    },
    {
      "Input": "K",
      "Context": null,
      "Replacement": "ਖ",
      "AltGr": false
    },
    {
      "Input": "k",
      "Context": null,
      "Replacement": "ਕ",
      "AltGr": false
    },
    {
      "Input": "L",
      "Context": null,
      "Replacement": "ਥ",
      "AltGr": false
    },
    {
      "Input": "l",
      "Context": null,
      "Replacement": "ਲ",
      "AltGr": false
    },
    {
      "Input": ":",
      "Context": null,
      "Replacement": ":",
      "AltGr": false
    },
    {
      "Input": ";",
      "Context": null,
      "Replacement": "ਸ",
      "AltGr": false
    },
    {
      "Input": "\"",
      "Context": null,
      "Replacement": "\"",
      "AltGr": false
    },
    {
      "Input": "\\'",
      "Context": null,
      "Replacement": "'",
      "AltGr": false
    },
    {
      "Input": "\\|",
      "Context": null,
      "Replacement": "।",
      "AltGr": false
    },
    {
      "Input": "\\",
      "Context": null,
      "Replacement": "\\",
      "AltGr": false
    },
    {
      "Input": "Z",
      "Context": null,
      "Replacement": "਼",
      "AltGr": false
    },
    {
      "Input": "z",
      "Context": null,
      "Replacement": "ੱ",
      "AltGr": false
    },
    {
      "Input": "X",
      "Context": null,
      "Replacement": "ੰ",
      "AltGr": false
    },
    {
      "Input": "x",
      "Context": null,
      "Replacement": "ਂ",
      "AltGr": false
    },
    {
      "Input": "C",
      "Context": null,
      "Replacement": "ਛ",
      "AltGr": false
    },
    {
      "Input": "c",
      "Context": null,
      "Replacement": "ਚ",
      "AltGr": false
    },
    {
      "Input": "V",
      "Context": null,
      "Replacement": "ਯ",
      "AltGr": false
    },
    {
      "Input": "v",
      "Context": null,
      "Replacement": "ਵ",
      "AltGr": false
    },
    {
      "Input": "B",
      "Context": null,
      "Replacement": "ਭ",
      "AltGr": false
    },
    {
      "Input": "b",
      "Context": null,
      "Replacement": "ਬ",
      "AltGr": false
    },
    {
      "Input": "N",
      "Context": null,
      "Replacement": "ਣ",
      "AltGr": false
    },
    {
      "Input": "n",
      "Context": null,
      "Replacement": "ਨ",
      "AltGr": false
    },
    {
      "Input": "M",
      "Context": null,
      "Replacement": "ਠ",
      "AltGr": false
    },
    {
      "Input": "m",
      "Context": null,
      "Replacement": "ਮ",
      "AltGr": false
    },
    {
      "Input": "\\<",
      "Context": null,
      "Replacement": "<",
      "AltGr": false
    },
    {
      "Input": ",",
      "Context": null,
      "Replacement": ",",
      "AltGr": false
    },
    {
      "Input": "\\>",
      "Context": null,
      "Replacement": ">",
      "AltGr": false
    },
    {
      "Input": "\\.",
      "Context": null,
      "Replacement": ".",
      "AltGr": false
    },
    {
      "Input": "\\?",
      "Context": null,
      "Replacement": "?",
      "AltGr": false
    },
    {
      "Input": "/",
      "Context": null,
      "Replacement": "/",
      "AltGr": false
    },
    {
      "Input": "\\*",
      "Context": null,
      "Replacement": "*",
      "AltGr": false
    }
  ]
}