{
  "Id": "sk-kbd",
  "Name": "Slovak kbd",
  "Author": "Parag Nemade",
  "Description": "Slovak kbd keyboard layout",
  "Version": "1.0",
  "MaxKeyLength": 1,
  "ContextLength": 0,
  "Patterns": [
    {
      "Input": "+'a",
      "Context": null,
      "Replacement": "ä",
      "AltGr": false
    },
    {
      "Input": "+'o",
      "Context": null,
      "Replacement": "ö",
      "AltGr": false
    },
    {
      "Input": "+'u",
      "Context": null,
      "Replacement": "ü",
      "AltGr": false
    },
    {
      "Input": "+'A",
      "Context": null,
      "Replacement": "Ä",
      "AltGr": false
    },
    {
      "Input": "+'O",
      "Context": null,
      "Replacement": "Ö",
      "AltGr": false
    },
    {
      "Input": "+'U",
      "Context": null,
      "Replacement": "Ü",
      "AltGr": false
    },
    {
      "Input": "'a",
      "Context": null,
      "Replacement": "á",
      "AltGr": false
    },
    {
      "Input": "+a",
      "Context": null,
      "Replacement": "ä",
      "AltGr": false
    },
    {
      "Input": "+c",
      "Context": null,
      "Replacement": "č",
      "AltGr": false
    },
    {
      "Input": "+d",
      "Context": null,
      "Replacement": "ď",
      "AltGr": false
    },
    {
      "Input": "'e",
      "Context": null,
      "Replacement": "é",
      "AltGr": false
    },
    {
      "Input": "+e",
      "Context": null,
      "Replacement": "ě",
      "AltGr": false
    },
    {
      "Input": "'i",
      "Context": null,
      "Replacement": "í",
      "AltGr": false
    },
    {
      "Input": "'l",
      "Context": null,
      "Replacement": "ĺ",
      "AltGr": false
    },
    {
      "Input": "+l",
      "Context": null,
      "Replacement": "ľ",
      "AltGr": false
    },
    {
      "Input": "+n",
      "Context": null,
      "Replacement": "ň",
      "AltGr": false
    },
    {
      "Input": "'o",
      "Context": null,
      "Replacement": "ó",
      "AltGr": false
    },
    {
      "Input": "+o",
      "Context": null,
      "Replacement": "ô",
      "AltGr": false
    },
    {
      "Input": "^o",
      "Context": null,
      "Replacement": "ô",
      "AltGr": false
    },
    {
      "Input": "'r",
      "Context": null,
      "Replacement": "ŕ",
      "AltGr": false
    },
    {
      "Input": "+r",
      "Context": null,
      "Replacement": "ř",
      "AltGr": false
    },
    {
      "Input": "'s",
      "Context": null,
      "Replacement": "ß",
      "AltGr": false
    },
    {
      "Input": "+s",
      "Context": null,
      "Replacement": "š",
      "AltGr": false
    },
    {
      "Input": "+t",
      "Context": null,
      "Replacement": "ť",
      "AltGr": false
    },
    {
      "Input": "'u",
      "Context": null,
      "Replacement": "ú",
      "AltGr": false
    },
    {
      "Input": "+u",
      "Context": null,
      "Replacement": "ů",
      "AltGr": false
    },
    {
      "Input": "'z",
      "Context": null,
      "Replacement": "ý",
      "AltGr": false
    },
    {
      "Input": "+y",
      "Context": null,
      "Replacement": "ž",
      "AltGr": false
    },
    {
      "Input": "'A",
      "Context": null,
      "Replacement": "Á",
      "AltGr": false
    },
    {
      "Input": "+A",
      "Context": null,
      "Replacement": "Ä",
      "AltGr": false
    },
    {
      "Input": "+C",
      "Context": null,
      "Replacement": "Č",
      "AltGr": false
    },
    {
      "Input": "+D",
      "Context": null,
      "Replacement": "Ď",
      "AltGr": false
    },
    {
      "Input": "'E",
      "Context": null,
      "Replacement": "É",
      "AltGr": false
    },
    {
      "Input": "+E",
      "Context": null,
      "Replacement": "Ě",
      "AltGr": false
    },
    {
      "Input": "'I",
      "Context": null,
      "Replacement": "Í",
      "AltGr": false
    },
    {
      "Input": "'L",
      "Context": null,
      "Replacement": "Ĺ",
      "AltGr": false
    },
    {
      "Input": "+L",
      "Context": null,
      "Replacement": "Ľ",
      "AltGr": false
    },
    {
      "Input": "+N",
      "Context": null,
      "Replacement": "Ň",
      "AltGr": false
    },
    {
      "Input": "'O",
      "Context": null,
      "Replacement": "Ó",
      "AltGr": false
    },
    {
      "Input": "+O",
      "Context": null,
      "Replacement": "Ô",
      "AltGr": false
    },
    {
      "Input": "~O",
      "Context": null,
      "Replacement": "Ô",
      "AltGr": false
    },
    {
      "Input": "'R",
      "Context": null,
      "Replacement": "Ŕ",
      "AltGr": false
    },
    {
      "Input": "+R",
      "Context": null,
      "Replacement": "Ř",
      "AltGr": false
    },
    {
      "Input": "'S",
      "Context": null,
      "Replacement": "ß",
      "AltGr": false
    },
    {
      "Input": "+S",
      "Context": null,
      "Replacement": "Š",
      "AltGr": false
    },
    {
      "Input": "+T",
      "Context": null,
      "Replacement": "Ť",
      "AltGr": false
    },
    {
      "Input": "'U",
      "Context": null,
      "Replacement": "Ú",
      "AltGr": false
    },
    {
      "Input": "+U",
      "Context": null,
      "Replacement": "Ů",
      "AltGr": false
    },
    {
      "Input": "'Z",
      "Context": null,
      "Replacement": "Ý",
      "AltGr": false
    },
    {
      "Input": "+Y",
      "Context": null,
      "Replacement": "Ž",
      "AltGr": false
    },
    {
      "Input": "'q",
      "Context": null,
      "Replacement": "`",
      "AltGr": false
    },
    {
      "Input": "'2",
      "Context": null,
      "Replacement": "@",
      "AltGr": false
    },
    {
      "Input": "'3",
      "Context": null,
      "Replacement": "#",
      "AltGr": false
    },
    {
      "Input": "'4",
      "Context": null,
      "Replacement": "$",
      "AltGr": false
    },
    {
      "Input": "'5",
      "Context": null,
      "Replacement": "%",
      "AltGr": false
    },
    {
      "Input": "'6",
      "Context": null,
      "Replacement": "^",
      "AltGr": false
    },
    {
      "Input": "'7",
      "Context": null,
      "Replacement": "&",
      "AltGr": false
    },
    {
      "Input": "'8",
      "Context": null,
      "Replacement": "*",
      "AltGr": false
    },
    {
      "Input": "'9",
      "Context": null,
      "Replacement": "(",
      "AltGr": false
    },
    {
      "Input": "'0",
      "Context": null,
      "Replacement": ")",
      "AltGr": false
    },
    {
      "Input": "+1",
      "Context": null,
      "Replacement": "!",
      "AltGr": false
    },
    {
      "Input": "+2",
      "Context": null,
      "Replacement": "@",
      "AltGr": false
    },
    {
      "Input": "+3",
      "Context": null,
      "Replacement": "#",
      "AltGr": false
    },
    {
      "Input": "+4",
      "Context": null,
      "Replacement": "$",
      "AltGr": false
    },
    {
      "Input": "+5",
      "Context": null,
      "Replacement": "%",
      "AltGr": false
    },
    {
      "Input": "+6",
      "Context": null,
      "Replacement": "^",
      "AltGr": false
    },
    {
      "Input": "+7",
      "Context": null,
      "Replacement": "&",
      "AltGr": false
    },
    {
      "Input": "+8",
      "Context": null,
      "Replacement": "*",
      "AltGr": false
    },
    {
      "Input": "+9",
      "Context": null,
      "Replacement": "(",
      "AltGr": false
    },
    {
      "Input": "+0",
      "Context": null,
      "Replacement": ")",
      "AltGr": false
    },
    {
      "Input": "1",
      "Context": null,
      "Replacement": "+",
      "AltGr": false
    },
    {
      "Input": "2",
      "Context": null,
      "Replacement": "ľ",
      "AltGr": false
    },
    {
      "Input": "3",
      "Context": null,
      "Replacement": "š",
      "AltGr": false
    },
    {
      "Input": "4",
      "Context": null,
      "Replacement": "č",
      "AltGr": false
    },
    {
      "Input": "5",
      "Context": null,
      "Replacement": "ť",
      "AltGr": false
    },
    {
      "Input": "6",
      "Context": null,
      "Replacement": "ž",
      "AltGr": false
    },
    {
      "Input": "7",
      "Context": null,
      "Replacement": "ý",
      "AltGr": false
    },
    {
      "Input": "8",
      "Context": null,
      "Replacement": "á",
      "AltGr": false
    },
    {
      "Input": "9",
      "Context": null,
      "Replacement": "í",
      "AltGr": false
    },
    {
      "Input": "0",
      "Context": null,
      "Replacement": "é",
      "AltGr": false
    },
    {
      "Input": "\\!",
      "Context": null,
      "Replacement": "1",
      "AltGr": false
    },
    {
      "Input": "\\@",
      "Context": null,
      "Replacement": "2",
      "AltGr": false
    },
    {
      "Input": "\\#",
      "Context": null,
      "Replacement": "3",
      "AltGr": false
    },
    {
      "Input": "\\$",
      "Context": null,
      "Replacement": "4",
      "AltGr": false
    },
    {
      "Input": "\\%",
      "Context": null,
      "Replacement": "5",
      "AltGr": false
    },
    {
      "Input": "\\^",
      "Context": null,
      "Replacement": "6",
      "AltGr": false
    },
    {
      "Input": "\\&",
      "Context": null,
      "Replacement": "7",
      "AltGr": false
    },
    {
      "Input": "\\*",
      "Context": null,
      "Replacement": "8",
      "AltGr": false
    },
    {
      "Input": "\\(",
      "Context": null,
      "Replacement": "9",
      "AltGr": false
    },
    {
      "Input": "\\)",
      "Context": null,
      "Replacement": "0",
      "AltGr": false
    },
    {
      "Input": "\\-",
      "Context": null,
      "Replacement": "=",
      "AltGr": false
    },
    {
      "Input": "\\_",
      "Context": null,
      "Replacement": "%",
      "AltGr": false
    },
    {
      "Input": "\\=",
      "Context": null,
      "Replacement": "'",
      "AltGr": false
    },
    {
      "Input": "\\[",
      "Context": null,
      "Replacement": "ú",
      "AltGr": false
    },
    {
      "Input": "\\{",
      "Context": null,
      "Replacement": "/",
      "AltGr": false
    },
    {
      "Input": "\\]",
      "Context": null,
      "Replacement": "ä",
      "AltGr": false
    },
    {
      "Input": "\\}",
      "Context": null,
      "Replacement": "(",
      "AltGr": false
    },
    {
      "Input": "\\\\",
      "Context": null,
      "Replacement": "ň",
      "AltGr": false
    },
    {
      "Input": "\\|",
      "Context": null,
      "Replacement": ")",
      "AltGr": false
    },
    {
      "Input": ";",
      "Context": null,
      "Replacement": "ô",
      "AltGr": false
    },
    {
      "Input": ":",
      "Context": null,
      "Replacement": "\"",
      "AltGr": false
    },
    {
      "Input": "'",
      "Context": null,
      "Replacement": "§",
      "AltGr": false
    },
    {
      "Input": "\"",
      "Context": null,
      "Replacement": "!",
      "AltGr": false
    },
    {
      "Input": "\\<",
      "Context": null,
      "Replacement": "?",
      "AltGr": false
    },
    {
      "Input": "\\>",
      "Context": null,
      "Replacement": ":",
      "AltGr": false
    },
    {
      "Input": "/",
      "Context": null,
      "Replacement": "-",
      "AltGr": false
    },
    {
      "Input": "\\?",
      "Context": null,
      "Replacement": "_",
      "AltGr": false
    },
    {
      "Input": "`",
      "Context": null,
      "Replacement": ";",
      "AltGr": false
    },
    {
      "Input": "\\~",
      "Context": null,
      "Replacement": "^",
      "AltGr": false
    },
    {
      "Input": "y",
      "Context": null,
      "Replacement": "z",
      "AltGr": false
    },
    {
      "Input": "z",
      "Context": null,
      "Replacement": "y",
      "AltGr": false
    },
    {
      "Input": "Y",
      "Context": null,
      "Replacement": "Z",
      "AltGr": false
    },
    {
      "Input": "Z",
      "Context": null,
      "Replacement": "Y",
      "AltGr": false
    }
  ]
}