{
  "Description": "Hindi InScript layout test",
  "Transliteration": "hi-inscript",
  "Multiline": false,
  "Transliterates": [
    {
      "Input": "F",
      "Output": "ऌ",
      "Description": "Hindi inscript - ALTGR+F",
      "AltGr": true
    }
  ]
}