{
  "Id": "ber-tfng",
  "Name": "Tifinagh Transliteration",
  "Author": "",
  "Description": "Transliteration input method for Tifinagh script",
  "Version": "1.0",
  "MaxKeyLength": 0,
  "ContextLength": 0,
  "Patterns": [
    {
      "Input": "a",
      "Context": null,
      "Replacement": "ⴰ",
      "AltGr": false
    },
    {
      "Input": "b",
      "Context": null,
      "Replacement": "ⴱ",
      "AltGr": false
    },
    {
      "Input": "c",
      "Context": null,
      "Replacement": "ⵛ",
      "AltGr": false
    },
    {
      "Input": "d",
      "Context": null,
      "Replacement": "ⴷ",
      "AltGr": false
    },
    {
      "Input": "D",
      "Context": null,
      "Replacement": "ⴹ",
      "AltGr": false
    },
    {
      "Input": "e",
      "Context": null,
      "Replacement": "ⴻ",
      "AltGr": false
    },
    {
      "Input": "f",
      "Context": null,
      "Replacement": "ⴼ",
      "AltGr": false
    },
    {
      "Input": "F",
      "Context": null,
      "Replacement": "ⴼⵯ",
      "AltGr": false
    },
    {
      "Input": "g",
      "Context": null,
      "Replacement": "ⴳ",
      "AltGr": false
    },
    {
      "Input": "G",
      "Context": null,
      "Replacement": "ⴳⵯ",
      "AltGr": false
    },
    {
      "Input": "h",
      "Context": null,
      "Replacement": "ⵀ",
      "AltGr": false
    },
    {
      "Input": "i",
      "Context": null,
      "Replacement": "ⵉ",
      "AltGr": false
    },
    {
      "Input": "j",
      "Context": null,
      "Replacement": "ⵊ",
      "AltGr": false
    },
    {
      "Input": "k",
      "Context": null,
      "Replacement": "ⴽ",
      "AltGr": false
    },
    {
      "Input": "K",
      "Context": null,
      "Replacement": "ⴽⵯ",
      "AltGr": false
    },
    {
      "Input": "l",
      "Context": null,
      "Replacement": "ⵍ",
      "AltGr": false
    },
    {
      "Input": "m",
      "Context": null,
      "Replacement": "ⵎ",
      "AltGr": false
    },
    {
      "Input": "n",
      "Context": null,
      "Replacement": "ⵏ",
      "AltGr": false
    },
    {
      "Input": "o",
      "Context": null,
      "Replacement": "ⵄ",
      "AltGr": false
    },
    {
      "Input": "p",
      "Context": null,
      "Replacement": "ⵃ",
      "AltGr": false
    },
    {
      "Input": "q",
      "Context": null,
      "Replacement": "ⵇ",
      "AltGr": false
    },
    {
      "Input": "Q",
      "Context": null,
      "Replacement": "ⵈ",
      "AltGr": false
    },
    {
      "Input": "r",
      "Context": null,
      "Replacement": "ⵔ",
      "AltGr": false
    },
    {
      "Input": "R",
      "Context": null,
      "Replacement": "ⵕ",
      "AltGr": false
    },
    {
      "Input": "s",
      "Context": null,
      "Replacement": "ⵙ",
      "AltGr": false
    },
    {
      "Input": "S",
      "Context": null,
      "Replacement": "ⵚ",
      "AltGr": false
    },
    {
      "Input": "t",
      "Context": null,
      "Replacement": "ⵜ",
      "AltGr": false
    },
    {
      "Input": "T",
      "Context": null,
      "Replacement": "ⵟ",
      "AltGr": false
    },
    {
      "Input": "v",
      "Context": null,
      "Replacement": "ⵖ",
      "AltGr": false
    },
    {
      "Input": "u",
      "Context": null,
      "Replacement": "ⵓ",
      "AltGr": false
    },
    {
      "Input": "w",
      "Context": null,
      "Replacement": "ⵡ",
      "AltGr": false
    },
    {
      "Input": "y",
      "Context": null,
      "Replacement": "ⵢ",
      "AltGr": false
    },
    {
      "Input": "x",
      "Context": null,
      "Replacement": "ⵅ",
      "AltGr": false
    },
    {
      "Input": "z",
      "Context": null,
      "Replacement": "ⵣ",
      "AltGr": false
    },
    {
      "Input": "Z",
      "Context": null,
      "Replacement": "ⵥ",
      "AltGr": false
    }
  ]
}