{
  "Id": "de",
  "Name": "Deutsch",
  "Author": "Erik Moeller",
  "Description": "German input method",
  "Version": "1.0",
  "MaxKeyLength": 1,
  "ContextLength": 1,
  "Patterns": [
    {
      "Input": "~A",
      "Context": null,
      "Replacement": "Ä",
      "AltGr": false
    },
    {
      "Input": "~O",
      "Context": null,
      "Replacement": "Ö",
      "AltGr": false
    },
    {
      "Input": "~U",
      "Context": null,
      "Replacement": "Ü",
      "AltGr": false
    },
    {
      "Input": "~a",
      "Context": null,
      "Replacement": "ä",
      "AltGr": false
    },
    {
      "Input": "~o",
      "Context": null,
      "Replacement": "ö",
      "AltGr": false
    },
    {
      "Input": "~u",
      "Context": null,
      "Replacement": "ü",
      "AltGr": false
    },
    {
      "Input": "~s",
      "Context": null,
      "Replacement": "ß",
      "AltGr": false
    },
    {
      "Input": "~S",
      "Context": null,
      "Replacement": "ß",
      "AltGr": false
    }
  ]
}