{
  "Id": "gu-phonetic",
  "Name": "ફોનૅટિક",
  "Author": "Parag Nemade",
  "Description": "Phonetic keyboard for Gujarati script",
  "Version": "1.0",
  "MaxKeyLength": 1,
  "ContextLength": 0,
  "Patterns": [
    {
      "Input": "\\~",
      "Context": null,
      "Replacement": "ઍ",
      "AltGr": false
    },
    {
      "Input": "\\`",
      "Context": null,
      "Replacement": "ૅ",
      "AltGr": false
    },
    {
      "Input": "\\!",
      "Context": null,
      "Replacement": "!",
      "AltGr": false
    },
    {
      "Input": "1",
      "Context": null,
      "Replacement": "૧",
      "AltGr": false
    },
    {
      "Input": "\\@",
      "Context": null,
      "Replacement": "@",
      "AltGr": false
    },
    {
      "Input": "2",
      "Context": null,
      "Replacement": "૨",
      "AltGr": false
    },
    {
      "Input": "\\#",
      "Context": null,
      "Replacement": "#",
      "AltGr": false
    },
    {
      "Input": "3",
      "Context": null,
      "Replacement": "૩",
      "AltGr": false
    },
    {
      "Input": "\\$",
      "Context": null,
      "Replacement": "$",
      "AltGr": false
    },
    {
      "Input": "4",
      "Context": null,
      "Replacement": "૪",
      "AltGr": false
    },
    {
      "Input": "\\&",
      "Context": null,
      "Replacement": "૱",
      "AltGr": false
    },
    {
      "Input": "5",
      "Context": null,
      "Replacement": "૫",
      "AltGr": false
    },
    {
      "Input": "6",
      "Context": null,
      "Replacement": "૬",
      "AltGr": false
    },
    {
      "Input": "7",
      "Context": null,
      "Replacement": "૭",
      "AltGr": false
    },
    {
      "Input": "8",
      "Context": null,
      "Replacement": "૮",
      "AltGr": false
    },
    {
      "Input": "\\(",
      "Context": null,
      "Replacement": "(",
      "AltGr": false
    },
    {
      "Input": "9",
      "Context": null,
      "Replacement": "૯",
      "AltGr": false
    },
    {
      "Input": "\\)",
      "Context": null,
      "Replacement": ")",
      "AltGr": false
    },
    {
      "Input": "0",
      "Context": null,
      "Replacement": "૦",
      "AltGr": false
    },
    {
      "Input": "\\_",
      "Context": null,
      "Replacement": "_",
      "AltGr": false
    },
    {
      "Input": "\\-",
      "Context": null,
      "Replacement": "-",
      "AltGr": false
    },
    {
      "Input": "\\+",
      "Context": null,
      "Replacement": "+",
      "AltGr": false
    },
    {
      "Input": "\\=",
      "Context": null,
      "Replacement": "=",
      "AltGr": false
    },
    {
      "Input": "Q",
      "Context": null,
      "Replacement": "ઔ",
      "AltGr": false
    },
    {
      "Input": "q",
      "Context": null,
      "Replacement": "ઓ",
      "AltGr": false
    },
    {
      "Input": "W",
      "Context": null,
      "Replacement": "ઠ",
      "AltGr": false
    },
    {
      "Input": "w",
      "Context": null,
      "Replacement": "ટ",
      "AltGr": false
    },
    {
      "Input": "E",
      "Context": null,
      "Replacement": "ૈ",
      "AltGr": false
    },
    {
      "Input": "e",
      "Context": null,
      "Replacement": "ે",
      "AltGr": false
    },
    {
      "Input": "R",
      "Context": null,
      "Replacement": "ૃ",
      "AltGr": false
    },
    {
      "Input": "r",
      "Context": null,
      "Replacement": "ર",
      "AltGr": false
    },
    {
      "Input": "T",
      "Context": null,
      "Replacement": "થ",
      "AltGr": false
    },
    {
      "Input": "t",
      "Context": null,
      "Replacement": "ત",
      "AltGr": false
    },
    {
      "Input": "Y",
      "Context": null,
      "Replacement": "ય઼",
      "AltGr": false
    },
    {
      "Input": "y",
      "Context": null,
      "Replacement": "ય",
      "AltGr": false
    },
    {
      "Input": "U",
      "Context": null,
      "Replacement": "ૂ",
      "AltGr": false
    },
    {
      "Input": "u",
      "Context": null,
      "Replacement": "ુ",
      "AltGr": false
    },
    {
      "Input": "I",
      "Context": null,
      "Replacement": "ી",
      "AltGr": false
    },
    {
      "Input": "i",
      "Context": null,
      "Replacement": "િ",
      "AltGr": false
    },
    {
      "Input": "O",
      "Context": null,
      "Replacement": "ૌ",
      "AltGr": false
    },
    {
      "Input": "o",
      "Context": null,
      "Replacement": "ો",
      "AltGr": false
    },
    {
      "Input": "P",
      "Context": null,
      "Replacement": "ફ",
      "AltGr": false
    },
    {
      "Input": "p",
      "Context": null,
      "Replacement": "પ",
      "AltGr": false
    },
    {
      "Input": "\\{",
      "Context": null,
      "Replacement": "ઢ",
      "AltGr": false
    },
    {
      "Input": "\\[",
      "Context": null,
      "Replacement": "ડ",
      "AltGr": false
    },
    {
      "Input": "\\}",
      "Context": null,
      "Replacement": "ર઼",
      "AltGr": false
    },
    {
      "Input": "\\]",
      "Context": null,
      "Replacement": "ઋ",
      "AltGr": false
    },
    {
      "Input": "A",
      "Context": null,
      "Replacement": "આ",
      "AltGr": false
    },
    {
      "Input": "a",
      "Context": null,
      "Replacement": "ા",
      "AltGr": false
    },
    {
      "Input": "S",
      "Context": null,
      "Replacement": "શ",
      "AltGr": false
    },
    {
      "Input": "s",
      "Context": null,
      "Replacement": "સ",
      "AltGr": false
    },
    {
      "Input": "D",
      "Context": null,
      "Replacement": "ધ",
      "AltGr": false
    },
    {
      "Input": "d",
      "Context": null,
      "Replacement": "દ",
      "AltGr": false
    },
    {
      "Input": "F",
      "Context": null,
      "Replacement": "અ",
      "AltGr": false
    },
    {
      "Input": "f",
      "Context": null,
      "Replacement": "્",
      "AltGr": false
    },
    {
      "Input": "G",
      "Context": null,
      "Replacement": "ઘ",
      "AltGr": false
    },
    {
      "Input": "g",
      "Context": null,
      "Replacement": "ગ",
      "AltGr": false
    },
    {
      "Input": "H",
      "Context": null,
      "Replacement": "ઃ",
      "AltGr": false
    },
    {
      "Input": "h",
      "Context": null,
      "Replacement": "હ",
      "AltGr": false
    },
    {
      "Input": "J",
      "Context": null,
      "Replacement": "ઝ",
      "AltGr": false
    },
    {
      "Input": "j",
      "Context": null,
      "Replacement": "જ",
      "AltGr": false
    },
    {
      "Input": "K",
      "Context": null,
      "Replacement": "ખ",
      "AltGr": false
    },
    {
      "Input": "k",
      "Context": null,
      "Replacement": "ક",
      "AltGr": false
    },
    {
      "Input": "L",
      "Context": null,
      "Replacement": "ળ",
      "AltGr": false
    },
    {
      "Input": "l",
      "Context": null,
      "Replacement": "લ",
      "AltGr": false
    },
    {
      "Input": ":",
      "Context": null,
      "Replacement": "ઈ",
      "AltGr": false
    },
    {
      "Input": ";",
      "Context": null,
      "Replacement": "ઇ",
      "AltGr": false
    },
    {
      "Input": "\"",
      "Context": null,
      "Replacement": "ઊ",
      "AltGr": false
    },
    {
      "Input": "\\'",
      "Context": null,
      "Replacement": "ઉ",
      "AltGr": false
    },
    {
      "Input": "\\|",
      "Context": null,
      "Replacement": "ઑ",
      "AltGr": false
    },
    {
      "Input": "\\",
      "Context": null,
      "Replacement": "ૉ",
      "AltGr": false
    },
    {
      "Input": "Z",
      "Context": null,
      "Replacement": "ઁ",
      "AltGr": false
    },
    {
      "Input": "z",
      "Context": null,
      "Replacement": "ઙ",
      "AltGr": false
    },
    {
      "Input": "x",
      "Context": null,
      "Replacement": "ષ",
      "AltGr": false
    },
    {
      "Input": "C",
      "Context": null,
      "Replacement": "છ",
      "AltGr": false
    },
    {
      "Input": "c",
      "Context": null,
      "Replacement": "ચ",
      "AltGr": false
    },
    {
      "Input": "V",
      "Context": null,
      "Replacement": "ઽ",
      "AltGr": false
    },
    {
      "Input": "v",
      "Context": null,
      "Replacement": "વ",
      "AltGr": false
    },
    {
      "Input": "B",
      "Context": null,
      "Replacement": "ભ",
      "AltGr": false
    },
    {
      "Input": "b",
      "Context": null,
      "Replacement": "બ",
      "AltGr": false
    },
    {
      "Input": "N",
      "Context": null,
      "Replacement": "ણ",
      "AltGr": false
    },
    {
      "Input": "n",
      "Context": null,
      "Replacement": "ન",
      "AltGr": false
    },
    {
      "Input": "M",
      "Context": null,
      "Replacement": "ં",
      "AltGr": false
    },
    {
      "Input": "m",
      "Context": null,
      "Replacement": "મ",
      "AltGr": false
    },
    {
      "Input": "\\<",
      "Context": null,
      "Replacement": "ૐ",
      "AltGr": false
    },
    {
      "Input": ",",
      "Context": null,
      "Replacement": ",",
      "AltGr": false
    },
    {
      "Input": "\\>",
      "Context": null,
      "Replacement": "઼",
      "AltGr": false
    },
    {
      "Input": "\\.",
      "Context": null,
      "Replacement": ".",
      "AltGr": false
    },
    {
      "Input": "\\?",
      "Context": null,
      "Replacement": "ઐ",
      "AltGr": false
    },
    {
      "Input": "/",
      "Context": null,
      "Replacement": "એ",
      "AltGr": false
    },
    {
      "Input": "X",
      "Context": null,
      "Replacement": "ક્ષ",
      "AltGr": false
    },
    {
      "Input": "\\%",
      "Context": null,
      "Replacement": "જ્ઞ",
      "AltGr": false
    },
    {
      "Input": "\\^",
      "Context": null,
      "Replacement": "ત્ર",
      "AltGr": false
    },
    {
      "Input": "\\*",
      "Context": null,
      "Replacement": "શ્ર",
      "AltGr": false
    }
  ]
}