{
  "Id": "ka-kbd",
  "Name": "Georgian kbd",
  "Author": "Parag Nemade",
  "Description": "Georgian kbd keyboard layout",
  "Version": "1.0",
  "MaxKeyLength": 1,
  "ContextLength": 0,
  "Patterns": [
    {
      "Input": ".k",
      "Context": null,
      "Replacement": "კ",
      "AltGr": false
    },
    {
      "Input": ".p",
      "Context": null,
      "Replacement": "პ",
      "AltGr": false
    },
    {
      "Input": "+z",
      "Context": null,
      "Replacement": "ჟ",
      "AltGr": false
    },
    {
      "Input": ".t",
      "Context": null,
      "Replacement": "ტ",
      "AltGr": false
    },
    {
      "Input": ".g",
      "Context": null,
      "Replacement": "ღ",
      "AltGr": false
    },
    {
      "Input": "+s",
      "Context": null,
      "Replacement": "შ",
      "AltGr": false
    },
    {
      "Input": ".+c",
      "Context": null,
      "Replacement": "ჭ",
      "AltGr": false
    },
    {
      "Input": "+c",
      "Context": null,
      "Replacement": "ჩ",
      "AltGr": false
    },
    {
      "Input": ".c",
      "Context": null,
      "Replacement": "წ",
      "AltGr": false
    },
    {
      "Input": "+j",
      "Context": null,
      "Replacement": "ჯ",
      "AltGr": false
    },
    {
      "Input": "ყ1",
      "Context": null,
      "Replacement": "ჴ",
      "AltGr": false
    },
    {
      "Input": "ე0",
      "Context": null,
      "Replacement": "ჱ",
      "AltGr": false
    },
    {
      "Input": "ო1",
      "Context": null,
      "Replacement": "ჵ",
      "AltGr": false
    },
    {
      "Input": "ი1",
      "Context": null,
      "Replacement": "ჲ",
      "AltGr": false
    },
    {
      "Input": "a",
      "Context": null,
      "Replacement": "ა",
      "AltGr": false
    },
    {
      "Input": "b",
      "Context": null,
      "Replacement": "ბ",
      "AltGr": false
    },
    {
      "Input": "g",
      "Context": null,
      "Replacement": "გ",
      "AltGr": false
    },
    {
      "Input": "d",
      "Context": null,
      "Replacement": "დ",
      "AltGr": false
    },
    {
      "Input": "e",
      "Context": null,
      "Replacement": "ე",
      "AltGr": false
    },
    {
      "Input": "v",
      "Context": null,
      "Replacement": "ვ",
      "AltGr": false
    },
    {
      "Input": "z",
      "Context": null,
      "Replacement": "ზ",
      "AltGr": false
    },
    {
      "Input": "t",
      "Context": null,
      "Replacement": "თ",
      "AltGr": false
    },
    {
      "Input": "i",
      "Context": null,
      "Replacement": "ი",
      "AltGr": false
    },
    {
      "Input": "l",
      "Context": null,
      "Replacement": "ლ",
      "AltGr": false
    },
    {
      "Input": "m",
      "Context": null,
      "Replacement": "მ",
      "AltGr": false
    },
    {
      "Input": "n",
      "Context": null,
      "Replacement": "ნ",
      "AltGr": false
    },
    {
      "Input": "o",
      "Context": null,
      "Replacement": "ო",
      "AltGr": false
    },
    {
      "Input": "r",
      "Context": null,
      "Replacement": "რ",
      "AltGr": false
    },
    {
      "Input": "s",
      "Context": null,
      "Replacement": "ს",
      "AltGr": false
    },
    {
      "Input": "u",
      "Context": null,
      "Replacement": "უ",
      "AltGr": false
    },
    {
      "Input": "p",
      "Context": null,
      "Replacement": "ფ",
      "AltGr": false
    },
    {
      "Input": "k",
      "Context": null,
      "Replacement": "ქ",
      "AltGr": false
    },
    {
      "Input": "q",
      "Context": null,
      "Replacement": "ყ",
      "AltGr": false
    },
    {
      "Input": "c",
      "Context": null,
      "Replacement": "ც",
      "AltGr": false
    },
    {
      "Input": "j",
      "Context": null,
      "Replacement": "ძ",
      "AltGr": false
    },
    {
      "Input": "x",
      "Context": null,
      "Replacement": "ხ",
      "AltGr": false
    },
    {
      "Input": "h",
      "Context": null,
      "Replacement": "ჰ",
      "AltGr": false
    },
    {
      "Input": "w",
      "Context": null,
      "Replacement": "ჳ",
      "AltGr": false
    },
    {
      "Input": "f",
      "Context": null,
      "Replacement": "ჶ",
      "AltGr": false
    }
  ]
}