{
  "Id": "kn-inscript2",
  "Name": "ಇನ್‌ಸ್ಕ್ರಿಪ್ಟ್ ೨",
  "Author": "Parag Nemade",
  "Description": "Enhanced InScript keyboard for Kannada script",
  "Version": "1.0",
  "MaxKeyLength": 1,
  "ContextLength": 0,
  "Patterns": [
    {
      "Input": "1",
      "Context": null,
      "Replacement": "‍",
      "AltGr": true
    },
    {
      "Input": "2",
      "Context": null,
      "Replacement": "‌",
      "AltGr": true
    },
    {
      "Input": "4",
      "Context": null,
      "Replacement": "₹",
      "AltGr": true
    },
    {
      "Input": "\\+",
      "Context": null,
      "Replacement": "ೠ",
      "AltGr": true
    },
    {
      "Input": "\\=",
      "Context": null,
      "Replacement": "ೄ",
      "AltGr": true
    },
    {
      "Input": "R",
      "Context": null,
      "Replacement": "ೡ",
      "AltGr": true
    },
    {
      "Input": "r",
      "Context": null,
      "Replacement": "ೣ",
      "AltGr": true
    },
    {
      "Input": "u",
      "Context": null,
      "Replacement": "ೱ",
      "AltGr": true
    },
    {
      "Input": "F",
      "Context": null,
      "Replacement": "ಌ",
      "AltGr": true
    },
    {
      "Input": "f",
      "Context": null,
      "Replacement": "ೢ",
      "AltGr": true
    },
    {
      "Input": "H",
      "Context": null,
      "Replacement": "ೞ",
      "AltGr": true
    },
    {
      "Input": "j",
      "Context": null,
      "Replacement": "ೲ",
      "AltGr": true
    },
    {
      "Input": "\\>",
      "Context": null,
      "Replacement": "ಽ",
      "AltGr": true
    },
    {
      "Input": ".",
      "Context": null,
      "Replacement": "॥",
      "AltGr": true
    },
    {
      "Input": "1",
      "Context": null,
      "Replacement": "೧",
      "AltGr": false
    },
    {
      "Input": "2",
      "Context": null,
      "Replacement": "೨",
      "AltGr": false
    },
    {
      "Input": "\\#",
      "Context": null,
      "Replacement": "್ರ",
      "AltGr": false
    },
    {
      "Input": "3",
      "Context": null,
      "Replacement": "೩",
      "AltGr": false
    },
    {
      "Input": "\\$",
      "Context": null,
      "Replacement": "ರ್",
      "AltGr": false
    },
    {
      "Input": "4",
      "Context": null,
      "Replacement": "೪",
      "AltGr": false
    },
    {
      "Input": "5",
      "Context": null,
      "Replacement": "೫",
      "AltGr": false
    },
    {
      "Input": "6",
      "Context": null,
      "Replacement": "೬",
      "AltGr": false
    },
    {
      "Input": "7",
      "Context": null,
      "Replacement": "೭",
      "AltGr": false
    },
    {
      "Input": "8",
      "Context": null,
      "Replacement": "೮",
      "AltGr": false
    },
    {
      "Input": "\\(",
      "Context": null,
      "Replacement": "(",
      "AltGr": false
    },
    {
      "Input": "9",
      "Context": null,
      "Replacement": "೯",
      "AltGr": false
    },
    {
      "Input": "\\)",
      "Context": null,
      "Replacement": ")",
      "AltGr": false
    },
    {
      "Input": "0",
      "Context": null,
      "Replacement": "೦",
      "AltGr": false
    },
    {
      "Input": "\\_",
      "Context": null,
      "Replacement": "ಃ",
      "AltGr": false
    },
    {
      "Input": "\\-",
      "Context": null,
      "Replacement": "-",
      "AltGr": false
    },
    {
      "Input": "\\+",
      "Context": null,
      "Replacement": "ಋ",
      "AltGr": false
    },
    {
      "Input": "\\=",
      "Context": null,
      "Replacement": "ೃ",
      "AltGr": false
    },
    {
      "Input": "Q",
      "Context": null,
      "Replacement": "ಔ",
      "AltGr": false
    },
    {
      "Input": "q",
      "Context": null,
      "Replacement": "ೌ",
      "AltGr": false
    },
    {
      "Input": "W",
      "Context": null,
      "Replacement": "ಐ",
      "AltGr": false
    },
    {
      "Input": "w",
      "Context": null,
      "Replacement": "ೈ",
      "AltGr": false
    },
    {
      "Input": "E",
      "Context": null,
      "Replacement": "ಆ",
      "AltGr": false
    },
    {
      "Input": "e",
      "Context": null,
      "Replacement": "ಾ",
      "AltGr": false
    },
    {
      "Input": "R",
      "Context": null,
      "Replacement": "ಈ",
      "AltGr": false
    },
    {
      "Input": "r",
      "Context": null,
      "Replacement": "ೀ",
      "AltGr": false
    },
    {
      "Input": "T",
      "Context": null,
      "Replacement": "ಊ",
      "AltGr": false
    },
    {
      "Input": "t",
      "Context": null,
      "Replacement": "ೂ",
      "AltGr": false
    },
    {
      "Input": "Y",
      "Context": null,
      "Replacement": "ಭ",
      "AltGr": false
    },
    {
      "Input": "y",
      "Context": null,
      "Replacement": "ಬ",
      "AltGr": false
    },
    {
      "Input": "U",
      "Context": null,
      "Replacement": "ಙ",
      "AltGr": false
    },
    {
      "Input": "u",
      "Context": null,
      "Replacement": "ಹ",
      "AltGr": false
    },
    {
      "Input": "I",
      "Context": null,
      "Replacement": "ಘ",
      "AltGr": false
    },
    {
      "Input": "i",
      "Context": null,
      "Replacement": "ಗ",
      "AltGr": false
    },
    {
      "Input": "O",
      "Context": null,
      "Replacement": "ಧ",
      "AltGr": false
    },
    {
      "Input": "o",
      "Context": null,
      "Replacement": "ದ",
      "AltGr": false
    },
    {
      "Input": "P",
      "Context": null,
      "Replacement": "ಝ",
      "AltGr": false
    },
    {
      "Input": "p",
      "Context": null,
      "Replacement": "ಜ",
      "AltGr": false
    },
    {
      "Input": "\\{",
      "Context": null,
      "Replacement": "ಢ",
      "AltGr": false
    },
    {
      "Input": "\\[",
      "Context": null,
      "Replacement": "ಡ",
      "AltGr": false
    },
    {
      "Input": "\\}",
      "Context": null,
      "Replacement": "ಞ",
      "AltGr": false
    },
    {
      "Input": "\\]",
      "Context": null,
      "Replacement": "಼",
      "AltGr": false
    },
    {
      "Input": "A",
      "Context": null,
      "Replacement": "ಓ",
      "AltGr": false
    },
    {
      "Input": "a",
      "Context": null,
      "Replacement": "ೋ",
      "AltGr": false
    },
    {
      "Input": "S",
      "Context": null,
      "Replacement": "ಏ",
      "AltGr": false
    },
    {
      "Input": "s",
      "Context": null,
      "Replacement": "ೇ",
      "AltGr": false
    },
    {
      "Input": "D",
      "Context": null,
      "Replacement": "ಅ",
      "AltGr": false
    },
    {
      "Input": "d",
      "Context": null,
      "Replacement": "್",
      "AltGr": false
    },
    {
      "Input": "F",
      "Context": null,
      "Replacement": "ಇ",
      "AltGr": false
    },
    {
      "Input": "f",
      "Context": null,
      "Replacement": "ಿ",
      "AltGr": false
    },
    {
      "Input": "G",
      "Context": null,
      "Replacement": "ಉ",
      "AltGr": false
    },
    {
      "Input": "g",
      "Context": null,
      "Replacement": "ು",
      "AltGr": false
    },
    {
      "Input": "H",
      "Context": null,
      "Replacement": "ಫ",
      "AltGr": false
    },
    {
      "Input": "h",
      "Context": null,
      "Replacement": "ಪ",
      "AltGr": false
    },
    {
      "Input": "J",
      "Context": null,
      "Replacement": "ಱ",
      "AltGr": false
    },
    {
      "Input": "j",
      "Context": null,
      "Replacement": "ರ",
      "AltGr": false
    },
    {
      "Input": "K",
      "Context": null,
      "Replacement": "ಖ",
      "AltGr": false
    },
    {
      "Input": "k",
      "Context": null,
      "Replacement": "ಕ",
      "AltGr": false
    },
    {
      "Input": "L",
      "Context": null,
      "Replacement": "ಥ",
      "AltGr": false
    },
    {
      "Input": "l",
      "Context": null,
      "Replacement": "ತ",
      "AltGr": false
    },
    {
      "Input": ":",
      "Context": null,
      "Replacement": "ಛ",
      "AltGr": false
    },
    {
      "Input": ";",
      "Context": null,
      "Replacement": "ಚ",
      "AltGr": false
    },
    {
      "Input": "\"",
      "Context": null,
      "Replacement": "ಠ",
      "AltGr": false
    },
    {
      "Input": "\\'",
      "Context": null,
      "Replacement": "ಟ",
      "AltGr": false
    },
    {
      "Input": "\\~",
      "Context": null,
      "Replacement": "ಒ",
      "AltGr": false
    },
    {
      "Input": "`\\",
      "Context": null,
      "Replacement": "ೊ",
      "AltGr": false
    },
    {
      "Input": "Z",
      "Context": null,
      "Replacement": "ಎ",
      "AltGr": false
    },
    {
      "Input": "z",
      "Context": null,
      "Replacement": "ೆ",
      "AltGr": false
    },
    {
      "Input": "x",
      "Context": null,
      "Replacement": "ಂ",
      "AltGr": false
    },
    {
      "Input": "C",
      "Context": null,
      "Replacement": "ಣ",
      "AltGr": false
    },
    {
      "Input": "c",
      "Context": null,
      "Replacement": "ಮ",
      "AltGr": false
    },
    {
      "Input": "v",
      "Context": null,
      "Replacement": "ನ",
      "AltGr": false
    },
    {
      "Input": "b",
      "Context": null,
      "Replacement": "ವ",
      "AltGr": false
    },
    {
      "Input": "N",
      "Context": null,
      "Replacement": "ಳ",
      "AltGr": false
    },
    {
      "Input": "n",
      "Context": null,
      "Replacement": "ಲ",
      "AltGr": false
    },
    {
      "Input": "M",
      "Context": null,
      "Replacement": "ಶ",
      "AltGr": false
    },
    {
      "Input": "m",
      "Context": null,
      "Replacement": "ಸ",
      "AltGr": false
    },
    {
      "Input": "\\<",
      "Context": null,
      "Replacement": "ಷ",
      "AltGr": false
    },
    {
      "Input": ",",
      "Context": null,
      "Replacement": ",",
      "AltGr": false
    },
    {
      "Input": "\\>",
      "Context": null,
      "Replacement": "।",
      "AltGr": false
    },
    {
      "Input": "\\.",
      "Context": null,
      "Replacement": ".",
      "AltGr": false
    },
    {
      "Input": "/",
      "Context": null,
      "Replacement": "ಯ",
      "AltGr": false
    },
    {
      "Input": "\\%",
      "Context": null,
      "Replacement": "ಜ್ಞ",
      "AltGr": false
    },
    {
      "Input": "\\^",
      "Context": null,
      "Replacement": "ತ್ರ",
      "AltGr": false
    },
    {
      "Input": "\\&",
      "Context": null,
      "Replacement": "ಕ್ಷ",
      "AltGr": false
    },
    {
      "Input": "\\*",
      "Context": null,
      "Replacement": "ಶ್ರ",
      "AltGr": false
    }
  ]
}