{
  "Id": "ml-inscript2",
  "Name": "ഇൻസ്ക്രിപ്റ്റ് 2",
  "Author": "Parag Nemade",
  "Description": "Enhanced InScript for Malayalam InScript",
  "Version": "1.0",
  "MaxKeyLength": 2,
  "ContextLength": 0,
  "Patterns": [
    {
      "Input": "1",
      "Context": null,
      "Replacement": "‍",
      "AltGr": true
    },
    {
      "Input": "\\!",
      "Context": null,
      "Replacement": "൰",
      "AltGr": true
    },
    {
      "Input": "2",
      "Context": null,
      "Replacement": "‌",
      "AltGr": true
    },
    {
      "Input": "\\@",
      "Context": null,
      "Replacement": "൱",
      "AltGr": true
    },
    {
      "Input": "\\#",
      "Context": null,
      "Replacement": "൲",
      "AltGr": true
    },
    {
      "Input": "\\$",
      "Context": null,
      "Replacement": "൳",
      "AltGr": true
    },
    {
      "Input": "4",
      "Context": null,
      "Replacement": "₹",
      "AltGr": true
    },
    {
      "Input": "\\%",
      "Context": null,
      "Replacement": "൴",
      "AltGr": true
    },
    {
      "Input": "\\^",
      "Context": null,
      "Replacement": "൵",
      "AltGr": true
    },
    {
      "Input": "\\+",
      "Context": null,
      "Replacement": "ൠ",
      "AltGr": true
    },
    {
      "Input": "\\=",
      "Context": null,
      "Replacement": "ൄ",
      "AltGr": true
    },
    {
      "Input": "q",
      "Context": null,
      "Replacement": "ൌ",
      "AltGr": true
    },
    {
      "Input": "R",
      "Context": null,
      "Replacement": "ൡ",
      "AltGr": true
    },
    {
      "Input": "r",
      "Context": null,
      "Replacement": "ൣ",
      "AltGr": true
    },
    {
      "Input": "F",
      "Context": null,
      "Replacement": "ഌ",
      "AltGr": true
    },
    {
      "Input": "f",
      "Context": null,
      "Replacement": "ൢ",
      "AltGr": true
    },
    {
      "Input": "j",
      "Context": null,
      "Replacement": "ർ",
      "AltGr": true
    },
    {
      "Input": "k",
      "Context": null,
      "Replacement": "ൿ",
      "AltGr": true
    },
    {
      "Input": "c",
      "Context": null,
      "Replacement": "ൺ",
      "AltGr": true
    },
    {
      "Input": "v",
      "Context": null,
      "Replacement": "൹",
      "AltGr": true
    },
    {
      "Input": "N",
      "Context": null,
      "Replacement": "ൾ",
      "AltGr": true
    },
    {
      "Input": "n",
      "Context": null,
      "Replacement": "ൽ",
      "AltGr": true
    },
    {
      "Input": "\\>",
      "Context": null,
      "Replacement": "ഽ",
      "AltGr": true
    },
    {
      "Input": "\\.",
      "Context": null,
      "Replacement": "॥",
      "AltGr": true
    },
    {
      "Input": "1",
      "Context": null,
      "Replacement": "൧",
      "AltGr": false
    },
    {
      "Input": "2",
      "Context": null,
      "Replacement": "൨",
      "AltGr": false
    },
    {
      "Input": "3",
      "Context": null,
      "Replacement": "൩",
      "AltGr": false
    },
    {
      "Input": "\\#",
      "Context": null,
      "Replacement": "്ര",
      "AltGr": false
    },
    {
      "Input": "4",
      "Context": null,
      "Replacement": "൪",
      "AltGr": false
    },
    {
      "Input": "5",
      "Context": null,
      "Replacement": "൫",
      "AltGr": false
    },
    {
      "Input": "6",
      "Context": null,
      "Replacement": "൬",
      "AltGr": false
    },
    {
      "Input": "7",
      "Context": null,
      "Replacement": "൭",
      "AltGr": false
    },
    {
      "Input": "\\&",
      "Context": null,
      "Replacement": "ക്ഷ",
      "AltGr": false
    },
    {
      "Input": "8",
      "Context": null,
      "Replacement": "൮",
      "AltGr": false
    },
    {
      "Input": "\\*",
      "Context": null,
      "Replacement": "ൾ",
      "AltGr": false
    },
    {
      "Input": "\\(",
      "Context": null,
      "Replacement": "(",
      "AltGr": false
    },
    {
      "Input": "9",
      "Context": null,
      "Replacement": "൯",
      "AltGr": false
    },
    {
      "Input": "\\)",
      "Context": null,
      "Replacement": ")",
      "AltGr": false
    },
    {
      "Input": "0",
      "Context": null,
      "Replacement": "൦",
      "AltGr": false
    },
    {
      "Input": "\\_",
      "Context": null,
      "Replacement": "ഃ",
      "AltGr": false
    },
    {
      "Input": "\\-",
      "Context": null,
      "Replacement": "-",
      "AltGr": false
    },
    {
      "Input": "\\+",
      "Context": null,
      "Replacement": "ഋ",
      "AltGr": false
    },
    {
      "Input": "\\=",
      "Context": null,
      "Replacement": "ൃ",
      "AltGr": false
    },
    {
      "Input": "Q",
      "Context": null,
      "Replacement": "ഔ",
      "AltGr": false
    },
    {
      "Input": "q",
      "Context": null,
      "Replacement": "ൗ",
      "AltGr": false
    },
    {
      "Input": "W",
      "Context": null,
      "Replacement": "ഐ",
      "AltGr": false
    },
    {
      "Input": "w",
      "Context": null,
      "Replacement": "ൈ",
      "AltGr": false
    },
    {
      "Input": "E",
      "Context": null,
      "Replacement": "ആ",
      "AltGr": false
    },
    {
      "Input": "e",
      "Context": null,
      "Replacement": "ാ",
      "AltGr": false
    },
    {
      "Input": "R",
      "Context": null,
      "Replacement": "ഈ",
      "AltGr": false
    },
    {
      "Input": "r",
      "Context": null,
      "Replacement": "ീ",
      "AltGr": false
    },
    {
      "Input": "T",
      "Context": null,
      "Replacement": "ഊ",
      "AltGr": false
    },
    {
      "Input": "t",
      "Context": null,
      "Replacement": "ൂ",
      "AltGr": false
    },
    {
      "Input": "Y",
      "Context": null,
      "Replacement": "ഭ",
      "AltGr": false
    },
    {
      "Input": "y",
      "Context": null,
      "Replacement": "ബ",
      "AltGr": false
    },
    {
      "Input": "U",
      "Context": null,
      "Replacement": "ങ",
      "AltGr": false
    },
    {
      "Input": "u",
      "Context": null,
      "Replacement": "ഹ",
      "AltGr": false
    },
    {
      "Input": "I",
      "Context": null,
      "Replacement": "ഘ",
      "AltGr": false
    },
    {
      "Input": "i",
      "Context": null,
      "Replacement": "ഗ",
      "AltGr": false
    },
    {
      "Input": "O",
      "Context": null,
      "Replacement": "ധ",
      "AltGr": false
    },
    {
      "Input": "o",
      "Context": null,
      "Replacement": "ദ",
      "AltGr": false
    },
    {
      "Input": "P",
      "Context": null,
      "Replacement": "ഝ",
      "AltGr": false
    },
    {
      "Input": "p",
      "Context": null,
      "Replacement": "ജ",
      "AltGr": false
    },
    {
      "Input": "\\{",
      "Context": null,
      "Replacement": "ഢ",
      "AltGr": false
    },
    {
      "Input": "\\[",
      "Context": null,
      "Replacement": "ഡ",
      "AltGr": false
    },
    {
      "Input": "\\}",
      "Context": null,
      "Replacement": "ഞ",
      "AltGr": false
    },
    {
      "Input": "\\\\",
      "Context": null,
      "Replacement": "ർ",
      "AltGr": false
    },
    {
      "Input": "A",
      "Context": null,
      "Replacement": "ഓ",
      "AltGr": false
    },
    {
      "Input": "a",
      "Context": null,
      "Replacement": "ോ",
      "AltGr": false
    },
    {
      "Input": "S",
      "Context": null,
      "Replacement": "ഏ",
      "AltGr": false
    },
    {
      "Input": "s",
      "Context": null,
      "Replacement": "േ",
      "AltGr": false
    },
    {
      "Input": "D",
      "Context": null,
      "Replacement": "അ",
      "AltGr": false
    },
    {
      "Input": "d",
      "Context": null,
      "Replacement": "്",
      "AltGr": false
    },
    {
      "Input": "F",
      "Context": null,
      "Replacement": "ഇ",
      "AltGr": false
    },
    {
      "Input": "f",
      "Context": null,
      "Replacement": "ി",
      "AltGr": false
    },
    {
      "Input": "G",
      "Context": null,
      "Replacement": "ഉ",
      "AltGr": false
    },
    {
      "Input": "g",
      "Context": null,
      "Replacement": "ു",
      "AltGr": false
    },
    {
      "Input": "H",
      "Context": null,
      "Replacement": "ഫ",
      "AltGr": false
    },
    {
      "Input": "h",
      "Context": null,
      "Replacement": "പ",
      "AltGr": false
    },
    {
      "Input": "J",
      "Context": null,
      "Replacement": "റ",
      "AltGr": false
    },
    {
      "Input": "j",
      "Context": null,
      "Replacement": "ര",
      "AltGr": false
    },
    {
      "Input": "K",
      "Context": null,
      "Replacement": "ഖ",
      "AltGr": false
    },
    {
      "Input": "k",
      "Context": null,
      "Replacement": "ക",
      "AltGr": false
    },
    {
      "Input": "L",
      "Context": null,
      "Replacement": "ഥ",
      "AltGr": false
    },
    {
      "Input": "l",
      "Context": null,
      "Replacement": "ത",
      "AltGr": false
    },
    {
      "Input": ":",
      "Context": null,
      "Replacement": "ഛ",
      "AltGr": false
    },
    {
      "Input": ";",
      "Context": null,
      "Replacement": "ച",
      "AltGr": false
    },
    {
      "Input": "\"",
      "Context": null,
      "Replacement": "ഠ",
      "AltGr": false
    },
    {
      "Input": "\\'",
      "Context": null,
      "Replacement": "ട",
      "AltGr": false
    },
    {
      "Input": "\\~",
      "Context": null,
      "Replacement": "ഒ",
      "AltGr": false
    },
    {
      "Input": "\\`",
      "Context": null,
      "Replacement": "ൊ",
      "AltGr": false
    },
    {
      "Input": "Z",
      "Context": null,
      "Replacement": "എ",
      "AltGr": false
    },
    {
      "Input": "z",
      "Context": null,
      "Replacement": "െ",
      "AltGr": false
    },
    {
      "Input": "X",
      "Context": null,
      "Replacement": "ൺ",
      "AltGr": false
    },
    {
      "Input": "x",
      "Context": null,
      "Replacement": "ം",
      "AltGr": false
    },
    {
      "Input": "C",
      "Context": null,
      "Replacement": "ണ",
      "AltGr": false
    },
    {
      "Input": "c",
      "Context": null,
      "Replacement": "മ",
      "AltGr": false
    },
    {
      "Input": "V",
      "Context": null,
      "Replacement": "ൻ",
      "AltGr": false
    },
    {
      "Input": "v",
      "Context": null,
      "Replacement": "ന",
      "AltGr": false
    },
    {
      "Input": "B",
      "Context": null,
      "Replacement": "ഴ",
      "AltGr": false
    },
    {
      "Input": "b",
      "Context": null,
      "Replacement": "വ",
      "AltGr": false
    },
    {
      "Input": "N",
      "Context": null,
      "Replacement": "ള",
      "AltGr": false
    },
    {
      "Input": "n",
      "Context": null,
      "Replacement": "ല",
      "AltGr": false
    },
    {
      "Input": "M",
      "Context": null,
      "Replacement": "ശ",
      "AltGr": false
    },
    {
      "Input": "m",
      "Context": null,
      "Replacement": "സ",
      "AltGr": false
    },
    {
      "Input": "\\<",
      "Context": null,
      "Replacement": "ഷ",
      "AltGr": false
    },
    {
      "Input": ",",
      "Context": null,
      "Replacement": ",",
      "AltGr": false
    },
    {
      "Input": "\\>",
      "Context": null,
      "Replacement": "ൽ",
      "AltGr": false
    },
    {
      "Input": "\\.",
      "Context": null,
      "Replacement": ".",
      "AltGr": false
    },
    {
      "Input": "/",
      "Context": null,
      "Replacement": "യ",
      "AltGr": false
    }
  ]
}