{
  "Id": "or-transliteration",
  "Name": "Odiya Transliteration",
  "Author": "Junaid P V and Subhashish Panigrahi",
  "Description": "Odiya transliteration",
  "Version": "1.0",
  "MaxKeyLength": 2,
  "ContextLength": 4,
  "Patterns": [
    {
      "Input": "\\\\([A-Za-z\\>_~\\.0-9])",
      "Context": "\\\\",
      "Replacement": "$1",
      "AltGr": false
    },
    {
      "Input": "ଞ୍ଜ୍h",
      "Context": null,
      "Replacement": "ଞ୍ଝ୍",
      "AltGr": false
    },
    {
      "Input": "ଙ୍ଗ୍h",
      "Context": null,
      "Replacement": "ଙ୍ଘ୍",
      "AltGr": false
    },
    {
      "Input": "([କ-ହୟ])୍a",
      "Context": null,
      "Replacement": "$1",
      "AltGr": false
    },
    {
      "Input": "([କ-ହୟ])(a|୍A)",
      "Context": null,
      "Replacement": "$1ା",
      "AltGr": false
    },
    {
      "Input": "([କ-ହୟ])୍i",
      "Context": null,
      "Replacement": "$1ି",
      "AltGr": false
    },
    {
      "Input": "([କ-ହୟ])୍I",
      "Context": null,
      "Replacement": "$1ୀ",
      "AltGr": false
    },
    {
      "Input": "([କ-ହୟ])୍u",
      "Context": null,
      "Replacement": "$1ୁ",
      "AltGr": false
    },
    {
      "Input": "([କ-ହୟ])(୍U|ୁu)",
      "Context": null,
      "Replacement": "$1ୂ",
      "AltGr": false
    },
    {
      "Input": "([କ-ହୟ])୍R",
      "Context": null,
      "Replacement": "$1ୃ",
      "AltGr": false
    },
    {
      "Input": "([କ-ହୟ])ୃR",
      "Context": null,
      "Replacement": "$1ୄ",
      "AltGr": false
    },
    {
      "Input": "([କ-ହୟ])୍ଳ୍l",
      "Context": null,
      "Replacement": "$1ୢ",
      "AltGr": false
    },
    {
      "Input": "([କ-ହୟ])ୢl",
      "Context": null,
      "Replacement": "$1ୣ",
      "AltGr": false
    },
    {
      "Input": "([କ-ହୟ])୍e",
      "Context": null,
      "Replacement": "$1େ",
      "AltGr": false
    },
    {
      "Input": "([କ-ହୟ])i",
      "Context": null,
      "Replacement": "$1ୈ",
      "AltGr": false
    },
    {
      "Input": "([କ-ହୟ])୍o",
      "Context": null,
      "Replacement": "$1ୋ",
      "AltGr": false
    },
    {
      "Input": "([କ-ହୟ])ୋu",
      "Context": null,
      "Replacement": "$1ୌ",
      "AltGr": false
    },
    {
      "Input": "([କ-ହୟ])୍E",
      "Context": null,
      "Replacement": "$1ୈ",
      "AltGr": false
    },
    {
      "Input": "ଅa",
      "Context": null,
      "Replacement": "ଆ",
      "AltGr": false
    },
    {
      "Input": "(ଅi|ଏe)",
      "Context": null,
      "Replacement": "ଐ",
      "AltGr": false
    },
    {
      "Input": "(ଅu|ଓo|ଓO)",
      "Context": null,
      "Replacement": "ଔ",
      "AltGr": false
    },
    {
      "Input": "ଋR",
      "Context": null,
      "Replacement": "ୠ",
      "AltGr": false
    },
    {
      "Input": "ଳ୍l",
      "Context": null,
      "Replacement": "ଌ",
      "AltGr": false
    },
    {
      "Input": "ଌl",
      "Context": null,
      "Replacement": "ୡ",
      "AltGr": false
    },
    {
      "Input": "ଞ୍ଚ୍h",
      "Context": null,
      "Replacement": "ଞ୍ଛ୍",
      "AltGr": false
    },
    {
      "Input": "ଣ୍G",
      "Context": null,
      "Replacement": "ଙ୍",
      "AltGr": false
    },
    {
      "Input": "ଣ୍g",
      "Context": null,
      "Replacement": "ଞ୍",
      "AltGr": false
    },
    {
      "Input": "କ୍h",
      "Context": null,
      "Replacement": "ଖ୍",
      "AltGr": false
    },
    {
      "Input": "ଗ୍h",
      "Context": null,
      "Replacement": "ଘ୍",
      "AltGr": false
    },
    {
      "Input": "ନ୍c",
      "Context": null,
      "Replacement": "ଞ୍ଚ୍",
      "AltGr": false
    },
    {
      "Input": "ନ୍g",
      "Context": null,
      "Replacement": "ଙ୍ଗ୍",
      "AltGr": false
    },
    {
      "Input": "ଚ୍h",
      "Context": null,
      "Replacement": "ଛ୍",
      "AltGr": false
    },
    {
      "Input": "ଜ୍h",
      "Context": null,
      "Replacement": "ଝ୍",
      "AltGr": false
    },
    {
      "Input": "ନ୍j",
      "Context": null,
      "Replacement": "ଞ୍ଜ୍",
      "AltGr": false
    },
    {
      "Input": "ନ୍k",
      "Context": null,
      "Replacement": "ଙ୍କ୍",
      "AltGr": false
    },
    {
      "Input": "ଟ୍h",
      "Context": null,
      "Replacement": "ଠ୍",
      "AltGr": false
    },
    {
      "Input": "ଡ୍h",
      "Context": null,
      "Replacement": "ଢ୍",
      "AltGr": false
    },
    {
      "Input": "ତ୍h",
      "Context": null,
      "Replacement": "ଥ୍",
      "AltGr": false
    },
    {
      "Input": "ଦ୍h",
      "Context": null,
      "Replacement": "ଧ୍",
      "AltGr": false
    },
    {
      "Input": "ପ୍h",
      "Context": null,
      "Replacement": "ଫ୍",
      "AltGr": false
    },
    {
      "Input": "ବ୍h",
      "Context": null,
      "Replacement": "ଭ୍",
      "AltGr": false
    },
    {
      "Input": "ସ୍h",
      "Context": null,
      "Replacement": "ଷ୍",
      "AltGr": false
    },
    {
      "Input": "।Z",
      "Context": null,
      "Replacement": "॥",
      "AltGr": false
    },
    {
      "Input": "ଆ\\\\",
      "Context": null,
      "Replacement": "ା",
      "AltGr": false
    },
    {
      "Input": "ଇ\\\\",
      "Context": null,
      "Replacement": "ି",
      "AltGr": false
    },
    {
      "Input": "ଈ\\\\",
      "Context": null,
      "Replacement": "ୀ",
      "AltGr": false
    },
    {
      "Input": "ଉ\\\\",
      "Context": null,
      "Replacement": "ୁ",
      "AltGr": false
    },
    {
      "Input": "ଉ\\\\",
      "Context": null,
      "Replacement": "ୂ",
      "AltGr": false
    },
    {
      "Input": "ଋ\\\\",
      "Context": null,
      "Replacement": "ୃ",
      "AltGr": false
    },
    {
      "Input": "ୠ\\\\",
      "Context": null,
      "Replacement": "ୄ",
      "AltGr": false
    },
    {
      "Input": "ଌ\\\\",
      "Context": null,
      "Replacement": "ୢ",
      "AltGr": false
    },
    {
      "Input": "ୡ\\\\",
      "Context": null,
      "Replacement": "ୣ",
      "AltGr": false
    },
    {
      "Input": "ଏ\\\\",
      "Context": null,
      "Replacement": "େ",
      "AltGr": false
    },
    {
      "Input": "ଐ\\\\",
      "Context": null,
      "Replacement": "ୈ",
      "AltGr": false
    },
    {
      "Input": "ଓ\\\\",
      "Context": null,
      "Replacement": "ୋ",
      "AltGr": false
    },
    {
      "Input": "ଔ\\\\",
      "Context": null,
      "Replacement": "ୌ",
      "AltGr": false
    },
    {
      "Input": "‌?a",
      "Context": null,
      "Replacement": "ଅ",
      "AltGr": false
    },
    {
      "Input": "b",
      "Context": null,
      "Replacement": "ବ୍",
      "AltGr": false
    },
    {
      "Input": "c",
      "Context": "",
      "Replacement": "ଚ୍",
      "AltGr": false
    },
    {
      "Input": "d",
      "Context": null,
      "Replacement": "ଦ୍",
      "AltGr": false
    },
    {
      "Input": "‌?e",
      "Context": null,
      "Replacement": "ଏ",
      "AltGr": false
    },
    {
      "Input": "f",
      "Context": null,
      "Replacement": "ଫ୍",
      "AltGr": false
    },
    {
      "Input": "g",
      "Context": null,
      "Replacement": "ଗ୍",
      "AltGr": false
    },
    {
      "Input": "h",
      "Context": null,
      "Replacement": "ହ୍",
      "AltGr": false
    },
    {
      "Input": "‌?i",
      "Context": null,
      "Replacement": "ଇ",
      "AltGr": false
    },
    {
      "Input": "j",
      "Context": null,
      "Replacement": "ଜ୍",
      "AltGr": false
    },
    {
      "Input": "k",
      "Context": null,
      "Replacement": "କ୍",
      "AltGr": false
    },
    {
      "Input": "l",
      "Context": null,
      "Replacement": "ଲ୍",
      "AltGr": false
    },
    {
      "Input": "m",
      "Context": null,
      "Replacement": "ମ୍",
      "AltGr": false
    },
    {
      "Input": "n",
      "Context": null,
      "Replacement": "ନ୍",
      "AltGr": false
    },
    {
      "Input": "‌?o",
      "Context": null,
      "Replacement": "ଓ",
      "AltGr": false
    },
    {
      "Input": "p",
      "Context": null,
      "Replacement": "ପ୍",
      "AltGr": false
    },
    {
      "Input": "q",
      "Context": null,
      "Replacement": "ଜ୍ଞ୍",
      "AltGr": false
    },
    {
      "Input": "r",
      "Context": null,
      "Replacement": "ର୍",
      "AltGr": false
    },
    {
      "Input": "s",
      "Context": null,
      "Replacement": "ସ୍",
      "AltGr": false
    },
    {
      "Input": "t",
      "Context": null,
      "Replacement": "ତ୍",
      "AltGr": false
    },
    {
      "Input": "‌?u",
      "Context": null,
      "Replacement": "ଉ",
      "AltGr": false
    },
    {
      "Input": "v",
      "Context": null,
      "Replacement": "ୱ୍",
      "AltGr": false
    },
    {
      "Input": "w",
      "Context": null,
      "Replacement": "ଵ୍",
      "AltGr": false
    },
    {
      "Input": "x",
      "Context": null,
      "Replacement": "କ୍ଷ୍",
      "AltGr": false
    },
    {
      "Input": "y",
      "Context": null,
      "Replacement": "ୟ୍",
      "AltGr": false
    },
    {
      "Input": "z",
      "Context": null,
      "Replacement": "଼",
      "AltGr": false
    },
    {
      "Input": "‌?A",
      "Context": null,
      "Replacement": "ଆ",
      "AltGr": false
    },
    {
      "Input": "B",
      "Context": null,
      "Replacement": "ବ୍",
      "AltGr": false
    },
    {
      "Input": "C",
      "Context": null,
      "Replacement": "ଛ୍",
      "AltGr": false
    },
    {
      "Input": "D",
      "Context": null,
      "Replacement": "ଡ୍",
      "AltGr": false
    },
    {
      "Input": "‌?E",
      "Context": null,
      "Replacement": "ଐ",
      "AltGr": false
    },
    {
      "Input": "F",
      "Context": null,
      "Replacement": "ଫ୍",
      "AltGr": false
    },
    {
      "Input": "G",
      "Context": null,
      "Replacement": "ଗ୍",
      "AltGr": false
    },
    {
      "Input": "H",
      "Context": "",
      "Replacement": "ଃ",
      "AltGr": false
    },
    {
      "Input": "‌?I",
      "Context": null,
      "Replacement": "ଈ",
      "AltGr": false
    },
    {
      "Input": "J",
      "Context": null,
      "Replacement": "ଝ୍",
      "AltGr": false
    },
    {
      "Input": "K",
      "Context": null,
      "Replacement": "କ୍",
      "AltGr": false
    },
    {
      "Input": "L",
      "Context": null,
      "Replacement": "ଳ୍",
      "AltGr": false
    },
    {
      "Input": "M",
      "Context": "",
      "Replacement": "ଂ",
      "AltGr": false
    },
    {
      "Input": "N",
      "Context": null,
      "Replacement": "ଣ୍",
      "AltGr": false
    },
    {
      "Input": "‌?O",
      "Context": null,
      "Replacement": "ଔ",
      "AltGr": false
    },
    {
      "Input": "P",
      "Context": null,
      "Replacement": "ଫ୍",
      "AltGr": false
    },
    {
      "Input": "Q",
      "Context": null,
      "Replacement": "ଜ୍ଞ୍",
      "AltGr": false
    },
    {
      "Input": "R",
      "Context": null,
      "Replacement": "ଋ",
      "AltGr": false
    },
    {
      "Input": "S",
      "Context": null,
      "Replacement": "ଶ୍",
      "AltGr": false
    },
    {
      "Input": "T",
      "Context": null,
      "Replacement": "ଟ୍",
      "AltGr": false
    },
    {
      "Input": "‌?U",
      "Context": null,
      "Replacement": "ଊ",
      "AltGr": false
    },
    {
      "Input": "V",
      "Context": null,
      "Replacement": "ଵ୍",
      "AltGr": false
    },
    {
      "Input": "W",
      "Context": null,
      "Replacement": "ଵ୍ଵ୍",
      "AltGr": false
    },
    {
      "Input": "X",
      "Context": null,
      "Replacement": "ଁ",
      "AltGr": false
    },
    {
      "Input": "Y",
      "Context": null,
      "Replacement": "ଯ୍",
      "AltGr": false
    },
    {
      "Input": "Z",
      "Context": null,
      "Replacement": "।",
      "AltGr": false
    },
    {
      "Input": "\\~",
      "Context": "",
      "Replacement": "୍",
      "AltGr": false
    },
    {
      "Input": "//",
      "Context": null,
      "Replacement": "ଽ",
      "AltGr": false
    },
    {
      "Input": "_",
      "Context": null,
      "Replacement": "‌",
      "AltGr": false
    },
    {
      "Input": "0",
      "Context": null,
      "Replacement": "୦",
      "AltGr": false
    },
    {
      "Input": "1",
      "Context": null,
      "Replacement": "୧",
      "AltGr": false
    },
    {
      "Input": "2",
      "Context": null,
      "Replacement": "୨",
      "AltGr": false
    },
    {
      "Input": "3",
      "Context": null,
      "Replacement": "୩",
      "AltGr": false
    },
    {
      "Input": "4",
      "Context": null,
      "Replacement": "୪",
      "AltGr": false
    },
    {
      "Input": "5",
      "Context": null,
      "Replacement": "୫",
      "AltGr": false
    },
    {
      "Input": "6",
      "Context": null,
      "Replacement": "୬",
      "AltGr": false
    },
    {
      "Input": "7",
      "Context": null,
      "Replacement": "୭",
      "AltGr": false
    },
    {
      "Input": "8",
      "Context": null,
      "Replacement": "୮",
      "AltGr": false
    },
    {
      "Input": "9",
      "Context": null,
      "Replacement": "୯",
      "AltGr": false
    }
  ]
}