{
  "Id": "sa-inscript2",
  "Name": "संस्कृत इनस्क्रिप्ट २",
  "Author": "Parag Nemade",
  "Description": "Enhanced InScript keyboard for Sanskrit language",
  "Version": "1.0",
  "MaxKeyLength": 1,
  "ContextLength": 0,
  "Patterns": [
    {
      "Input": "1",
      "Context": null,
      "Replacement": "‍",
      "AltGr": true
    },
    {
      "Input": "2",
      "Context": null,
      "Replacement": "‌",
      "AltGr": true
    },
    {
      "Input": "4",
      "Context": null,
      "Replacement": "₹",
      "AltGr": true
    },
    {
      "Input": "e",
      "Context": null,
      "Replacement": "॑",
      "AltGr": true
    },
    {
      "Input": "R",
      "Context": null,
      "Replacement": "ॡ",
      "AltGr": true
    },
    {
      "Input": "r",
      "Context": null,
      "Replacement": "ॣ",
      "AltGr": true
    },
    {
      "Input": "d",
      "Context": null,
      "Replacement": "॒",
      "AltGr": true
    },
    {
      "Input": "F",
      "Context": null,
      "Replacement": "ऌ",
      "AltGr": true
    },
    {
      "Input": "f",
      "Context": null,
      "Replacement": "ॢ",
      "AltGr": true
    },
    {
      "Input": "H",
      "Context": null,
      "Replacement": "फ़",
      "AltGr": true
    },
    {
      "Input": "X",
      "Context": null,
      "Replacement": "ॐ",
      "AltGr": true
    },
    {
      "Input": "\\>",
      "Context": null,
      "Replacement": "ऽ",
      "AltGr": true
    },
    {
      "Input": "\\.",
      "Context": null,
      "Replacement": "॥",
      "AltGr": true
    },
    {
      "Input": "1",
      "Context": null,
      "Replacement": "१",
      "AltGr": false
    },
    {
      "Input": "\\@",
      "Context": null,
      "Replacement": "ॅ",
      "AltGr": false
    },
    {
      "Input": "2",
      "Context": null,
      "Replacement": "२",
      "AltGr": false
    },
    {
      "Input": "\\#",
      "Context": null,
      "Replacement": "्र",
      "AltGr": false
    },
    {
      "Input": "3",
      "Context": null,
      "Replacement": "३",
      "AltGr": false
    },
    {
      "Input": "\\$",
      "Context": null,
      "Replacement": "र्",
      "AltGr": false
    },
    {
      "Input": "4",
      "Context": null,
      "Replacement": "४",
      "AltGr": false
    },
    {
      "Input": "5",
      "Context": null,
      "Replacement": "५",
      "AltGr": false
    },
    {
      "Input": "6",
      "Context": null,
      "Replacement": "६",
      "AltGr": false
    },
    {
      "Input": "7",
      "Context": null,
      "Replacement": "७",
      "AltGr": false
    },
    {
      "Input": "8",
      "Context": null,
      "Replacement": "८",
      "AltGr": false
    },
    {
      "Input": "\\(",
      "Context": null,
      "Replacement": "(",
      "AltGr": false
    },
    {
      "Input": "9",
      "Context": null,
      "Replacement": "९",
      "AltGr": false
    },
    {
      "Input": "\\]",
      "Context": null,
      "Replacement": "]",
      "AltGr": false
    },
    {
      "Input": "0",
      "Context": null,
      "Replacement": "०",
      "AltGr": false
    },
    {
      "Input": "\\_",
      "Context": null,
      "Replacement": "ः",
      "AltGr": false
    },
    {
      "Input": "\\-",
      "Context": null,
      "Replacement": "-",
      "AltGr": false
    },
    {
      "Input": "\\+",
      "Context": null,
      "Replacement": "ऋ",
      "AltGr": false
    },
    {
      "Input": "\\=",
      "Context": null,
      "Replacement": "ृ",
      "AltGr": false
    },
    {
      "Input": "Q",
      "Context": null,
      "Replacement": "औ",
      "AltGr": false
    },
    {
      "Input": "q",
      "Context": null,
      "Replacement": "ौ",
      "AltGr": false
    },
    {
      "Input": "W",
      "Context": null,
      "Replacement": "ऐ",
      "AltGr": false
    },
    {
      "Input": "w",
      "Context": null,
      "Replacement": "ै",
      "AltGr": false
    },
    {
      "Input": "E",
      "Context": null,
      "Replacement": "आ",
      "AltGr": false
    },
    {
      "Input": "e",
      "Context": null,
      "Replacement": "ा",
      "AltGr": false
    },
    {
      "Input": "R",
      "Context": null,
      "Replacement": "ई",
      "AltGr": false
    },
    {
      "Input": "r",
      "Context": null,
      "Replacement": "ी",
      "AltGr": false
    },
    {
      "Input": "T",
      "Context": null,
      "Replacement": "ऊ",
      "AltGr": false
    },
    {
      "Input": "t",
      "Context": null,
      "Replacement": "ू",
      "AltGr": false
    },
    {
      "Input": "Y",
      "Context": null,
      "Replacement": "भ",
      "AltGr": false
    },
    {
      "Input": "y",
      "Context": null,
      "Replacement": "ब",
      "AltGr": false
    },
    {
      "Input": "U",
      "Context": null,
      "Replacement": "ङ",
      "AltGr": false
    },
    {
      "Input": "u",
      "Context": null,
      "Replacement": "ह",
      "AltGr": false
    },
    {
      "Input": "I",
      "Context": null,
      "Replacement": "घ",
      "AltGr": false
    },
    {
      "Input": "i",
      "Context": null,
      "Replacement": "ग",
      "AltGr": false
    },
    {
      "Input": "O",
      "Context": null,
      "Replacement": "ध",
      "AltGr": false
    },
    {
      "Input": "o",
      "Context": null,
      "Replacement": "द",
      "AltGr": false
    },
    {
      "Input": "P",
      "Context": null,
      "Replacement": "झ",
      "AltGr": false
    },
    {
      "Input": "p",
      "Context": null,
      "Replacement": "ज",
      "AltGr": false
    },
    {
      "Input": "\\{",
      "Context": null,
      "Replacement": "ढ",
      "AltGr": false
    },
    {
      "Input": "\\[",
      "Context": null,
      "Replacement": "ड",
      "AltGr": false
    },
    {
      "Input": "\\}",
      "Context": null,
      "Replacement": "ञ",
      "AltGr": false
    },
    {
      "Input": "\\]",
      "Context": null,
      "Replacement": "़",
      "AltGr": false
    },
    {
      "Input": "\\|",
      "Context": null,
      "Replacement": "ॠ",
      "AltGr": false
    },
    {
      "Input": "\\\\",
      "Context": null,
      "Replacement": "ॄ",
      "AltGr": false
    },
    {
      "Input": "A",
      "Context": null,
      "Replacement": "ओ",
      "AltGr": false
    },
    {
      "Input": "a",
      "Context": null,
      "Replacement": "ो",
      "AltGr": false
    },
    {
      "Input": "S",
      "Context": null,
      "Replacement": "ए",
      "AltGr": false
    },
    {
      "Input": "s",
      "Context": null,
      "Replacement": "े",
      "AltGr": false
    },
    {
      "Input": "D",
      "Context": null,
      "Replacement": "अ",
      "AltGr": false
    },
    {
      "Input": "d",
      "Context": null,
      "Replacement": "्",
      "AltGr": false
    },
    {
      "Input": "F",
      "Context": null,
      "Replacement": "इ",
      "AltGr": false
    },
    {
      "Input": "f",
      "Context": null,
      "Replacement": "ि",
      "AltGr": false
    },
    {
      "Input": "G",
      "Context": null,
      "Replacement": "उ",
      "AltGr": false
    },
    {
      "Input": "g",
      "Context": null,
      "Replacement": "ु",
      "AltGr": false
    },
    {
      "Input": "H",
      "Context": null,
      "Replacement": "फ",
      "AltGr": false
    },
    {
      "Input": "h",
      "Context": null,
      "Replacement": "प",
      "AltGr": false
    },
    {
      "Input": "j",
      "Context": null,
      "Replacement": "र",
      "AltGr": false
    },
    {
      "Input": "K",
      "Context": null,
      "Replacement": "ख",
      "AltGr": false
    },
    {
      "Input": "k",
      "Context": null,
      "Replacement": "क",
      "AltGr": false
    },
    {
      "Input": "L",
      "Context": null,
      "Replacement": "थ",
      "AltGr": false
    },
    {
      "Input": "l",
      "Context": null,
      "Replacement": "त",
      "AltGr": false
    },
    {
      "Input": ":",
      "Context": null,
      "Replacement": "छ",
      "AltGr": false
    },
    {
      "Input": ";",
      "Context": null,
      "Replacement": "च",
      "AltGr": false
    },
    {
      "Input": "\"",
      "Context": null,
      "Replacement": "ठ",
      "AltGr": false
    },
    {
      "Input": "\\'",
      "Context": null,
      "Replacement": "ट",
      "AltGr": false
    },
    {
      "Input": "X",
      "Context": null,
      "Replacement": "ँ",
      "AltGr": false
    },
    {
      "Input": "x",
      "Context": null,
      "Replacement": "ं",
      "AltGr": false
    },
    {
      "Input": "C",
      "Context": null,
      "Replacement": "ण",
      "AltGr": false
    },
    {
      "Input": "c",
      "Context": null,
      "Replacement": "म",
      "AltGr": false
    },
    {
      "Input": "v",
      "Context": null,
      "Replacement": "न",
      "AltGr": false
    },
    {
      "Input": "b",
      "Context": null,
      "Replacement": "व",
      "AltGr": false
    },
    {
      "Input": "N",
      "Context": null,
      "Replacement": "ळ",
      "AltGr": false
    },
    {
      "Input": "n",
      "Context": null,
      "Replacement": "ल",
      "AltGr": false
    },
    {
      "Input": "M",
      "Context": null,
      "Replacement": "श",
      "AltGr": false
    },
    {
      "Input": "m",
      "Context": null,
      "Replacement": "स",
      "AltGr": false
    },
    {
      "Input": "\\<",
      "Context": null,
      "Replacement": "ष",
      "AltGr": false
    },
    {
      "Input": ",",
      "Context": null,
      "Replacement": ",",
      "AltGr": false
    },
    {
      "Input": "\\>",
      "Context": null,
      "Replacement": "।",
      "AltGr": false
    },
    {
      "Input": "\\.",
      "Context": null,
      "Replacement": ".",
      "AltGr": false
    },
    {
      "Input": "/",
      "Context": null,
      "Replacement": "य",
      "AltGr": false
    },
    {
      "Input": "\\%",
      "Context": null,
      "Replacement": "ज्ञ",
      "AltGr": false
    },
    {
      "Input": "\\^",
      "Context": null,
      "Replacement": "त्र",
      "AltGr": false
    },
    {
      "Input": "\\&",
      "Context": null,
      "Replacement": "क्ष",
      "AltGr": false
    },
    {
      "Input": "\\*",
      "Context": null,
      "Replacement": "श्र",
      "AltGr": false
    }
  ]
}