{
  "Id": "th-kedmanee",
  "Name": "Thai Kedmanee",
  "Author": "Kevin K.S. Leung, <sprconan@gmail.com>",
  "Description": "Thai Kedmanee Input Method",
  "Version": "1.0",
  "MaxKeyLength": 1,
  "ContextLength": 0,
  "Patterns": [
    {
      "Input": "Q",
      "Context": null,
      "Replacement": "๐",
      "AltGr": false
    },
    {
      "Input": "W",
      "Context": null,
      "Replacement": "\"",
      "AltGr": false
    },
    {
      "Input": "E",
      "Context": null,
      "Replacement": "ฎ",
      "AltGr": false
    },
    {
      "Input": "R",
      "Context": null,
      "Replacement": "ฑ",
      "AltGr": false
    },
    {
      "Input": "T",
      "Context": null,
      "Replacement": "ธ",
      "AltGr": false
    },
    {
      "Input": "Y",
      "Context": null,
      "Replacement": "ํ",
      "AltGr": false
    },
    {
      "Input": "U",
      "Context": null,
      "Replacement": "๊",
      "AltGr": false
    },
    {
      "Input": "I",
      "Context": null,
      "Replacement": "ณ",
      "AltGr": false
    },
    {
      "Input": "O",
      "Context": null,
      "Replacement": "ฯ",
      "AltGr": false
    },
    {
      "Input": "P",
      "Context": null,
      "Replacement": "ญ",
      "AltGr": false
    },
    {
      "Input": "{",
      "Context": null,
      "Replacement": "ฐ",
      "AltGr": false
    },
    {
      "Input": "}",
      "Context": null,
      "Replacement": ",",
      "AltGr": false
    },
    {
      "Input": "\\|",
      "Context": null,
      "Replacement": "ฅ",
      "AltGr": false
    },
    {
      "Input": "A",
      "Context": null,
      "Replacement": "ฤ",
      "AltGr": false
    },
    {
      "Input": "S",
      "Context": null,
      "Replacement": "ฆ",
      "AltGr": false
    },
    {
      "Input": "D",
      "Context": null,
      "Replacement": "ฏ",
      "AltGr": false
    },
    {
      "Input": "F",
      "Context": null,
      "Replacement": "โ",
      "AltGr": false
    },
    {
      "Input": "G",
      "Context": null,
      "Replacement": "ฌ",
      "AltGr": false
    },
    {
      "Input": "H",
      "Context": null,
      "Replacement": "็",
      "AltGr": false
    },
    {
      "Input": "J",
      "Context": null,
      "Replacement": "๋",
      "AltGr": false
    },
    {
      "Input": "K",
      "Context": null,
      "Replacement": "ษ",
      "AltGr": false
    },
    {
      "Input": "L",
      "Context": null,
      "Replacement": "ศ",
      "AltGr": false
    },
    {
      "Input": ":",
      "Context": null,
      "Replacement": "ซ",
      "AltGr": false
    },
    {
      "Input": "\"",
      "Context": null,
      "Replacement": ".",
      "AltGr": false
    },
    {
      "Input": "Z",
      "Context": null,
      "Replacement": "(",
      "AltGr": false
    },
    {
      "Input": "X",
      "Context": null,
      "Replacement": ")",
      "AltGr": false
    },
    {
      "Input": "C",
      "Context": null,
      "Replacement": "ฉ",
      "AltGr": false
    },
    {
      "Input": "V",
      "Context": null,
      "Replacement": "ฮ",
      "AltGr": false
    },
    {
      "Input": "B",
      "Context": null,
      "Replacement": "ฺ",
      "AltGr": false
    },
    {
      "Input": "N",
      "Context": null,
      "Replacement": "์",
      "AltGr": false
    },
    {
      "Input": "M",
      "Context": null,
      "Replacement": "?",
      "AltGr": false
    },
    {
      "Input": "<",
      "Context": null,
      "Replacement": "ฒ",
      "AltGr": false
    },
    {
      "Input": ">",
      "Context": null,
      "Replacement": "ฬ",
      "AltGr": false
    },
    {
      "Input": "\\?",
      "Context": null,
      "Replacement": "ฦ",
      "AltGr": false
    },
    {
      "Input": "q",
      "Context": null,
      "Replacement": "ๆ",
      "AltGr": false
    },
    {
      "Input": "w",
      "Context": null,
      "Replacement": "ไ",
      "AltGr": false
    },
    {
      "Input": "e",
      "Context": null,
      "Replacement": "ำ",
      "AltGr": false
    },
    {
      "Input": "r",
      "Context": null,
      "Replacement": "พ",
      "AltGr": false
    },
    {
      "Input": "t",
      "Context": null,
      "Replacement": "ะ",
      "AltGr": false
    },
    {
      "Input": "y",
      "Context": null,
      "Replacement": "ั",
      "AltGr": false
    },
    {
      "Input": "u",
      "Context": null,
      "Replacement": "ี",
      "AltGr": false
    },
    {
      "Input": "i",
      "Context": null,
      "Replacement": "ร",
      "AltGr": false
    },
    {
      "Input": "o",
      "Context": null,
      "Replacement": "น",
      "AltGr": false
    },
    {
      "Input": "p",
      "Context": null,
      "Replacement": "ย",
      "AltGr": false
    },
    {
      "Input": "\\[",
      "Context": null,
      "Replacement": "บ",
      "AltGr": false
    },
    {
      "Input": "\\]",
      "Context": null,
      "Replacement": "ล",
      "AltGr": false
    },
    {
      "Input": "\\\\",
      "Context": null,
      "Replacement": "ฃ",
      "AltGr": false
    },
    {
      "Input": "a",
      "Context": null,
      "Replacement": "ฟ",
      "AltGr": false
    },
    {
      "Input": "s",
      "Context": null,
      "Replacement": "ห",
      "AltGr": false
    },
    {
      "Input": "d",
      "Context": null,
      "Replacement": "ก",
      "AltGr": false
    },
    {
      "Input": "f",
      "Context": null,
      "Replacement": "ด",
      "AltGr": false
    },
    {
      "Input": "g",
      "Context": null,
      "Replacement": "เ",
      "AltGr": false
    },
    {
      "Input": "h",
      "Context": null,
      "Replacement": "้",
      "AltGr": false
    },
    {
      "Input": "j",
      "Context": null,
      "Replacement": "่",
      "AltGr": false
    },
    {
      "Input": "k",
      "Context": null,
      "Replacement": "า",
      "AltGr": false
    },
    {
      "Input": "l",
      "Context": null,
      "Replacement": "ส",
      "AltGr": false
    },
    {
      "Input": ";",
      "Context": null,
      "Replacement": "ว",
      "AltGr": false
    },
    {
      "Input": "'",
      "Context": null,
      "Replacement": "ง",
      "AltGr": false
    },
    {
      "Input": "z",
      "Context": null,
      "Replacement": "ผ",
      "AltGr": false
    },
    {
      "Input": "x",
      "Context": null,
      "Replacement": "ป",
      "AltGr": false
    },
    {
      "Input": "c",
      "Context": null,
      "Replacement": "แ",
      "AltGr": false
    },
    {
      "Input": "v",
      "Context": null,
      "Replacement": "อ",
      "AltGr": false
    },
    {
      "Input": "b",
      "Context": null,
      "Replacement": "ิ",
      "AltGr": false
    },
    {
      "Input": "n",
      "Context": null,
      "Replacement": "ื",
      "AltGr": false
    },
    {
      "Input": "m",
      "Context": null,
      "Replacement": "ท",
      "AltGr": false
    },
    {
      "Input": ",",
      "Context": null,
      "Replacement": "ม",
      "AltGr": false
    },
    {
      "Input": "\\.",
      "Context": null,
      "Replacement": "ใ",
      "AltGr": false
    },
    {
      "Input": "/",
      "Context": null,
      "Replacement": "ฝ",
      "AltGr": false
    },
    {
      "Input": "`",
      "Context": null,
      "Replacement": "_",
      "AltGr": false
    },
    {
      "Input": "1",
      "Context": null,
      "Replacement": "ๅ",
      "AltGr": false
    },
    {
      "Input": "2",
      "Context": null,
      "Replacement": "/",
      "AltGr": false
    },
    {
      "Input": "3",
      "Context": null,
      "Replacement": "-",
      "AltGr": false
    },
    {
      "Input": "4",
      "Context": null,
      "Replacement": "ภ",
      "AltGr": false
    },
    {
      "Input": "5",
      "Context": null,
      "Replacement": "ถ",
      "AltGr": false
    },
    {
      "Input": "6",
      "Context": null,
      "Replacement": "ุ",
      "AltGr": false
    },
    {
      "Input": "7",
      "Context": null,
      "Replacement": "ึ",
      "AltGr": false
    },
    {
      "Input": "8",
      "Context": null,
      "Replacement": "ค",
      "AltGr": false
    },
    {
      "Input": "9",
      "Context": null,
      "Replacement": "ต",
      "AltGr": false
    },
    {
      "Input": "0",
      "Context": null,
      "Replacement": "จ",
      "AltGr": false
    },
    {
      "Input": "\\-",
      "Context": null,
      "Replacement": "ข",
      "AltGr": false
    },
    {
      "Input": "=",
      "Context": null,
      "Replacement": "ช",
      "AltGr": false
    },
    {
      "Input": "~",
      "Context": null,
      "Replacement": "%",
      "AltGr": false
    },
    {
      "Input": "!",
      "Context": null,
      "Replacement": "+",
      "AltGr": false
    },
    {
      "Input": "@",
      "Context": null,
      "Replacement": "๑",
      "AltGr": false
    },
    {
      "Input": "#",
      "Context": null,
      "Replacement": "๒",
      "AltGr": false
    },
    {
      "Input": "\\$",
      "Context": null,
      "Replacement": "๓",
      "AltGr": false
    },
    {
      "Input": "%",
      "Context": null,
      "Replacement": "๔",
      "AltGr": false
    },
    {
      "Input": "\\^",
      "Context": null,
      "Replacement": "ู",
      "AltGr": false
    },
    {
      "Input": "&",
      "Context": null,
      "Replacement": "฿",
      "AltGr": false
    },
    {
      "Input": "\\*",
      "Context": null,
      "Replacement": "๕",
      "AltGr": false
    },
    {
      "Input": "\\(",
      "Context": null,
      "Replacement": "๖",
      "AltGr": false
    },
    {
      "Input": "\\)",
      "Context": null,
      "Replacement": "๗",
      "AltGr": false
    },
    {
      "Input": "_",
      "Context": null,
      "Replacement": "๘",
      "AltGr": false
    },
    {
      "Input": "\\+",
      "Context": null,
      "Replacement": "๙",
      "AltGr": false
    }
  ]
}