{
  "Description": "Belarusian Łacinka test",
  "Transliteration": "be-latin",
  "Multiline": false,
  "Transliterates": [
    {
      "Input": "=c",
      "Output": "č",
      "Description": "Belarusian Łacinka - =c -> č",
      "AltGr": false
    },
    {
      "Input": "-n",
      "Output": "ń",
      "Description": "Belarusian Łacinka - -n -> ń",
      "AltGr": false
    },
    {
      "Input": "=u",
      "Output": "ŭ",
      "Description": "Belarusian Łacinka - =u -> ŭ",
      "AltGr": false
    },
    {
      "Input": "-l",
      "Output": "ł",
      "Description": "Belarusian Łacinka - -l -> ł",
      "AltGr": false
    }
  ]
}