{
  "Description": "Gujarati Transliteration",
  "Transliteration": "gu-transliteration",
  "Multiline": false,
  "Transliterates": [
    {
      "Input": "~",
      "Output": "~",
      "Description": "Gujarati - tilde must not change",
      "AltGr": false
    },
    {
      "Input": "hiMmata",
      "Output": "હિંમત",
      "Description": "Gujarati hiMmata",
      "AltGr": false
    },
    {
      "Input": "aM^bara",
      "Output": "અઁબર",
      "Description": "Gujarati aM^bara - testing candrabindu",
      "AltGr": false
    },
    {
      "Input": "_",
      "Output": "_",
      "Description": "Gujarati - underscore must not change",
      "AltGr": false
    },
    {
      "Input": "oM",
      "Output": "ઓં",
      "Description": "Gujarati oM",
      "AltGr": false
    },
    {
      "Input": "OM",
      "Output": "ૐ",
      "Description": "Gujarati OM",
      "AltGr": false
    },
    {
      "Input": "K",
      "Output": "।",
      "Description": "Gujarati K - testing danda",
      "AltGr": false
    },
    {
      "Input": "KK",
      "Output": "॥",
      "Description": "Gujarati KK - testing double danda",
      "AltGr": false
    },
    {
      "Input": "ai",
      "Output": "ઐ",
      "Description": "Gujarati ai",
      "AltGr": false
    },
    {
      "Input": "eka",
      "Output": "એક",
      "Description": "Gujarati eka",
      "AltGr": false
    },
    {
      "Input": "aikya",
      "Output": "ઐક્ય",
      "Description": "Gujarati aikya",
      "AltGr": false
    },
    {
      "Input": "kailaasa",
      "Output": "કૈલાસ",
      "Description": "Gujarati kailaasa",
      "AltGr": false
    },
    {
      "Input": "EMjiiniyara",
      "Output": "ઍંજીનિયર",
      "Description": "Gujarati EMjiiniyara - testing candra e",
      "AltGr": false
    },
    {
      "Input": "sad`bhaava",
      "Output": "સદ્‌ભાવ",
      "Description": "Gujarati sad`bhaava - testing ZWNJ",
      "AltGr": false
    },
    {
      "Input": "caDJaavo",
      "Output": "ચડ઼ાવો",
      "Description": "Gujarati caDJaavo - testing nukta",
      "AltGr": false
    }
  ]
}