{
  "Description": "Georgian Transliteration test",
  "Transliteration": "ka-transliteration",
  "Multiline": false,
  "Transliterates": [
    {
      "Input": "vikipedia\\`",
      "Output": "ვიკიპედია`",
      "Description": "Georgian vikipedia with `",
      "AltGr": false
    },
    {
      "Input": "jim morisoni \\~\\~\\~\\~",
      "Output": "ჯიმ მორისონი ~~~~",
      "Description": "Georgian jim morisoni with Wiki Signature",
      "AltGr": false
    },
    {
      "Input": "abcdefghijklmnopqrstuvwxyz",
      "Output": "აბცდეფგჰიჯკლმნოპქრსტუვწხყზ",
      "Description": "a-z in Georgian",
      "AltGr": false
    },
    {
      "Input": "WRTSJZC`~",
      "Output": "ჭღთშჟძჩ„“",
      "Description": "WRTSJZC`~ in Georgian",
      "AltGr": false
    }
  ]
}