{
  "Description": "Malayalam InScript test",
  "Transliteration": "ml-inscript",
  "Multiline": false,
  "Transliterates": [
    {
      "Input": "ka",
      "Output": "കോ",
      "Description": "",
      "AltGr": false
    }
  ]
}